timestamp,open,high,low,close,adjusted_close,volume,dividend_amount,split_coefficient
2018-08-06,25.4000,26.0000,23.0700,24.6900,24.6900,31837815,0.0000,1.0000
2018-08-03,21.4200,21.8200,21.0300,21.1300,21.1300,3727019,0.0000,1.0000
2018-08-02,21.0100,21.5400,21.0100,21.4700,21.4700,1642820,0.0000,1.0000
2018-08-01,21.1900,21.5600,21.0000,21.0400,21.0400,2426635,0.0000,1.0000
2018-07-31,21.1600,21.4300,21.0600,21.3000,21.3000,1458625,0.0000,1.0000
2018-07-30,21.5300,21.7900,21.0200,21.1800,21.1800,1937992,0.0000,1.0000
2018-07-27,21.9300,21.9300,21.5000,21.6400,21.6400,1030445,0.0000,1.0000
2018-07-26,22.0400,22.4000,21.6800,21.9200,21.9200,1315179,0.0000,1.0000
2018-07-25,22.0100,22.3850,22.0000,22.1600,22.1600,2126100,0.0000,1.0000
2018-07-24,22.5100,22.6200,21.8100,21.9500,21.9500,1010147,0.0000,1.0000
2018-07-23,22.0600,22.7025,22.0000,22.4800,22.4800,1313780,0.0000,1.0000
2018-07-20,22.4200,22.4850,21.9900,22.0600,22.0600,1232327,0.0000,1.0000
2018-07-19,22.4000,22.6450,22.0900,22.4900,22.4900,1744881,0.0000,1.0000
2018-07-18,22.8100,23.0600,22.2100,22.3200,22.3200,2502377,0.0000,1.0000
2018-07-17,22.1400,22.5800,22.0500,22.4600,22.4600,1606858,0.0000,1.0000
2018-07-16,21.8000,22.1900,21.6400,22.1500,22.1500,1326273,0.0000,1.0000
2018-07-13,21.4400,22.0600,21.3100,21.8200,21.8200,1383052,0.0000,1.0000
2018-07-12,21.4800,21.6100,20.7700,21.4400,21.4400,1397459,0.0000,1.0000
2018-07-11,21.2800,21.3900,20.8000,21.1900,21.1900,2447496,0.0000,1.0000
2018-07-10,22.0000,22.2100,21.3100,21.3300,21.3300,1733557,0.0000,1.0000
2018-07-09,21.8500,22.2900,21.7100,22.0200,22.0200,1862903,0.0000,1.0000
2018-07-06,22.5400,22.7400,22.1900,22.3700,22.3700,1582444,0.0000,1.0000
2018-07-05,22.0800,22.6150,22.0200,22.5700,22.5700,1696472,0.0000,1.0000
2018-07-03,21.9900,22.2300,21.8800,22.0000,22.0000,860194,0.0000,1.0000
2018-07-02,21.7800,22.0400,21.5500,22.0100,22.0100,1198886,0.0000,1.0000
2018-06-29,21.6700,21.9200,21.2900,21.8200,21.8200,981426,0.0000,1.0000
2018-06-28,21.4900,21.8700,21.4800,21.6300,21.6300,1230552,0.0000,1.0000
2018-06-27,22.1600,22.2100,21.3500,21.3900,21.3900,1816458,0.0000,1.0000
2018-06-26,22.5100,22.5700,22.0200,22.1600,22.1600,1614383,0.0000,1.0000
2018-06-25,22.7500,22.8200,22.1000,22.4100,22.4100,2208311,0.0000,1.0000
2018-06-22,22.2500,22.9600,22.2100,22.8400,22.8400,3523476,0.0000,1.0000
2018-06-21,22.4100,22.6200,22.1600,22.2500,22.2500,1352120,0.0000,1.0000
2018-06-20,21.7700,22.4300,21.7700,22.3800,22.3800,2272669,0.0000,1.0000
2018-06-19,21.6000,21.7900,21.4700,21.7700,21.7700,2235140,0.0000,1.0000
2018-06-18,21.0500,21.8000,21.0500,21.7700,21.7700,3990626,0.0000,1.0000
2018-06-15,20.6000,21.2100,20.4700,21.0300,21.0300,2652352,0.0000,1.0000
2018-06-14,20.9300,21.3500,20.4800,20.6100,20.6100,3129697,0.0000,1.0000
2018-06-13,20.9600,21.2000,20.7345,20.8600,20.8600,2598299,0.0000,1.0000
2018-06-12,19.7965,21.2000,19.5500,21.0600,21.0600,3459366,0.0000,1.0000
2018-06-11,20.8400,21.2900,20.7300,21.0100,21.0100,3349499,0.0000,1.0000
2018-06-08,20.4100,21.1750,20.2400,20.8200,20.8200,3273096,0.0000,1.0000
2018-06-07,20.4100,20.7800,19.9300,20.3900,20.3900,4728944,0.0000,1.0000
2018-06-06,18.9000,20.3700,18.8810,20.2700,20.2700,3991992,0.0000,1.0000
2018-06-05,18.2200,18.9400,18.0900,18.9100,18.9100,2121175,0.0000,1.0000
2018-06-04,18.0500,18.4300,18.0300,18.2600,18.2600,1348164,0.0000,1.0000
2018-06-01,17.7500,18.2000,17.7500,18.0400,18.0400,1763491,0.0000,1.0000
2018-05-31,17.7400,17.8900,17.5200,17.7500,17.7500,1577865,0.0000,1.0000
2018-05-30,17.7000,17.9000,17.6300,17.6900,17.6900,968026,0.0000,1.0000
2018-05-29,17.7200,17.9400,17.5300,17.6900,17.6900,1302846,0.0000,1.0000
2018-05-25,17.5500,18.0300,17.5101,17.8200,17.8200,1964751,0.0000,1.0000
2018-05-24,17.2900,17.5800,17.1600,17.5400,17.5400,1288411,0.0000,1.0000
2018-05-23,17.1500,17.4700,17.0400,17.3400,17.3400,1698752,0.0000,1.0000
2018-05-22,17.1400,17.3900,17.1400,17.1400,17.1400,1098767,0.0000,1.0000
2018-05-21,16.9700,17.3100,16.9700,17.0900,17.0900,1603611,0.0000,1.0000
2018-05-18,17.1900,17.2500,16.6200,16.9700,16.9700,1805563,0.0000,1.0000
2018-05-17,16.7000,17.3000,16.6303,17.1900,17.1900,1578994,0.0000,1.0000
2018-05-16,16.1600,16.9650,16.1600,16.6900,16.6900,2230822,0.0000,1.0000
2018-05-15,16.0600,16.2400,15.9400,16.2000,16.2000,1580635,0.0000,1.0000
2018-05-14,17.0500,17.0500,16.1100,16.1200,16.1200,1924249,0.0000,1.0000
2018-05-11,16.9800,17.1100,16.5600,17.0800,17.0800,1928436,0.0000,1.0000
2018-05-10,16.8000,17.3800,16.8000,16.9300,16.9300,2014601,0.0000,1.0000
2018-05-09,16.9400,17.0999,16.6000,16.7400,16.7400,2632972,0.0000,1.0000
2018-05-08,17.4600,18.5000,16.9500,16.9900,16.9900,6298122,0.0000,1.0000
2018-05-07,16.0900,16.1400,15.7500,15.8500,15.8500,3623605,0.0000,1.0000
2018-05-04,16.4700,16.5400,15.8200,16.0900,16.0900,2233414,0.0000,1.0000
2018-05-03,16.3600,16.7408,16.0100,16.3600,16.3600,2755765,0.0000,1.0000
2018-05-02,15.9300,16.7050,15.7800,16.4000,16.4000,4430168,0.0000,1.0000
2018-05-01,15.0700,15.5400,14.6900,15.4700,15.4700,2826442,0.0000,1.0000
2018-04-30,15.1900,15.2700,14.8900,15.0900,15.0900,1698364,0.0000,1.0000
2018-04-27,15.2300,15.3100,14.9500,15.1000,15.1000,653413,0.0000,1.0000
2018-04-26,15.3600,15.3600,14.8300,15.2300,15.2300,1135801,0.0000,1.0000
2018-04-25,14.9800,15.4700,14.8400,15.3000,15.3000,1938810,0.0000,1.0000
2018-04-24,15.1600,15.1800,14.8350,14.9600,14.9600,1412479,0.0000,1.0000
2018-04-23,15.4400,15.4400,15.0400,15.0600,15.0600,1571624,0.0000,1.0000
2018-04-20,15.5700,15.6300,15.2700,15.4100,15.4100,1123390,0.0000,1.0000
2018-04-19,15.8900,16.0500,15.6000,15.6300,15.6300,1065250,0.0000,1.0000
2018-04-18,16.1700,16.3500,15.9500,15.9500,15.9500,1353678,0.0000,1.0000
2018-04-17,15.9700,16.3100,15.9500,16.1500,16.1500,1486534,0.0000,1.0000
2018-04-16,15.9400,16.1300,15.7201,15.8900,15.8900,1050424,0.0000,1.0000
2018-04-13,15.3600,16.1000,15.3400,15.8600,15.8600,2164163,0.0000,1.0000
2018-04-12,15.5600,15.6800,15.2700,15.4000,15.4000,1183655,0.0000,1.0000
2018-04-11,15.4100,15.6850,15.3750,15.5200,15.5200,1395949,0.0000,1.0000
2018-04-10,15.6100,15.7800,15.2400,15.4300,15.4300,1103443,0.0000,1.0000
2018-04-09,15.6100,16.0700,15.4600,15.4600,15.4600,2019234,0.0000,1.0000
2018-04-06,15.3900,16.2600,15.3500,15.6000,15.6000,2471836,0.0000,1.0000
2018-04-05,14.9800,15.5500,14.8200,15.4600,15.4600,1312071,0.0000,1.0000
2018-04-04,14.3900,14.9600,14.3100,14.9400,14.9400,1141280,0.0000,1.0000
2018-04-03,13.9700,14.6000,13.8700,14.5500,14.5500,1689449,0.0000,1.0000
2018-04-02,14.7900,14.8700,13.9000,13.9700,13.9700,1447574,0.0000,1.0000
2018-03-29,14.7900,15.0150,14.7900,14.8300,14.8300,718560,0.0000,1.0000
2018-03-28,14.7000,14.9600,14.6750,14.7600,14.7600,944460,0.0000,1.0000
2018-03-27,14.3200,14.8200,14.1950,14.6300,14.6300,1423515,0.0000,1.0000
2018-03-26,14.4600,14.4600,14.0600,14.2500,14.2500,2399780,0.0000,1.0000
2018-03-23,14.1600,14.5600,14.1600,14.3000,14.3000,1395563,0.0000,1.0000
2018-03-22,14.2400,14.6100,14.0900,14.1300,14.1300,1133184,0.0000,1.0000
2018-03-21,14.1000,14.4800,14.0300,14.3400,14.3400,943560,0.0000,1.0000
2018-03-20,14.4600,14.5200,13.9400,14.1000,14.1000,1205980,0.0000,1.0000
2018-03-19,14.7000,14.7000,14.4100,14.5000,14.5000,1174605,0.0000,1.0000
2018-03-16,14.5000,14.8600,14.0900,14.6300,14.6300,1810929,0.0000,1.0000
2018-03-15,14.6800,14.7200,14.3400,14.5000,14.5000,1320432,0.0000,1.0000
2018-03-14,14.6000,14.7550,14.4400,14.6500,14.6500,1077783,0.0000,1.0000
2018-03-13,14.6800,14.8500,14.5700,14.6100,14.6100,1512286,0.0000,1.0000
2018-03-12,14.5500,14.7400,14.3300,14.6900,14.6900,1272520,0.0000,1.0000
2018-03-09,15.4100,15.4200,14.3350,14.5600,14.5600,2275830,0.0000,1.0000
2018-03-08,14.5700,15.2100,14.5200,15.1900,15.1900,2498512,0.0000,1.0000
2018-03-07,14.3600,14.6000,14.3400,14.5700,14.5700,1098736,0.0000,1.0000
2018-03-06,14.4500,14.5650,14.2400,14.4400,14.4400,1667409,0.0000,1.0000
2018-03-05,14.6100,14.6700,14.2900,14.4500,14.4500,2427655,0.0000,1.0000
2018-03-02,14.2600,14.8700,14.1200,14.6600,14.6600,3381579,0.0000,1.0000
2018-03-01,14.6800,15.0100,14.5800,14.5800,14.5800,2512611,0.0000,1.0000
2018-02-28,15.0400,15.0400,14.3000,14.6300,14.6300,6151353,0.0000,1.0000
2018-02-27,16.5200,16.9100,14.7800,14.9200,14.9200,6097234,0.0000,1.0000
2018-02-26,15.4500,15.8400,15.3400,15.7400,15.7400,2956920,0.0000,1.0000
2018-02-23,15.1800,15.5000,15.0600,15.4600,15.4600,2180708,0.0000,1.0000
2018-02-22,15.3900,15.5900,15.0300,15.0800,15.0800,3128283,0.0000,1.0000
2018-02-21,15.3800,15.5400,15.2800,15.3100,15.3100,2048462,0.0000,1.0000
2018-02-20,15.6200,15.7200,15.2500,15.3800,15.3800,2345340,0.0000,1.0000
2018-02-16,15.6700,15.9500,15.6100,15.6900,15.6900,1148619,0.0000,1.0000
2018-02-15,15.9000,16.0000,15.6300,15.6600,15.6600,1161838,0.0000,1.0000
2018-02-14,15.7200,15.9750,15.5000,15.8900,15.8900,1281133,0.0000,1.0000
2018-02-13,15.7400,15.8900,15.6250,15.7700,15.7700,1234328,0.0000,1.0000
2018-02-12,15.5000,15.8500,15.3200,15.8200,15.8200,1650557,0.0000,1.0000
2018-02-09,15.1200,15.6000,14.9500,15.4500,15.4500,2762772,0.0000,1.0000
2018-02-08,14.9900,15.2400,14.7800,15.0800,15.0800,1305010,0.0000,1.0000
2018-02-07,15.0700,15.4400,14.9400,14.9700,14.9700,1101268,0.0000,1.0000
2018-02-06,14.5100,15.2400,14.4800,15.0800,15.0800,2117311,0.0000,1.0000
2018-02-05,14.9500,15.4300,14.8100,14.8200,14.8200,3032482,0.0000,1.0000
2018-02-02,15.0600,15.2000,14.7600,15.1000,15.1000,1831929,0.0000,1.0000
2018-02-01,15.2800,16.0000,15.1200,15.1800,15.1800,3392941,0.0000,1.0000
2018-01-31,14.7800,15.3000,14.7300,15.2500,15.2500,2908037,0.0000,1.0000
2018-01-30,14.6500,14.8900,14.5800,14.7300,14.7300,1359000,0.0000,1.0000
2018-01-29,14.5700,14.8200,14.4500,14.7400,14.7400,1487620,0.0000,1.0000
2018-01-26,14.6000,14.7100,14.4000,14.6500,14.6500,942587,0.0000,1.0000
2018-01-25,14.5300,14.7100,14.2300,14.5400,14.5400,864034,0.0000,1.0000
2018-01-24,14.3700,14.8100,14.2950,14.5300,14.5300,1717873,0.0000,1.0000
2018-01-23,14.2500,14.4300,14.1100,14.3400,14.3400,902664,0.0000,1.0000
2018-01-22,13.8500,14.3200,13.7600,14.2900,14.2900,1649621,0.0000,1.0000
2018-01-19,13.9400,13.9600,13.5800,13.7600,13.7600,2424709,0.0000,1.0000
2018-01-18,14.2400,14.3100,13.9400,13.9600,13.9600,1323724,0.0000,1.0000
2018-01-17,14.2500,14.4200,14.0700,14.2300,14.2300,1881339,0.0000,1.0000
2018-01-16,15.0700,15.1100,14.0900,14.2300,14.2300,2433622,0.0000,1.0000
2018-01-12,14.9000,15.1100,14.4850,14.8400,14.8400,2466710,0.0000,1.0000
2018-01-11,14.2800,15.2000,14.2800,14.9200,14.9200,6373425,0.0000,1.0000
2018-01-10,13.7300,14.2000,13.5800,14.1800,14.1800,2763203,0.0000,1.0000
2018-01-09,14.0000,14.2000,13.8600,13.8700,13.8700,2517859,0.0000,1.0000
2018-01-08,13.9700,14.2000,13.7900,14.0300,14.0300,2138432,0.0000,1.0000
2018-01-05,13.6500,13.9700,13.4700,13.8400,13.8400,2054974,0.0000,1.0000
2018-01-04,13.7100,13.7800,13.4500,13.6300,13.6300,732651,0.0000,1.0000
2018-01-03,13.9500,13.9800,13.6500,13.7000,13.7000,1092055,0.0000,1.0000
2018-01-02,13.6000,13.9600,13.4800,13.9200,13.9200,1981372,0.0000,1.0000
2017-12-29,13.7850,13.7950,13.4600,13.5700,13.5700,1335127,0.0000,1.0000
2017-12-28,13.6200,13.8050,13.4300,13.7400,13.7400,1233635,0.0000,1.0000
2017-12-27,13.6100,13.8000,13.4400,13.5600,13.5600,1451707,0.0000,1.0000
2017-12-26,13.7300,13.9700,13.5100,13.6400,13.6400,1027952,0.0000,1.0000
2017-12-22,13.6200,13.7000,13.3100,13.6300,13.6300,1213518,0.0000,1.0000
2017-12-21,13.2900,13.8000,13.1000,13.7300,13.7300,1844976,0.0000,1.0000
2017-12-20,13.0300,13.2900,12.9800,13.1600,13.1600,1002572,0.0000,1.0000
2017-12-19,13.1500,13.2300,12.9400,13.0800,13.0800,1301097,0.0000,1.0000
2017-12-18,13.2500,13.3300,12.5900,13.0200,13.0200,2503596,0.0000,1.0000
2017-12-15,13.1200,13.2800,13.0000,13.2500,13.2500,3167640,0.0000,1.0000
2017-12-14,12.9500,13.0800,12.7600,13.0700,13.0700,1209784,0.0000,1.0000
2017-12-13,12.8000,12.9700,12.7100,12.8200,12.8200,957880,0.0000,1.0000
2017-12-12,13.1200,13.2900,12.7600,12.7700,12.7700,1497105,0.0000,1.0000
2017-12-11,12.7600,13.3200,12.7450,13.1000,13.1000,2504667,0.0000,1.0000
2017-12-08,12.8800,13.2600,12.7300,12.7700,12.7700,2473073,0.0000,1.0000
2017-12-07,13.0000,13.1100,12.7200,12.8900,12.8900,1261355,0.0000,1.0000
2017-12-06,12.9200,13.2200,12.8700,13.0800,13.0800,3445105,0.0000,1.0000
2017-12-05,12.3800,13.0300,12.3000,12.9900,12.9900,4367799,0.0000,1.0000
2017-12-04,12.2200,12.6000,12.0600,12.3800,12.3800,2418876,0.0000,1.0000
2017-12-01,11.8300,12.4500,11.7456,12.1900,12.1900,3642440,0.0000,1.0000
2017-11-30,11.6300,11.9100,11.4100,11.7500,11.7500,1817112,0.0000,1.0000
2017-11-29,11.2000,11.9400,11.0800,11.6200,11.6200,2268565,0.0000,1.0000
2017-11-28,10.8300,11.2400,10.7600,11.1600,11.1600,2089105,0.0000,1.0000
2017-11-27,10.8000,11.0800,10.7400,10.7900,10.7900,1915382,0.0000,1.0000
2017-11-24,10.7100,10.8600,10.4200,10.8000,10.8000,1189948,0.0000,1.0000
2017-11-22,10.8700,11.1400,10.5800,10.6100,10.6100,2610618,0.0000,1.0000
2017-11-21,11.0100,11.2800,10.6500,10.8000,10.8000,4440401,0.0000,1.0000
2017-11-20,11.8400,11.9100,10.9000,10.9800,10.9800,3239622,0.0000,1.0000
2017-11-17,11.7800,12.0900,11.7800,11.8200,11.8200,2063625,0.0000,1.0000
2017-11-16,12.1300,12.3300,11.8000,11.8400,11.8400,1881463,0.0000,1.0000
2017-11-15,12.0000,12.2600,11.7700,12.0500,12.0500,1245302,0.0000,1.0000
2017-11-14,11.4900,12.2200,11.4400,12.0900,12.0900,3036200,0.0000,1.0000
2017-11-13,12.0700,12.1500,11.4700,11.5600,11.5600,4473869,0.0000,1.0000
2017-11-10,12.4500,12.6500,12.1000,12.1500,12.1500,2335946,0.0000,1.0000
2017-11-09,12.1300,12.6100,11.9600,12.5800,12.5800,3324024,0.0000,1.0000
2017-11-08,11.2000,12.1900,11.2000,12.1700,12.1700,3301258,0.0000,1.0000
2017-11-07,10.8700,12.2800,10.7900,11.3600,11.3600,5023924,0.0000,1.0000
2017-11-06,11.1500,11.5600,11.0300,11.1900,11.1900,3760027,0.0000,1.0000
2017-11-03,11.8000,11.8600,10.8300,11.2100,11.2100,8148919,0.0000,1.0000
2017-11-02,11.6300,11.8700,11.5000,11.8000,11.8000,2709621,0.0000,1.0000
2017-11-01,11.5600,11.8100,11.4000,11.6800,11.6800,2110994,0.0000,1.0000
2017-10-31,11.6100,11.8800,11.3100,11.4800,11.4800,3216778,0.0000,1.0000
2017-10-30,11.8400,11.9400,11.5900,11.6300,11.6300,1058024,0.0000,1.0000
2017-10-27,11.8200,12.0000,11.6400,11.8500,11.8500,1673161,0.0000,1.0000
2017-10-26,11.9200,12.1200,11.6200,11.8300,11.8300,1655512,0.0000,1.0000
2017-10-25,12.1700,12.2600,11.8400,11.8900,11.8900,1737531,0.0000,1.0000
2017-10-24,12.1400,12.5000,12.1300,12.1500,12.1500,1816889,0.0000,1.0000
2017-10-23,12.3700,12.4500,12.1200,12.1500,12.1500,1686868,0.0000,1.0000
2017-10-20,12.3100,12.6100,12.2800,12.3800,12.3800,1350190,0.0000,1.0000
2017-10-19,12.1800,12.3000,12.0200,12.1900,12.1900,1810806,0.0000,1.0000
2017-10-18,12.4500,12.5400,12.1000,12.3100,12.3100,1303092,0.0000,1.0000
2017-10-17,12.4700,12.7900,12.2600,12.4800,12.4800,1353940,0.0000,1.0000
2017-10-16,13.0800,13.2300,12.4900,12.5300,12.5300,2945628,0.0000,1.0000
2017-10-13,13.2000,13.3100,13.0900,13.1200,13.1200,1298732,0.0000,1.0000
2017-10-12,13.6400,13.6900,13.0400,13.2200,13.2200,3569255,0.0000,1.0000
2017-10-11,13.0000,13.6800,13.0000,13.6800,13.6800,4278420,0.0000,1.0000
2017-10-10,13.8600,13.9400,13.1200,13.1600,13.1600,5481954,0.0000,1.0000
2017-10-09,13.2600,14.1000,13.0800,13.6900,13.6900,6490280,0.0000,1.0000
2017-10-06,13.1400,13.4100,12.5000,13.2900,13.2900,4975614,0.0000,1.0000
2017-10-05,14.4200,14.4200,13.1700,13.1900,13.1900,6281884,0.0000,1.0000
2017-10-04,13.5900,14.4700,13.4400,14.1100,14.1100,6474440,0.0000,1.0000
2017-10-03,13.3900,13.7800,13.2900,13.4900,13.4900,4673263,0.0000,1.0000
2017-10-02,12.9600,13.6800,12.7500,13.3900,13.3900,3136491,0.0000,1.0000
2017-09-29,13.5100,13.5100,12.6900,12.9900,12.9900,4642342,0.0000,1.0000
2017-09-28,12.6400,13.5800,12.5600,13.4400,13.4400,4586352,0.0000,1.0000
2017-09-27,12.1800,12.6200,12.0800,12.5900,12.5900,3253462,0.0000,1.0000
2017-09-26,12.2000,12.4300,11.9500,12.1000,12.1000,1818948,0.0000,1.0000
2017-09-25,12.3900,12.4100,12.0800,12.1600,12.1600,1462617,0.0000,1.0000
2017-09-22,12.3300,12.4200,12.3300,12.3900,12.3900,1775693,0.0000,1.0000
2017-09-21,12.4000,12.4600,12.2700,12.3600,12.3600,1808456,0.0000,1.0000
2017-09-20,12.7700,12.7700,12.3600,12.4100,12.4100,1049187,0.0000,1.0000
2017-09-19,12.6500,12.7500,12.5500,12.5800,12.5800,719850,0.0000,1.0000
2017-09-18,13.0200,13.0700,12.5700,12.6100,12.6100,973262,0.0000,1.0000
2017-09-15,13.2300,13.2500,12.8500,13.0200,13.0200,1120240,0.0000,1.0000
2017-09-14,12.8200,13.2800,12.6500,13.2200,13.2200,1637243,0.0000,1.0000
2017-09-13,13.2100,13.3400,12.7600,12.8800,12.8800,1822829,0.0000,1.0000
2017-09-12,12.8100,13.2800,12.6800,13.2000,13.2000,3263805,0.0000,1.0000
2017-09-11,12.2800,12.8400,12.2800,12.8000,12.8000,1642186,0.0000,1.0000
2017-09-08,12.3600,12.4000,11.9700,12.2000,12.2000,1768943,0.0000,1.0000
2017-09-07,12.7800,12.8100,12.1100,12.3400,12.3400,2175625,0.0000,1.0000
2017-09-06,12.4700,12.8700,12.4600,12.7000,12.7000,2516199,0.0000,1.0000
2017-09-05,12.6100,12.6100,12.1500,12.4700,12.4700,3536772,0.0000,1.0000
2017-09-01,13.0300,13.1200,12.6100,12.6300,12.6300,1705459,0.0000,1.0000
2017-08-31,12.8200,13.0900,12.8200,12.9800,12.9800,1316968,0.0000,1.0000
2017-08-30,12.9900,13.0700,12.7900,12.8900,12.8900,2472218,0.0000,1.0000
2017-08-29,13.2700,13.4300,12.9500,12.9900,12.9900,3870242,0.0000,1.0000
2017-08-28,13.8000,13.9100,13.0400,13.3500,13.3500,2790018,0.0000,1.0000
2017-08-25,13.4400,13.8900,13.2900,13.7800,13.7800,1380879,0.0000,1.0000
2017-08-24,13.3700,13.4300,13.1900,13.3300,13.3300,1498548,0.0000,1.0000
2017-08-23,13.3600,13.3600,13.1300,13.2900,13.2900,975292,0.0000,1.0000
2017-08-22,13.0500,13.4400,13.0500,13.4000,13.4000,891343,0.0000,1.0000
2017-08-21,13.4000,13.4400,12.8900,13.0100,13.0100,1399306,0.0000,1.0000
2017-08-18,13.4400,13.5400,13.2900,13.4500,13.4500,1865122,0.0000,1.0000
2017-08-17,13.6800,13.8200,13.4100,13.5100,13.5100,1673916,0.0000,1.0000
2017-08-16,13.8500,14.1600,13.7000,13.7900,13.7900,2069947,0.0000,1.0000
2017-08-15,13.4000,14.8900,13.2400,13.8400,13.8400,5011147,0.0000,1.0000
2017-08-14,12.8000,13.5400,12.7400,13.4100,13.4100,3335382,0.0000,1.0000
2017-08-11,12.5400,13.0900,12.4900,12.7600,12.7600,3240631,0.0000,1.0000
2017-08-10,12.6800,12.7500,12.0500,12.6800,12.6800,6187498,0.0000,1.0000
2017-08-09,12.6300,12.9900,12.6000,12.7800,12.7800,3548520,0.0000,1.0000
2017-08-08,11.2400,13.2400,11.1000,12.7600,12.7600,13246952,0.0000,1.0000
2017-08-07,14.1100,14.1400,13.5000,13.6100,13.6100,4151206,0.0000,1.0000
2017-08-04,13.9000,14.3000,13.7100,14.2100,14.2100,3304945,0.0000,1.0000
2017-08-03,14.1200,14.1400,13.6600,13.8600,13.8600,3148793,0.0000,1.0000
2017-08-02,15.2800,15.2800,14.0200,14.0700,14.0700,5899574,0.0000,1.0000
2017-08-01,15.4100,16.1100,15.0200,15.2700,15.2700,5210923,0.0000,1.0000
2017-07-31,14.4300,15.5000,14.2900,15.3800,15.3800,5111808,0.0000,1.0000
2017-07-28,14.7100,14.7100,14.3000,14.4200,14.4200,1307471,0.0000,1.0000
2017-07-27,14.6900,14.7000,14.2000,14.6400,14.6400,2807722,0.0000,1.0000
2017-07-26,14.7200,15.0700,14.5900,15.0400,15.0400,3040089,0.0000,1.0000
2017-07-25,14.4800,14.7400,14.3500,14.7300,14.7300,2034596,0.0000,1.0000
2017-07-24,14.5900,14.7000,14.4000,14.4800,14.4800,1808846,0.0000,1.0000
2017-07-21,14.7600,14.7700,14.4900,14.5900,14.5900,1801651,0.0000,1.0000
2017-07-20,14.6300,14.8600,14.5500,14.6800,14.6800,1269847,0.0000,1.0000
2017-07-19,14.3900,14.7500,14.3000,14.6200,14.6200,1496226,0.0000,1.0000
2017-07-18,14.7200,14.7200,14.1000,14.3500,14.3500,3113123,0.0000,1.0000
2017-07-17,14.9300,14.9500,14.3600,14.4400,14.4400,4890842,0.0000,1.0000
2017-07-14,15.4000,15.4000,14.8700,14.9300,14.9300,3715160,0.0000,1.0000
2017-07-13,15.0600,15.4000,15.0600,15.4000,15.4000,3283519,0.0000,1.0000
2017-07-12,15.3400,15.4700,15.0500,15.0700,15.0700,3461600,0.0000,1.0000
2017-07-11,15.6000,15.6900,15.0700,15.1500,15.1500,2273423,0.0000,1.0000
2017-07-10,15.5200,15.7600,15.4600,15.5900,15.5900,2168460,0.0000,1.0000
2017-07-07,15.2000,15.5300,15.0500,15.5000,15.5000,1770325,0.0000,1.0000
2017-07-06,15.3900,15.4100,15.1300,15.1800,15.1800,2837102,0.0000,1.0000
2017-07-05,16.2900,16.3600,15.3100,15.5200,15.5200,2659723,0.0000,1.0000
2017-07-03,16.3500,16.5000,16.2800,16.3400,16.3400,541051,0.0000,1.0000
2017-06-30,16.3600,16.4100,16.0200,16.2700,16.2700,1765648,0.0000,1.0000
2017-06-29,16.2200,16.4800,16.1400,16.3500,16.3500,2317138,0.0000,1.0000
2017-06-28,15.7200,16.3100,15.6800,16.2500,16.2500,3665341,0.0000,1.0000
2017-06-27,15.1200,15.7100,15.0700,15.6600,15.6600,1882953,0.0000,1.0000
2017-06-26,15.6400,15.6500,14.7000,15.1000,15.1000,5072562,0.0000,1.0000
2017-06-23,15.7600,15.7700,15.5600,15.6500,15.6500,963040,0.0000,1.0000
2017-06-22,15.6800,15.9100,15.5800,15.8100,15.8100,1359569,0.0000,1.0000
2017-06-21,15.6700,15.7800,15.5900,15.6400,15.6400,1798985,0.0000,1.0000
2017-06-20,16.0400,16.0800,15.6000,15.6500,15.6500,1717926,0.0000,1.0000
2017-06-19,16.5200,16.5700,15.8600,16.0700,16.0700,2957074,0.0000,1.0000
2017-06-16,16.4500,16.6400,16.2400,16.4500,16.4500,1782285,0.0000,1.0000
2017-06-15,17.0700,17.1100,16.3500,16.4900,16.4900,1962861,0.0000,1.0000
2017-06-14,16.0200,17.0800,15.9800,17.0700,17.0700,4537995,0.0000,1.0000
2017-06-13,16.1500,16.2300,15.9700,15.9900,15.9900,1741754,0.0000,1.0000
2017-06-12,16.2300,16.3700,16.0100,16.1200,16.1200,2014073,0.0000,1.0000
2017-06-09,16.6600,16.7000,16.0400,16.2300,16.2300,2344876,0.0000,1.0000
2017-06-08,16.7700,16.8900,16.4100,16.6500,16.6500,1798653,0.0000,1.0000
2017-06-07,17.0300,17.1300,16.5700,16.7100,16.7100,1604223,0.0000,1.0000
2017-06-06,17.1400,17.2700,16.8500,17.0200,17.0200,1540903,0.0000,1.0000
2017-06-05,17.6600,17.6900,17.1100,17.2300,17.2300,2290779,0.0000,1.0000
2017-06-02,18.0300,18.1800,17.4900,17.6100,17.6100,1419752,0.0000,1.0000
2017-06-01,17.9100,18.1300,17.8800,17.9700,17.9700,1739863,0.0000,1.0000
2017-05-31,17.9000,17.9600,17.4900,17.8500,17.8500,1587512,0.0000,1.0000
2017-05-30,18.0300,18.1500,17.7800,17.8100,17.8100,2033152,0.0000,1.0000
2017-05-26,18.1700,18.2800,17.9000,18.0800,18.0800,1514219,0.0000,1.0000
2017-05-25,18.3900,18.5300,18.1600,18.2100,18.2100,1312442,0.0000,1.0000
2017-05-24,18.5400,18.6300,18.1500,18.3500,18.3500,1162266,0.0000,1.0000
2017-05-23,18.4100,18.5800,18.3400,18.5500,18.5500,1578050,0.0000,1.0000
2017-05-22,18.0700,18.3200,18.0200,18.2500,18.2500,1795947,0.0000,1.0000
2017-05-19,17.6900,18.1200,17.6900,18.0700,18.0700,1166625,0.0000,1.0000
2017-05-18,17.8600,17.9300,17.4900,17.6500,17.6500,1774705,0.0000,1.0000
2017-05-17,17.8600,18.0100,17.6900,17.8900,17.8900,1047119,0.0000,1.0000
2017-05-16,18.1200,18.1700,17.9400,18.0000,18.0000,1142990,0.0000,1.0000
2017-05-15,18.5000,18.5000,18.0400,18.0600,18.0600,2113745,0.0000,1.0000
2017-05-12,18.7200,18.7700,18.3500,18.4100,18.4100,1988086,0.0000,1.0000
2017-05-11,18.9700,19.2300,18.7400,18.7900,18.7900,3041473,0.0000,1.0000
2017-05-10,18.0900,19.1100,17.9500,19.0800,19.0800,3698413,0.0000,1.0000
2017-05-09,16.9900,18.3000,16.5700,18.1100,18.1100,6627643,0.0000,1.0000
2017-05-08,17.4400,17.5800,17.3000,17.5500,17.5500,2561876,0.0000,1.0000
2017-05-05,17.5600,17.8200,17.3000,17.4800,17.4800,2351556,0.0000,1.0000
2017-05-04,18.0100,18.0300,17.7300,17.7300,17.7300,1874071,0.0000,1.0000
2017-05-03,17.9600,18.0200,17.7500,18.0000,18.0000,987791,0.0000,1.0000
2017-05-02,17.7400,18.1900,17.5900,18.0100,18.0100,1514631,0.0000,1.0000
2017-05-01,17.5400,17.8100,17.4700,17.7700,17.7700,1468218,0.0000,1.0000
2017-04-28,17.8300,18.0500,17.5000,17.5300,17.5300,946398,0.0000,1.0000
2017-04-27,17.9100,17.9600,17.7400,17.9000,17.9000,997429,0.0000,1.0000
2017-04-26,17.5300,18.0200,17.5000,17.8800,17.8800,1785580,0.0000,1.0000
2017-04-25,17.3900,17.6100,17.2900,17.5000,17.5000,1416679,0.0000,1.0000
2017-04-24,17.3700,17.4600,17.1000,17.2700,17.2700,1220560,0.0000,1.0000
2017-04-21,17.3000,17.4100,17.1300,17.2300,17.2300,2761987,0.0000,1.0000
2017-04-20,16.7100,17.0100,16.7000,16.9800,16.9800,1417006,0.0000,1.0000
2017-04-19,16.4000,16.7200,16.4000,16.6500,16.6500,1170616,0.0000,1.0000
2017-04-18,16.4200,16.5600,16.2500,16.4000,16.4000,1470653,0.0000,1.0000
2017-04-17,16.1600,16.4900,16.1400,16.4800,16.4800,1019336,0.0000,1.0000
2017-04-13,16.3600,16.6200,16.0900,16.1900,16.1900,1736277,0.0000,1.0000
2017-04-12,16.2400,16.2600,15.8100,16.0100,16.0100,1878158,0.0000,1.0000
2017-04-11,16.3700,16.4500,16.0000,16.2600,16.2600,2096355,0.0000,1.0000
2017-04-10,16.7200,16.7200,16.3400,16.3700,16.3700,2485090,0.0000,1.0000
2017-04-07,17.0200,17.1000,16.6600,16.7200,16.7200,2003647,0.0000,1.0000
2017-04-06,17.5000,17.6200,17.0300,17.0500,17.0500,3128739,0.0000,1.0000
2017-04-05,17.9800,18.1400,17.8500,17.9400,17.9400,1619925,0.0000,1.0000
2017-04-04,18.2700,18.4000,17.8800,17.9100,17.9100,1253591,0.0000,1.0000
2017-04-03,18.2600,18.4100,18.1600,18.3100,18.3100,1065970,0.0000,1.0000
2017-03-31,18.2500,18.4300,18.1600,18.2700,18.2700,694741,0.0000,1.0000
2017-03-30,18.1300,18.4100,18.1200,18.2900,18.2900,608447,0.0000,1.0000
2017-03-29,18.0800,18.1800,17.9800,18.1300,18.1300,963127,0.0000,1.0000
2017-03-28,18.2200,18.2800,18.0600,18.1400,18.1400,969773,0.0000,1.0000
2017-03-27,17.9400,18.4200,17.8300,18.2900,18.2900,1573592,0.0000,1.0000
2017-03-24,19.2300,19.2400,18.1100,18.1300,18.1300,4027585,0.0000,1.0000
2017-03-23,17.2700,17.4600,17.1700,17.3100,17.3100,889285,0.0000,1.0000
2017-03-22,17.5400,17.5400,17.1400,17.2300,17.2300,1843927,0.0000,1.0000
2017-03-21,17.7500,17.8300,17.4800,17.5600,17.5600,1372393,0.0000,1.0000
2017-03-20,18.0600,18.1400,17.6700,17.7000,17.7000,1673673,0.0000,1.0000
2017-03-17,18.3300,18.6000,17.9500,18.1200,18.1200,4094161,0.0000,1.0000
2017-03-16,18.6000,18.8900,18.5600,18.8800,18.8800,784650,0.0000,1.0000
2017-03-15,18.4200,18.7000,18.2000,18.6200,18.6200,866925,0.0000,1.0000
2017-03-14,18.5400,18.5400,18.1300,18.3200,18.3200,939056,0.0000,1.0000
2017-03-13,18.6400,18.6900,18.4400,18.5700,18.5700,635763,0.0000,1.0000
2017-03-10,18.4200,18.6700,18.3700,18.6400,18.6400,730530,0.0000,1.0000
2017-03-09,18.2300,18.4500,18.1500,18.3100,18.3100,662196,0.0000,1.0000
2017-03-08,18.2300,18.4300,18.1900,18.2300,18.2300,773043,0.0000,1.0000
2017-03-07,18.3500,18.5000,18.1500,18.1700,18.1700,787715,0.0000,1.0000
2017-03-06,18.2300,18.4600,18.0100,18.3800,18.3800,1146940,0.0000,1.0000
2017-03-03,18.4800,18.8500,18.1800,18.2400,18.2400,1640456,0.0000,1.0000
2017-03-02,18.8300,18.8800,18.5700,18.5900,18.5900,1264301,0.0000,1.0000
2017-03-01,19.4000,19.4500,18.7800,18.9000,18.9000,2033026,0.0000,1.0000
2017-02-28,18.6500,20.1300,18.4700,19.2700,19.2700,4061879,0.0000,1.0000
2017-02-27,18.5700,18.7900,18.4900,18.7800,18.7800,1881902,0.0000,1.0000
2017-02-24,18.7500,18.8600,18.5100,18.6200,18.6200,1039124,0.0000,1.0000
2017-02-23,19.3300,19.4300,18.8100,18.8500,18.8500,953602,0.0000,1.0000
2017-02-22,19.3400,19.3900,18.8600,19.2400,19.2400,1306978,0.0000,1.0000
2017-02-21,19.5900,19.8900,19.2300,19.3100,19.3100,2472948,0.0000,1.0000
2017-02-17,19.2400,19.3000,19.0800,19.2100,19.2100,752875,0.0000,1.0000
2017-02-16,19.2400,19.3400,19.0600,19.2400,19.2400,624881,0.0000,1.0000
2017-02-15,18.9600,19.3200,18.9400,19.2600,19.2600,597138,0.0000,1.0000
2017-02-14,19.0200,19.1400,18.9700,19.0000,19.0000,492842,0.0000,1.0000
2017-02-13,19.0500,19.1400,18.9800,19.0700,19.0700,501615,0.0000,1.0000
2017-02-10,19.1000,19.1900,18.7600,18.9400,18.9400,550341,0.0000,1.0000
2017-02-09,18.9300,19.1700,18.8000,19.0700,19.0700,749589,0.0000,1.0000
2017-02-08,18.7400,18.9700,18.4600,18.9300,18.9300,949410,0.0000,1.0000
2017-02-07,18.4400,18.7700,18.3300,18.7600,18.7600,1404683,0.0000,1.0000
2017-02-06,18.2300,18.6400,18.2200,18.4100,18.4100,820055,0.0000,1.0000
2017-02-03,18.3600,18.5300,18.2200,18.3100,18.3100,1441462,0.0000,1.0000
2017-02-02,18.1900,18.4200,18.0900,18.3100,18.3100,893443,0.0000,1.0000
2017-02-01,18.1900,18.3900,18.1400,18.2700,18.2700,729344,0.0000,1.0000
2017-01-31,18.3400,18.3400,17.9900,18.1100,18.1100,1463059,0.0000,1.0000
2017-01-30,18.4200,18.4700,18.0700,18.3600,18.3600,832230,0.0000,1.0000
2017-01-27,18.8700,18.8700,18.4200,18.4800,18.4800,895558,0.0000,1.0000
2017-01-26,18.7600,18.8750,18.5000,18.8100,18.8100,759914,0.0000,1.0000
2017-01-25,18.8900,18.9600,18.6650,18.7100,18.7100,644338,0.0000,1.0000
2017-01-24,18.8200,18.9500,18.6900,18.7800,18.7800,569229,0.0000,1.0000
2017-01-23,18.7900,18.8300,18.6400,18.7400,18.7400,374663,0.0000,1.0000
2017-01-20,18.6800,18.9500,18.6800,18.9000,18.9000,854021,0.0000,1.0000
2017-01-19,18.8400,18.9700,18.6000,18.6700,18.6700,792376,0.0000,1.0000
2017-01-18,18.7500,18.9900,18.6700,18.8400,18.8400,710326,0.0000,1.0000
2017-01-17,18.6200,18.8500,18.5200,18.7100,18.7100,658275,0.0000,1.0000
2017-01-13,18.6800,18.7800,18.5300,18.7100,18.7100,618758,0.0000,1.0000
2017-01-12,18.8000,18.9500,18.3900,18.6300,18.6300,1159503,0.0000,1.0000
2017-01-11,18.8600,18.9800,18.6600,18.9300,18.9300,802321,0.0000,1.0000
2017-01-10,18.5800,18.9900,18.4400,18.8400,18.8400,739923,0.0000,1.0000
2017-01-09,18.7600,18.8550,18.5000,18.5200,18.5200,1024375,0.0000,1.0000
2017-01-06,19.0400,19.0800,18.6400,18.7300,18.7300,1102711,0.0000,1.0000
2017-01-05,19.0600,19.2100,18.8700,18.9900,18.9900,1170919,0.0000,1.0000
2017-01-04,19.5400,19.6000,19.0900,19.1200,19.1200,2227036,0.0000,1.0000
2017-01-03,19.1200,19.5300,19.0000,19.5000,19.5000,917347,0.0000,1.0000
2016-12-30,19.1800,19.1900,18.8600,18.9300,18.9300,861317,0.0000,1.0000
2016-12-29,19.2300,19.3500,19.0750,19.1600,19.1600,601741,0.0000,1.0000
2016-12-28,19.3600,19.4200,19.0050,19.2300,19.2300,419695,0.0000,1.0000
2016-12-27,19.0600,19.4300,19.0500,19.3900,19.3900,708474,0.0000,1.0000
2016-12-23,19.1700,19.3300,19.0500,19.0700,19.0700,680444,0.0000,1.0000
2016-12-22,19.1000,19.2900,19.0100,19.1200,19.1200,978245,0.0000,1.0000
2016-12-21,19.3900,19.4800,19.0600,19.0800,19.0800,1193358,0.0000,1.0000
2016-12-20,19.6500,19.8000,19.3800,19.4200,19.4200,1007132,0.0000,1.0000
2016-12-19,19.5300,19.7400,19.4850,19.5200,19.5200,1252275,0.0000,1.0000
2016-12-16,19.6000,19.8800,19.4600,19.6200,19.6200,2574138,0.0000,1.0000
2016-12-15,19.5600,19.7500,19.4100,19.5200,19.5200,2217808,0.0000,1.0000
2016-12-14,19.8600,19.8800,19.1775,19.4000,19.4000,1682731,0.0000,1.0000
2016-12-13,19.3600,19.5300,19.0200,19.5000,19.5000,3681495,0.0000,1.0000
2016-12-12,18.6300,18.6300,18.2700,18.5700,18.5700,651008,0.0000,1.0000
2016-12-09,18.6800,18.8300,18.5600,18.6600,18.6600,775175,0.0000,1.0000
2016-12-08,18.3200,18.6900,18.3100,18.6000,18.6000,1299003,0.0000,1.0000
2016-12-07,18.2300,18.4500,18.1500,18.2600,18.2600,1308369,0.0000,1.0000
2016-12-06,18.1100,18.2900,17.8300,18.2100,18.2100,1186786,0.0000,1.0000
2016-12-05,17.6400,18.1550,17.6200,18.1200,18.1200,1669287,0.0000,1.0000
2016-12-02,17.1000,17.4900,17.0700,17.4000,17.4000,1619140,0.0000,1.0000
2016-12-01,16.8600,17.0900,16.8000,17.0900,17.0900,1135769,0.0000,1.0000
2016-11-30,17.2200,17.2450,16.8900,16.9000,16.9000,1321172,0.0000,1.0000
2016-11-29,17.3200,17.5100,17.0100,17.0800,17.0800,1433185,0.0000,1.0000
2016-11-28,17.5600,17.6550,17.2200,17.2300,17.2300,1211328,0.0000,1.0000
2016-11-25,17.6000,17.6800,17.4950,17.6000,17.6000,509087,0.0000,1.0000
2016-11-23,17.3500,17.5600,17.2700,17.5200,17.5200,973739,0.0000,1.0000
2016-11-22,17.4600,17.5300,17.2000,17.2500,17.2500,1383082,0.0000,1.0000
2016-11-21,17.1600,17.4100,17.1400,17.3500,17.3500,1265303,0.0000,1.0000
2016-11-18,16.9500,17.1900,16.8600,17.1100,17.1100,989490,0.0000,1.0000
2016-11-17,16.7000,17.2800,16.6300,16.9700,16.9700,2148227,0.0000,1.0000
2016-11-16,16.5300,16.8800,16.5300,16.7200,16.7200,1940150,0.0000,1.0000
2016-11-15,16.6000,16.9400,16.6000,16.6600,16.6600,1892106,0.0000,1.0000
2016-11-14,16.2900,17.2400,16.2900,16.7100,16.7100,3024139,0.0000,1.0000
2016-11-11,17.1800,17.5800,16.9700,17.0000,17.0000,3498572,0.0000,1.0000
2016-11-10,16.5800,17.1500,16.5100,17.1000,17.1000,3706322,0.0000,1.0000
2016-11-09,15.1100,16.7500,15.1100,16.4000,16.4000,6423653,0.0000,1.0000
2016-11-08,13.8000,15.4200,13.7910,15.4100,15.4100,5928412,0.0000,1.0000
2016-11-07,14.3100,14.6200,14.2300,14.2500,14.2500,2379246,0.0000,1.0000
2016-11-04,14.1300,14.3200,13.9600,14.1000,14.1000,1236487,0.0000,1.0000
2016-11-03,14.0600,14.2200,14.0000,14.0600,14.0600,789894,0.0000,1.0000
2016-11-02,14.1200,14.2200,14.0400,14.0700,14.0700,1198407,0.0000,1.0000
2016-11-01,14.0900,14.1800,13.9800,14.1000,14.1000,1597884,0.0000,1.0000
2016-10-31,14.2900,14.3000,13.9600,14.0100,14.0100,2023716,0.0000,1.0000
2016-10-28,14.1500,14.2600,14.0400,14.2200,14.2200,789485,0.0000,1.0000
2016-10-27,14.2200,14.2200,13.9400,14.0300,14.0300,511654,0.0000,1.0000
2016-10-26,13.8200,14.1900,13.8200,14.1800,14.1800,760871,0.0000,1.0000
2016-10-25,14.0500,14.0500,13.8000,13.9600,13.9600,567978,0.0000,1.0000
2016-10-24,14.1000,14.3500,14.0500,14.0700,14.0700,872521,0.0000,1.0000
2016-10-21,13.8400,14.0400,13.8200,13.9600,13.9600,719601,0.0000,1.0000
2016-10-20,13.8200,13.9700,13.7600,13.9500,13.9500,736048,0.0000,1.0000
2016-10-19,13.5800,13.8400,13.5300,13.8300,13.8300,1227036,0.0000,1.0000
2016-10-18,13.8700,13.8700,13.6000,13.6000,13.6000,940848,0.0000,1.0000
2016-10-17,13.6400,13.7400,13.5901,13.6300,13.6300,1137991,0.0000,1.0000
2016-10-14,13.9400,13.9400,13.6400,13.6700,13.6700,1206481,0.0000,1.0000
2016-10-13,14.1100,14.2100,13.7900,13.8100,13.8100,2091395,0.0000,1.0000
2016-10-12,14.5200,14.5400,14.1700,14.2600,14.2600,1842712,0.0000,1.0000
2016-10-11,14.2500,14.6200,14.1600,14.5400,14.5400,3156612,0.0000,1.0000
2016-10-10,14.1900,14.4200,14.1700,14.2900,14.2900,1277431,0.0000,1.0000
2016-10-07,14.2200,14.3650,14.1500,14.2200,14.2200,1219303,0.0000,1.0000
2016-10-06,14.3100,14.3650,14.1500,14.2200,14.2200,1095020,0.0000,1.0000
2016-10-05,14.1800,14.4000,14.1500,14.3700,14.3700,1407833,0.0000,1.0000
2016-10-04,14.2200,14.2411,14.0450,14.1900,14.1900,1947224,0.0000,1.0000
2016-10-03,13.5800,14.2100,13.5100,14.1400,14.1400,2435170,0.0000,1.0000
2016-09-30,13.5400,13.6400,13.4100,13.4800,13.4800,995781,0.0000,1.0000
2016-09-29,13.5600,13.6850,13.4038,13.5400,13.5400,952367,0.0000,1.0000
2016-09-28,13.7800,13.7800,13.4200,13.5100,13.5100,1721265,0.0000,1.0000
2016-09-27,13.4300,13.7500,13.3001,13.7200,13.7200,1643287,0.1000,1.0000
2016-09-26,13.2800,13.5900,13.2800,13.4000,13.3030,1680016,0.0000,1.0000
2016-09-23,13.1700,13.5200,13.0800,13.4600,13.3626,2160546,0.0000,1.0000
2016-09-22,13.0900,13.4400,12.9000,13.2300,13.1343,3959748,0.0000,1.0000
2016-09-21,12.1400,12.3800,12.0300,12.2800,12.1911,1924929,0.0000,1.0000
2016-09-20,11.7700,12.2900,11.7700,12.1200,12.0323,5613700,0.0000,1.0000
2016-09-19,12.7000,12.7650,12.5350,12.6900,12.5982,1050472,0.0000,1.0000
2016-09-16,12.5700,12.7300,12.4400,12.6200,12.5287,1037056,0.0000,1.0000
2016-09-15,12.6600,12.8100,12.5900,12.6200,12.5287,775366,0.0000,1.0000
2016-09-14,12.4400,12.6900,12.3400,12.6400,12.5485,1120255,0.0000,1.0000
2016-09-13,12.1400,12.4400,12.1000,12.4100,12.3202,1257362,0.0000,1.0000
2016-09-12,12.1000,12.2200,11.9200,12.2100,12.1216,1251218,0.0000,1.0000
2016-09-09,12.5500,12.5600,12.0100,12.1500,12.0621,2522575,0.0000,1.0000
2016-09-08,13.0900,13.1200,12.4500,12.6000,12.5088,3131901,0.0000,1.0000
2016-09-07,13.0700,13.1400,12.9650,13.1100,13.0151,763120,0.0000,1.0000
2016-09-06,13.1400,13.1400,12.9000,13.0400,12.9456,1034379,0.0000,1.0000
2016-09-02,13.1600,13.2950,13.0400,13.1700,13.0747,628269,0.0000,1.0000
2016-09-01,13.0900,13.2200,12.9900,13.0800,12.9854,604999,0.0000,1.0000
2016-08-31,13.0500,13.0800,12.9000,13.0100,12.9159,758733,0.0000,1.0000
2016-08-30,12.9900,13.0601,12.9100,13.0300,12.9357,748688,0.0000,1.0000
2016-08-29,13.0100,13.1000,12.8800,13.0200,12.9258,1257109,0.0000,1.0000
2016-08-26,13.4000,13.4500,12.9000,13.0200,12.9258,1383585,0.0000,1.0000
2016-08-25,13.6400,13.7200,13.3600,13.3800,13.2832,792377,0.0000,1.0000
2016-08-24,13.5000,13.8350,13.4900,13.7300,13.6307,2573240,0.0000,1.0000
2016-08-23,13.1900,13.4600,13.1000,13.4300,13.3328,1695533,0.0000,1.0000
2016-08-22,12.9200,13.2450,12.8200,13.1300,13.0350,1993434,0.0000,1.0000
2016-08-19,13.0000,13.0600,12.8600,12.8900,12.7967,1100535,0.0000,1.0000
2016-08-18,13.1900,13.3600,12.9400,13.0600,12.9655,2087920,0.0000,1.0000
2016-08-17,13.0400,13.3500,12.9300,13.3300,13.2335,2059680,0.0000,1.0000
2016-08-16,13.0000,13.1300,12.8100,13.0100,12.9159,1097181,0.0000,1.0000
2016-08-15,13.3300,13.4200,13.0200,13.0900,12.9953,1341229,0.0000,1.0000
2016-08-12,13.2600,13.4100,13.2100,13.3400,13.2435,1806176,0.0000,1.0000
2016-08-11,13.4600,13.5400,13.1300,13.2400,13.1442,2335727,0.0000,1.0000
2016-08-10,13.0100,13.1800,12.8000,13.1300,13.0350,1724746,0.0000,1.0000
2016-08-09,13.1700,13.2900,12.9500,12.9800,12.8861,1656489,0.0000,1.0000
2016-08-08,13.1700,13.3600,13.1100,13.1600,13.0648,2253368,0.0000,1.0000
2016-08-05,13.0000,13.5500,12.9300,13.2100,13.1144,4954638,0.0000,1.0000
2016-08-04,12.8900,13.2850,12.5800,12.8800,12.7868,14640308,0.0000,1.0000
2016-08-03,14.3500,14.9500,14.1400,14.8400,14.7326,3079561,0.0000,1.0000
2016-08-02,15.0100,15.3700,14.2950,14.3700,14.2660,2577292,0.0000,1.0000
2016-08-01,15.3400,15.4300,15.0000,15.0100,14.9014,2098173,0.0000,1.0000
2016-07-29,15.2600,15.4400,15.2200,15.4000,15.2886,1067875,0.0000,1.0000
2016-07-28,15.0600,15.3700,15.0100,15.3200,15.2091,1096079,0.0000,1.0000
2016-07-27,15.7500,15.8400,15.0200,15.1000,14.9907,1511751,0.0000,1.0000
2016-07-26,15.8300,16.1300,15.7300,15.7500,15.6360,1825173,0.0000,1.0000
2016-07-25,15.6700,15.8800,15.5800,15.8500,15.7353,1775259,0.0000,1.0000
2016-07-22,15.4700,15.7100,15.4300,15.6800,15.5665,1795848,0.0000,1.0000
2016-07-21,15.3300,15.6150,15.3300,15.4700,15.3581,2028563,0.0000,1.0000
2016-07-20,14.9700,15.4900,14.8800,15.3300,15.2191,2151939,0.0000,1.0000
2016-07-19,14.7200,15.0200,14.7100,14.8900,14.7823,1149131,0.0000,1.0000
2016-07-18,14.7400,14.8600,14.6500,14.7200,14.6135,824476,0.0000,1.0000
2016-07-15,14.6600,14.9100,14.4700,14.7200,14.6135,977331,0.0000,1.0000
2016-07-14,14.9000,14.9600,14.5400,14.5900,14.4844,1344644,0.0000,1.0000
2016-07-13,14.8700,15.0100,14.7200,14.7400,14.6333,1129193,0.0000,1.0000
2016-07-12,15.0900,15.2900,14.7500,14.8600,14.7525,1404518,0.0000,1.0000
2016-07-11,14.5300,15.0300,14.4600,14.9800,14.8716,2434179,0.0000,1.0000
2016-07-08,14.1400,14.5600,14.1400,14.4800,14.3752,1694834,0.0000,1.0000
2016-07-07,14.1800,14.3200,13.8300,14.0000,13.8987,1194231,0.0000,1.0000
2016-07-06,14.0700,14.1500,14.0000,14.1300,14.0278,1202325,0.0000,1.0000
2016-07-05,14.0800,14.2950,13.9400,14.0800,13.9781,1345929,0.0000,1.0000
2016-07-01,14.3700,14.4400,14.1500,14.1700,14.0675,1022894,0.0000,1.0000
2016-06-30,14.0000,14.3500,13.9300,14.3300,14.2263,1113745,0.0000,1.0000
2016-06-29,14.0300,14.3700,14.0200,14.2300,14.1270,1148203,0.0000,1.0000
2016-06-28,13.9100,14.2400,13.7500,13.9600,13.8590,2879400,0.0000,1.0000
2016-06-27,14.2900,14.4200,13.4800,13.8000,13.7001,3539199,0.0000,1.0000
2016-06-24,14.6800,14.8900,14.1100,14.5000,14.3951,4148871,0.0000,1.0000
2016-06-23,15.1900,15.4700,15.1300,15.1800,15.0702,947336,0.0000,1.0000
2016-06-22,15.0900,15.1650,14.9750,15.0500,14.9411,699000,0.0000,1.0000
2016-06-21,15.3500,15.4500,15.0600,15.0900,14.9808,1944531,0.0000,1.0000
2016-06-20,15.5200,15.6100,15.2700,15.3200,15.2091,1339356,0.0000,1.0000
2016-06-17,15.6500,15.6500,15.1300,15.3000,15.1893,2086641,0.0000,1.0000
2016-06-16,15.4500,15.6300,15.3400,15.5600,15.4474,859705,0.2100,1.0000
2016-06-15,15.8100,16.1100,15.7250,15.7600,15.4376,1026174,0.0000,1.0000
2016-06-14,15.7700,15.8500,15.5300,15.7600,15.4376,2049897,0.0000,1.0000
2016-06-13,16.1200,16.1800,15.7250,15.8500,15.5258,1563979,0.0000,1.0000
2016-06-10,16.3900,16.4550,16.1000,16.2000,15.8686,1166916,0.0000,1.0000
2016-06-09,16.7600,16.9300,16.4500,16.4800,16.1429,1298818,0.0000,1.0000
2016-06-08,16.8000,16.9100,16.5600,16.7400,16.3976,1114454,0.0000,1.0000
2016-06-07,16.8700,17.0400,16.6100,16.7300,16.3878,1274287,0.0000,1.0000
2016-06-06,16.8300,16.9150,16.4200,16.8000,16.4563,3275021,0.0000,1.0000
2016-06-03,17.1100,17.2600,16.8200,16.8300,16.4857,1726745,0.0000,1.0000
2016-06-02,17.2300,17.5300,17.2300,17.3300,16.9755,964939,0.0000,1.0000
2016-06-01,17.4400,17.4400,17.1700,17.2800,16.9265,1008220,0.0000,1.0000
2016-05-31,17.6900,17.8000,17.2301,17.4600,17.1028,2346402,0.0000,1.0000
2016-05-27,17.6600,17.8700,17.6600,17.7000,17.3379,719793,0.0000,1.0000
2016-05-26,17.5400,17.6750,17.4296,17.5800,17.2204,1057432,0.0000,1.0000
2016-05-25,17.7200,17.8800,17.2900,17.4700,17.1126,1744521,0.0000,1.0000
2016-05-24,17.7200,17.8300,17.6200,17.6700,17.3085,615946,0.0000,1.0000
2016-05-23,17.6800,17.8600,17.5600,17.6000,17.2400,1189147,0.0000,1.0000
2016-05-20,17.5500,17.6800,17.4700,17.6300,17.2694,782337,0.0000,1.0000
2016-05-19,17.4400,17.7000,17.4000,17.4800,17.1224,878870,0.0000,1.0000
2016-05-18,17.5200,17.7900,17.3100,17.5400,17.1812,1689645,0.0000,1.0000
2016-05-17,17.8200,17.9400,17.5600,17.6300,17.2694,1144353,0.0000,1.0000
2016-05-16,17.8000,17.9800,17.6800,17.8000,17.4359,913916,0.0000,1.0000
2016-05-13,18.1600,18.2900,17.6600,17.8100,17.4457,1431195,0.0000,1.0000
2016-05-12,17.9600,18.4000,17.9100,18.2700,17.8963,2102470,0.0000,1.0000
2016-05-11,17.5600,18.0900,17.4600,17.8700,17.5045,3027505,0.0000,1.0000
2016-05-10,18.3200,18.5100,18.2200,18.4300,18.0530,1026617,0.0000,1.0000
2016-05-09,18.3600,18.5900,18.2000,18.3600,17.9844,1208627,0.0000,1.0000
2016-05-06,18.2900,18.7300,18.2100,18.4800,18.1020,1580136,0.0000,1.0000
2016-05-05,17.9500,18.6700,17.5100,18.4900,18.1118,8733564,0.0000,1.0000
2016-05-04,19.6300,19.7200,19.3400,19.4700,19.0717,2091052,0.0000,1.0000
2016-05-03,19.6500,20.0300,19.3200,19.7100,19.3068,2382045,0.0000,1.0000
2016-05-02,20.0200,20.0200,19.4400,19.7200,19.3166,2631214,0.0000,1.0000
2016-04-29,20.0300,20.1750,19.6500,19.9300,19.5223,699664,0.0000,1.0000
2016-04-28,20.2600,20.3550,19.8800,19.9900,19.5811,676270,0.0000,1.0000
2016-04-27,20.1500,20.4400,20.0480,20.3300,19.9141,891285,0.0000,1.0000
2016-04-26,19.8200,20.2950,19.7800,20.1500,19.7378,897724,0.0000,1.0000
2016-04-25,19.7900,19.9950,19.6800,19.8600,19.4537,583377,0.0000,1.0000
2016-04-22,19.7700,20.0800,19.7700,19.8900,19.4831,830546,0.0000,1.0000
2016-04-21,20.1700,20.3300,19.6900,19.8000,19.3950,1293541,0.0000,1.0000
2016-04-20,20.3100,20.6500,19.8400,20.2300,19.8162,1682067,0.0000,1.0000
2016-04-19,20.8500,21.0400,20.2900,20.3000,19.8847,1426992,0.0000,1.0000
2016-04-18,20.7200,20.9100,20.5200,20.8500,20.4235,1435740,0.0000,1.0000
2016-04-15,20.8200,20.9200,20.3400,20.7500,20.3255,1794236,0.0000,1.0000
2016-04-14,21.7200,21.8450,21.1500,21.4200,20.9818,963884,0.0000,1.0000
2016-04-13,21.3700,21.7700,21.3530,21.6500,21.2071,948794,0.0000,1.0000
2016-04-12,21.2400,21.4850,21.1711,21.3400,20.9035,924042,0.0000,1.0000
2016-04-11,21.3900,21.4300,21.0000,21.2600,20.8251,966090,0.0000,1.0000
2016-04-08,21.2500,21.4000,21.1000,21.2600,20.8251,1258607,0.0000,1.0000
2016-04-07,21.0000,21.3300,20.9000,21.2000,20.7663,1442446,0.0000,1.0000
2016-04-06,20.6400,21.1400,20.5600,21.0400,20.6096,1341689,0.0000,1.0000
2016-04-05,20.7200,20.8100,20.5400,20.6300,20.2080,986370,0.0000,1.0000
2016-04-04,20.9600,21.2700,20.8300,20.8700,20.4431,1144295,0.0000,1.0000
2016-04-01,20.9800,20.9900,20.6500,20.9000,20.4725,1438618,0.0000,1.0000
2016-03-31,21.4100,21.5200,20.9800,21.0600,20.6292,2008605,0.0000,1.0000
2016-03-30,20.9800,21.5250,20.8301,21.4500,21.0112,2381994,0.0000,1.0000
2016-03-29,20.3800,20.9400,20.2500,20.8600,20.4333,1402824,0.0000,1.0000
2016-03-28,20.0900,20.4700,20.0100,20.4300,20.0121,934056,0.0000,1.0000
2016-03-24,20.1700,20.2800,19.7950,19.9800,19.5713,948421,0.0000,1.0000
2016-03-23,19.9400,20.3700,19.9400,20.2300,19.8162,1601755,0.0000,1.0000
2016-03-22,19.9800,20.1300,19.6300,20.0100,19.6007,1883782,0.0000,1.0000
2016-03-21,20.0000,20.1400,19.3500,20.1300,19.7182,1948851,0.0000,1.0000
2016-03-18,19.6700,20.0500,19.0500,19.9700,19.5615,7707484,0.0000,1.0000
2016-03-17,17.6100,18.7700,17.4600,18.7200,18.3371,3602219,0.0000,1.0000
2016-03-16,17.0000,17.1323,16.8700,17.1200,16.7698,973432,0.0000,1.0000
2016-03-15,17.2000,17.2700,16.9600,17.0500,16.7012,1277676,0.0000,1.0000
2016-03-14,17.2700,17.4900,17.1000,17.4000,17.0441,1040527,0.0000,1.0000
2016-03-11,17.5700,17.5700,17.2300,17.2900,16.9363,1483128,0.0000,1.0000
2016-03-10,17.4200,17.5700,17.2500,17.3800,17.0245,1156288,0.2100,1.0000
2016-03-09,17.8300,17.8899,17.5250,17.5700,17.0051,1564091,0.0000,1.0000
2016-03-08,18.2700,18.2700,17.7400,17.7600,17.1890,1044756,0.0000,1.0000
2016-03-07,18.4000,18.6300,18.2500,18.3200,17.7310,877864,0.0000,1.0000
2016-03-04,18.1400,18.5150,18.1100,18.4800,17.8859,1398176,0.0000,1.0000
2016-03-03,17.7900,18.0600,17.7500,18.0400,17.4600,1765581,0.0000,1.0000
2016-03-02,18.1100,18.2200,17.6800,17.9700,17.3923,1351486,0.0000,1.0000
2016-03-01,18.1700,18.2000,17.7400,18.1700,17.5858,1100243,0.0000,1.0000
2016-02-29,17.7600,18.2550,17.7100,18.0900,17.5084,1574154,0.0000,1.0000
2016-02-26,18.0500,18.4200,17.6000,17.7800,17.2084,2618505,0.0000,1.0000
2016-02-25,19.1100,19.1100,17.4900,18.0100,17.4310,6812104,0.0000,1.0000
2016-02-24,19.4200,19.9700,19.1500,19.8300,19.1925,2845720,0.0000,1.0000
2016-02-23,19.4200,19.7100,19.1200,19.6700,19.0376,1910512,0.0000,1.0000
2016-02-22,19.0800,19.3500,18.8500,19.3200,18.6989,1027429,0.0000,1.0000
2016-02-19,18.8400,19.0800,18.6199,19.0100,18.3988,1267359,0.0000,1.0000
2016-02-18,18.8800,19.0100,18.5700,18.8800,18.2730,974902,0.0000,1.0000
2016-02-17,18.4700,18.9000,18.4200,18.8800,18.2730,1451367,0.0000,1.0000
2016-02-16,18.1500,18.4200,18.0900,18.3600,17.7697,838627,0.0000,1.0000
2016-02-12,17.6300,18.0200,17.6300,17.9400,17.3632,522181,0.0000,1.0000
2016-02-11,17.4500,17.7000,17.3500,17.6000,17.0342,631232,0.0000,1.0000
2016-02-10,17.4900,18.0200,17.4900,17.6800,17.1116,728370,0.0000,1.0000
2016-02-09,17.4700,17.6800,17.2600,17.5000,16.9374,1424897,0.0000,1.0000
2016-02-08,18.1300,18.2100,17.5600,17.6600,17.0922,1203368,0.0000,1.0000
2016-02-05,18.3700,18.5000,18.1700,18.3000,17.7116,1226141,0.0000,1.0000
2016-02-04,18.5800,18.6700,18.2150,18.4900,17.8955,1405587,0.0000,1.0000
2016-02-03,18.7000,18.8100,18.2400,18.7700,18.1665,944509,0.0000,1.0000
2016-02-02,18.9200,18.9200,18.3950,18.6100,18.0117,999895,0.0000,1.0000
2016-02-01,18.9800,19.2400,18.7200,19.1000,18.4859,684885,0.0000,1.0000
2016-01-29,19.1000,19.3600,18.8600,19.0600,18.4472,1470393,0.0000,1.0000
2016-01-28,19.0800,19.2000,18.8200,19.0900,18.4762,1195867,0.0000,1.0000
2016-01-27,18.8000,19.1800,18.6700,19.0000,18.3891,1433505,0.0000,1.0000
2016-01-26,18.3900,18.8800,18.3000,18.8700,18.2633,760745,0.0000,1.0000
2016-01-25,18.5900,18.7400,18.3150,18.4000,17.8084,1002867,0.0000,1.0000
2016-01-22,18.2800,18.6500,18.2200,18.6500,18.0504,926823,0.0000,1.0000
2016-01-21,17.9000,18.2800,17.6900,18.0700,17.4890,810195,0.0000,1.0000
2016-01-20,17.6800,18.0000,17.2300,17.9200,17.3439,1448407,0.0000,1.0000
2016-01-19,17.6300,18.1400,17.3800,17.9700,17.3923,1446294,0.0000,1.0000
2016-01-15,16.9800,17.5500,16.9300,17.5000,16.9374,1486408,0.0000,1.0000
2016-01-14,18.2400,18.3500,17.4100,17.7000,17.1309,1666312,0.0000,1.0000
2016-01-13,18.5700,18.5800,18.0700,18.2300,17.6439,2052885,0.2100,1.0000
2016-01-12,19.0800,19.0800,18.5100,18.7500,17.9405,1061600,0.0000,1.0000
2016-01-11,19.2500,19.3400,18.7200,18.9800,18.1606,1586364,0.0000,1.0000
2016-01-08,19.4000,19.5200,19.1700,19.1800,18.3520,667234,0.0000,1.0000
2016-01-07,19.2200,19.6000,19.2001,19.2600,18.4285,1015823,0.0000,1.0000
2016-01-06,19.2700,19.7536,19.2700,19.5700,18.7251,951952,0.0000,1.0000
2016-01-05,19.4100,19.6350,19.2700,19.5800,18.7347,753591,0.0000,1.0000
2016-01-04,19.4800,19.5500,19.2100,19.3900,18.5529,1655514,0.0000,1.0000
2015-12-31,19.8200,19.8650,19.6900,19.6900,18.8399,980242,0.0000,1.0000
2015-12-30,20.0100,20.2150,19.8700,19.8700,19.0122,811149,0.0000,1.0000
2015-12-29,20.2200,20.2300,19.8100,20.1400,19.2705,754681,0.0000,1.0000
2015-12-28,19.9400,20.1900,19.8400,20.1500,19.2801,1060732,0.0000,1.0000
2015-12-24,19.7900,20.1400,19.6850,19.9900,19.1270,845447,0.0000,1.0000
2015-12-23,19.5000,19.8850,19.3800,19.8000,18.9452,1462692,0.0000,1.0000
2015-12-22,19.2800,19.5800,19.0200,19.3900,18.5529,2115021,0.0000,1.0000
2015-12-21,18.8300,19.0700,18.6900,18.8700,18.0553,1296807,0.0000,1.0000
2015-12-18,18.6500,19.0150,18.6500,18.6800,17.8735,1613064,0.0000,1.0000
2015-12-17,18.9400,18.9950,18.6900,18.7100,17.9022,1079329,0.0000,1.0000
2015-12-16,18.6600,18.9800,18.4800,18.9400,18.1223,1829893,0.0000,1.0000
2015-12-15,18.2000,18.7450,18.1500,18.5200,17.7204,2021939,0.0000,1.0000
2015-12-14,17.7900,18.2600,17.7200,18.0800,17.2994,1807898,0.0000,1.0000
2015-12-11,17.6500,18.2400,17.6500,17.7700,17.0028,1748247,0.0000,1.0000
2015-12-10,17.8000,18.0611,17.7300,17.9100,17.1368,1027445,0.0000,1.0000
2015-12-09,17.8800,17.9200,17.6900,17.8500,17.0794,1230319,0.0000,1.0000
2015-12-08,17.6100,17.7600,17.5200,17.6800,16.9167,627211,0.0000,1.0000
2015-12-07,17.7100,17.8700,17.6300,17.7900,17.0220,807036,0.0000,1.0000
2015-12-04,17.7000,17.9100,17.6600,17.7700,17.0028,609983,0.0000,1.0000
2015-12-03,17.7300,18.0300,17.5300,17.6500,16.8880,1166312,0.0000,1.0000
2015-12-02,17.7800,17.9400,17.6700,17.6900,16.9263,803650,0.0000,1.0000
2015-12-01,17.5600,17.8700,17.5500,17.8400,17.0698,935663,0.0000,1.0000
2015-11-30,17.6500,17.6700,17.3700,17.5100,16.7540,962832,0.0000,1.0000
2015-11-27,17.6300,17.7400,17.5600,17.6200,16.8593,219333,0.0000,1.0000
2015-11-25,17.6400,17.7400,17.5600,17.7000,16.9358,552167,0.0000,1.0000
2015-11-24,17.3500,17.7200,17.2100,17.6600,16.8976,983632,0.0000,1.0000
2015-11-23,17.3200,17.5000,17.1900,17.4300,16.6775,886086,0.0000,1.0000
2015-11-20,17.2700,17.5000,17.1600,17.3300,16.5818,916258,0.0000,1.0000
2015-11-19,17.3900,17.5300,17.1201,17.1400,16.4000,900583,0.0000,1.0000
2015-11-18,17.0400,17.2550,16.9500,17.2500,16.5053,1046050,0.0000,1.0000
2015-11-17,17.2900,17.3000,16.8600,16.9600,16.2278,1551185,0.0000,1.0000
2015-11-16,17.4000,17.4900,17.0200,17.2800,16.5340,1468991,0.0000,1.0000
2015-11-13,17.7400,18.0000,17.3900,17.4200,16.6679,1124755,0.0000,1.0000
2015-11-12,17.6700,18.0400,17.4300,17.8200,17.0507,2687459,0.0000,1.0000
2015-11-11,18.1000,18.2500,17.8900,18.0800,17.2994,997069,0.0000,1.0000
2015-11-10,17.9100,18.2600,17.8000,18.0200,17.2420,1916255,0.0000,1.0000
2015-11-09,18.0200,18.8300,17.8900,17.9100,17.1368,4616684,0.0000,1.0000
2015-11-06,17.7500,18.2100,17.7500,18.1400,17.3569,2702158,0.0000,1.0000
2015-11-05,18.0800,18.6950,17.1100,18.3000,17.5099,9445214,0.0000,1.0000
2015-11-04,19.8900,19.9350,19.4300,19.5200,18.6773,1770611,0.0000,1.0000
2015-11-03,20.0600,20.1800,19.7400,19.7900,18.9356,1068058,0.0000,1.0000
2015-11-02,20.0600,20.2800,19.8100,20.1800,19.3088,1517249,0.0000,1.0000
2015-10-30,19.8900,20.0400,19.5000,19.9300,19.0696,1332243,0.0000,1.0000
2015-10-29,19.9200,20.1600,19.6900,19.8800,19.0217,843251,0.0000,1.0000
2015-10-28,19.9900,20.1500,19.7600,20.0100,19.1461,1220542,0.0000,1.0000
2015-10-27,19.8400,20.1100,19.6500,19.8300,18.9739,1381738,0.0000,1.0000
2015-10-26,19.6300,19.9100,19.5040,19.8800,19.0217,1321778,0.0000,1.0000
2015-10-23,19.5100,19.7400,19.3500,19.6400,18.7921,1695762,0.0000,1.0000
2015-10-22,19.1000,19.4400,19.1000,19.3600,18.5242,1287668,0.0000,1.0000
2015-10-21,19.0000,19.3000,18.8520,18.9600,18.1414,1622041,0.0000,1.0000
2015-10-20,18.7600,19.0600,18.6820,18.8800,18.0649,923278,0.0000,1.0000
2015-10-19,18.7000,18.8500,18.5909,18.7200,17.9118,787485,0.0000,1.0000
2015-10-16,18.8400,18.8700,18.5750,18.7200,17.9118,882195,0.0000,1.0000
2015-10-15,18.6900,18.8500,18.4850,18.7700,17.9597,844303,0.0000,1.0000
2015-10-14,18.7400,18.9100,18.5300,18.6900,17.8831,1497313,0.0000,1.0000
2015-10-13,18.3100,18.7500,18.2400,18.6900,17.8831,2648417,0.0000,1.0000
2015-10-12,18.0500,18.5000,17.8600,18.3000,17.5099,2338310,0.0000,1.0000
2015-10-09,19.2400,19.2400,17.9200,18.1500,17.3664,4223671,0.0000,1.0000
2015-10-08,18.9000,19.1800,18.8550,19.1200,18.2945,1109407,0.0000,1.0000
2015-10-07,18.8400,19.0700,18.6800,18.9500,18.1319,1259030,0.0000,1.0000
2015-10-06,18.8400,18.9800,18.7000,18.7600,17.9501,753092,0.0000,1.0000
2015-10-05,18.7500,18.8600,18.6200,18.8000,17.9884,944569,0.0000,1.0000
2015-10-02,17.7700,18.6600,17.6600,18.6000,17.7970,1551869,0.0000,1.0000
2015-10-01,17.8600,18.1200,17.6200,17.9000,17.1272,2014936,0.0000,1.0000
2015-09-30,17.6000,17.8800,17.4800,17.8100,17.0411,1348691,0.0000,1.0000
2015-09-29,17.7600,17.7600,17.3600,17.4800,16.7253,1409761,0.0000,1.0000
2015-09-28,18.0400,18.1200,17.6900,17.7300,16.9646,1644461,0.0000,1.0000
2015-09-25,17.8900,18.3650,17.7600,18.0600,17.2803,2001334,0.2100,1.0000
2015-09-24,17.4800,18.1800,17.3800,18.0700,17.0911,2686642,0.0000,1.0000
2015-09-23,17.5500,17.7800,17.4420,17.5300,16.5804,1118050,0.0000,1.0000
2015-09-22,17.4700,17.6400,17.3600,17.5000,16.5520,1161539,0.0000,1.0000
2015-09-21,17.7500,17.8250,17.5907,17.7000,16.7412,1137277,0.0000,1.0000
2015-09-18,17.7900,17.8700,17.6000,17.6700,16.7128,1453364,0.0000,1.0000
2015-09-17,18.1100,18.3250,17.9500,18.0300,17.0533,1130350,0.0000,1.0000
2015-09-16,18.0000,18.1100,17.8600,18.1100,17.1290,1386145,0.0000,1.0000
2015-09-15,18.2000,18.3300,17.9200,17.9600,16.9871,1098781,0.0000,1.0000
2015-09-14,18.2000,18.2500,18.0900,18.2200,17.2330,985555,0.0000,1.0000
2015-09-11,18.0400,18.1800,17.9200,18.1600,17.1763,2270648,0.0000,1.0000
2015-09-10,18.1200,18.3600,18.0800,18.2200,17.2330,1596095,0.0000,1.0000
2015-09-09,17.9300,18.2400,17.8800,18.1600,17.1763,2519655,0.0000,1.0000
2015-09-08,17.9800,17.9925,17.5700,17.7600,16.7979,1238446,0.0000,1.0000
2015-09-04,17.2900,17.7800,17.2900,17.6800,16.7223,1269570,0.0000,1.0000
2015-09-03,17.2700,17.6000,17.2600,17.5200,16.5709,1791747,0.0000,1.0000
2015-09-02,17.4400,17.4500,16.9900,17.2800,16.3439,1492704,0.0000,1.0000
2015-09-01,17.4200,17.6500,17.0100,17.2300,16.2966,2239779,0.0000,1.0000
2015-08-31,17.8300,18.0100,17.6500,17.8000,16.8358,1393140,0.0000,1.0000
2015-08-28,17.7400,18.1300,17.7200,17.9200,16.9493,1361030,0.0000,1.0000
2015-08-27,17.7400,17.9600,17.5300,17.7900,16.8263,1545326,0.0000,1.0000
2015-08-26,17.3900,17.6150,17.0050,17.5600,16.6088,1544177,0.0000,1.0000
2015-08-25,17.7100,17.7100,17.0700,17.1000,16.1737,1725593,0.0000,1.0000
2015-08-24,17.6300,18.0400,17.2200,17.2300,16.2966,3703300,0.0000,1.0000
2015-08-21,18.4100,18.7000,18.2000,18.4500,17.4506,2384431,0.0000,1.0000
2015-08-20,19.2200,19.2200,18.7100,18.7700,17.7532,3609180,0.0000,1.0000
2015-08-19,18.8500,19.4700,18.6200,19.4700,18.4153,3721300,0.0000,1.0000
2015-08-18,18.8000,19.1100,18.6700,18.9500,17.9235,1868403,0.0000,1.0000
2015-08-17,18.3200,18.8950,18.2900,18.7700,17.7532,1045459,0.0000,1.0000
2015-08-14,18.4500,18.7200,18.3600,18.4900,17.4884,1360125,0.0000,1.0000
2015-08-13,18.8100,18.8900,18.4700,18.5200,17.5168,1270843,0.0000,1.0000
2015-08-12,18.0200,18.8500,17.9500,18.7700,17.7532,2180561,0.0000,1.0000
2015-08-11,18.7000,18.7300,18.0800,18.2100,17.2236,1743414,0.0000,1.0000
2015-08-10,18.1300,18.8000,18.0300,18.7100,17.6965,3169658,0.0000,1.0000
2015-08-07,18.0800,18.4500,17.8100,18.0600,17.0817,2283479,0.0000,1.0000
2015-08-06,17.1200,18.5200,17.1100,18.1400,17.1573,5489381,0.0000,1.0000
2015-08-05,17.7500,17.9250,17.2900,17.4000,16.4574,5557981,0.0000,1.0000
2015-08-04,17.6900,17.8000,17.4300,17.6800,16.7223,2181056,0.0000,1.0000
2015-08-03,17.3500,17.8100,17.3500,17.6900,16.7317,2321035,0.0000,1.0000
2015-07-31,17.5200,17.6400,17.2500,17.3400,16.4007,1956555,0.0000,1.0000
2015-07-30,17.7100,17.7300,17.0800,17.4300,16.4858,2414593,0.0000,1.0000
2015-07-29,17.4500,17.8100,17.4000,17.7300,16.7696,916811,0.0000,1.0000
2015-07-28,17.6400,17.8600,17.3900,17.4000,16.4574,1556625,0.0000,1.0000
2015-07-27,17.8800,18.0400,17.5200,17.6200,16.6655,2382747,0.0000,1.0000
2015-07-24,18.1700,18.3760,17.8250,18.0000,17.0249,1576906,0.0000,1.0000
2015-07-23,18.5100,18.6080,18.2000,18.2300,17.2425,1352686,0.0000,1.0000
2015-07-22,18.1500,18.5600,18.0300,18.5300,17.5262,1893440,0.0000,1.0000
2015-07-21,17.9100,18.3000,17.8260,18.2700,17.2803,2135816,0.0000,1.0000
2015-07-20,18.1700,18.1700,17.8001,17.9200,16.9493,1513569,0.0000,1.0000
2015-07-17,18.2000,18.3500,18.0700,18.2000,17.2141,1361885,0.0000,1.0000
2015-07-16,18.3500,18.3500,17.8750,18.1900,17.2046,2284199,0.0000,1.0000
2015-07-15,18.5700,18.6500,18.2300,18.3300,17.3371,960099,0.0000,1.0000
2015-07-14,18.4300,18.7200,18.3400,18.6100,17.6019,1328497,0.0000,1.0000
2015-07-13,18.6800,18.8400,18.4200,18.5100,17.5073,1022419,0.0000,1.0000
2015-07-10,18.4600,18.7550,18.4500,18.5400,17.5357,1240822,0.0000,1.0000
2015-07-09,18.3000,18.4800,18.2000,18.2600,17.2708,1602127,0.0000,1.0000
2015-07-08,17.9700,18.1400,17.7300,18.1100,17.1290,2452759,0.0000,1.0000
2015-07-07,17.9500,18.1300,17.5200,18.0900,17.1101,2341224,0.0000,1.0000
2015-07-06,18.1400,18.4000,17.8300,17.9000,16.9303,1747759,0.0000,1.0000
2015-07-02,18.6700,18.6700,18.2000,18.2700,17.2803,1032894,0.0000,1.0000
2015-07-01,18.5200,18.7100,18.3400,18.6500,17.6397,1902750,0.0000,1.0000
2015-06-30,19.1400,19.1400,18.2400,18.4400,17.4411,2823394,0.0000,1.0000
2015-06-29,19.4900,19.5000,18.9300,18.9800,17.9518,1717734,0.0000,1.0000
2015-06-26,19.2500,19.6150,19.1100,19.6000,18.5383,6644567,0.0000,1.0000
2015-06-25,19.3400,19.3400,19.1000,19.2300,18.1883,910794,0.0000,1.0000
2015-06-24,19.5200,19.5700,19.2100,19.2700,18.2261,1121072,0.0000,1.0000
2015-06-23,19.4700,19.6600,19.4200,19.5300,18.4720,1410167,0.0000,1.0000
2015-06-22,19.6900,19.7200,19.4100,19.4400,18.3869,1884195,0.0000,1.0000
2015-06-19,19.9800,19.9800,19.4600,19.5500,18.4910,2461871,0.0000,1.0000
2015-06-18,19.9400,20.0900,19.8500,19.9300,18.8504,1833083,0.2100,1.0000
2015-06-17,20.1700,20.3100,20.0400,20.1400,18.8504,1481403,0.0000,1.0000
2015-06-16,20.5200,20.6500,20.2700,20.2900,18.9908,640424,0.0000,1.0000
2015-06-15,20.5400,20.5700,20.3330,20.4900,19.1780,1127362,0.0000,1.0000
2015-06-12,20.6600,20.8700,20.5400,20.6000,19.2809,1063330,0.0000,1.0000
2015-06-11,20.9300,20.9800,20.2500,20.6500,19.3277,1693734,0.0000,1.0000
2015-06-10,20.6900,21.0000,20.6500,20.8600,19.5243,1714497,0.0000,1.0000
2015-06-09,20.4500,20.6400,20.2900,20.6100,19.2903,1521826,0.0000,1.0000
2015-06-08,21.1100,21.2900,19.8600,20.4300,19.1218,2978496,0.0000,1.0000
2015-06-05,21.0800,21.1400,20.6600,20.7000,19.3745,2330713,0.0000,1.0000
2015-06-04,21.2800,21.3100,21.0600,21.1300,19.7770,1028849,0.0000,1.0000
2015-06-03,21.2600,21.4600,21.2000,21.3700,20.0016,526175,0.0000,1.0000
2015-06-02,21.2900,21.3900,21.1300,21.3100,19.9455,686242,0.0000,1.0000
2015-06-01,21.6100,21.7800,21.2700,21.3900,20.0203,941542,0.0000,1.0000
2015-05-29,21.7200,22.0900,21.5400,21.6000,20.2169,1796121,0.0000,1.0000
2015-05-28,21.8000,21.9800,21.3690,21.6700,20.2824,1291810,0.0000,1.0000
2015-05-27,21.4400,22.1125,21.3700,21.8200,20.4228,1666401,0.0000,1.0000
2015-05-26,21.6600,21.7005,21.3100,21.4300,20.0578,742102,0.0000,1.0000
2015-05-22,21.3000,21.8000,21.1700,21.7000,20.3105,1286343,0.0000,1.0000
2015-05-21,21.4700,21.4700,21.0600,21.2900,19.9267,1008448,0.0000,1.0000
2015-05-20,21.5300,21.5600,21.2700,21.4400,20.0671,428156,0.0000,1.0000
2015-05-19,21.4800,21.5200,21.2200,21.4800,20.1046,467611,0.0000,1.0000
2015-05-18,21.2700,21.5000,21.2000,21.4600,20.0859,551486,0.0000,1.0000
2015-05-15,21.6600,21.6600,21.0300,21.3400,19.9735,977888,0.0000,1.0000
2015-05-14,21.6100,21.8100,21.4200,21.6800,20.2918,525673,0.0000,1.0000
2015-05-13,21.4800,21.7200,21.4400,21.4700,20.0952,807590,0.0000,1.0000
2015-05-12,21.1400,21.4800,20.7900,21.3900,20.0203,1174028,0.0000,1.0000
2015-05-11,20.9800,21.4100,20.9100,21.1600,19.8051,1097285,0.0000,1.0000
2015-05-08,21.4600,21.6600,20.9400,20.9800,19.6366,1682292,0.0000,1.0000
2015-05-07,21.5400,21.5700,20.7000,21.0900,19.7396,2205530,0.0000,1.0000
2015-05-06,21.6400,21.7500,21.2100,21.5400,20.1607,1963717,0.0000,1.0000
2015-05-05,21.7200,21.8800,21.4700,21.5400,20.1607,1016231,0.0000,1.0000
2015-05-04,21.6500,21.9400,21.4200,21.6700,20.2824,1810453,0.0000,1.0000
2015-05-01,21.6300,21.9000,21.4900,21.6500,20.2637,828141,0.0000,1.0000
2015-04-30,21.1700,21.3200,21.0200,21.2000,19.8425,844110,0.0000,1.0000
2015-04-29,21.4900,21.5200,21.1450,21.2500,19.8893,995142,0.0000,1.0000
2015-04-28,21.3800,21.5600,21.1500,21.5400,20.1607,1455085,0.0000,1.0000
2015-04-27,22.2900,22.6800,21.3200,21.4400,20.0671,2814087,0.0000,1.0000
2015-04-24,21.1700,21.5949,21.1400,21.4900,20.1139,897911,0.0000,1.0000
2015-04-23,20.9100,21.3300,20.8900,21.1400,19.7863,570009,0.0000,1.0000
2015-04-22,20.9900,20.9900,20.7860,20.9100,19.5711,370720,0.0000,1.0000
2015-04-21,21.0500,21.0900,20.8400,20.8600,19.5243,627278,0.0000,1.0000
2015-04-20,20.4400,21.0400,20.3200,20.9400,19.5992,1635539,0.0000,1.0000
2015-04-17,20.3500,20.3800,20.0900,20.2900,18.9908,588188,0.0000,1.0000
2015-04-16,20.4500,20.6400,20.1600,20.4300,19.1218,741081,0.0000,1.0000
2015-04-15,20.5800,20.6300,20.3500,20.4700,19.1593,821083,0.0000,1.0000
2015-04-14,20.6700,20.6700,20.3000,20.5300,19.2154,944505,0.0000,1.0000
2015-04-13,20.2400,20.7050,20.1160,20.6700,19.3464,1416071,0.0000,1.0000
2015-04-10,20.0600,20.2800,19.9660,20.2700,18.9721,591576,0.0000,1.0000
2015-04-09,20.1000,20.1900,19.7400,19.9900,18.7100,496501,0.0000,1.0000
2015-04-08,20.0800,20.2600,19.7400,20.1400,18.8504,670238,0.0000,1.0000
2015-04-07,20.0800,20.2000,19.8900,20.0100,18.7287,739307,0.0000,1.0000
2015-04-06,19.6200,20.1500,19.5560,20.0600,18.7755,943446,0.0000,1.0000
2015-04-02,19.5700,19.8000,19.5100,19.6600,18.4011,498437,0.0000,1.0000
2015-04-01,19.2700,19.7600,19.0700,19.5100,18.2607,1364018,0.0000,1.0000
2015-03-31,19.3300,19.3500,19.0800,19.2800,18.0454,791776,0.0000,1.0000
2015-03-30,19.6500,19.7000,19.2100,19.3900,18.1484,788472,0.0000,1.0000
2015-03-27,19.4900,19.6250,19.2600,19.5100,18.2607,782763,0.0000,1.0000
2015-03-26,19.6300,19.7500,19.4400,19.4500,18.2046,1082812,0.0000,1.0000
2015-03-25,19.9200,19.9200,19.4500,19.6700,18.4105,1257374,0.0000,1.0000
2015-03-24,20.1200,20.2400,19.6400,19.9100,18.6351,1961861,0.0000,1.0000
2015-03-23,20.0500,20.3300,19.8100,20.2100,18.9159,1433190,0.0000,1.0000
2015-03-20,19.5100,20.1300,19.3300,20.1000,18.8129,2389890,0.0000,1.0000
2015-03-19,19.1900,19.2900,19.0500,19.1100,17.8863,401283,0.0000,1.0000
2015-03-18,19.1200,19.3102,19.0200,19.2200,17.9893,663543,0.0000,1.0000
2015-03-17,18.9900,19.2000,18.9100,19.1600,17.9331,665084,0.0000,1.0000
2015-03-16,19.0000,19.1000,18.6300,19.0400,17.8208,943212,0.0000,1.0000
2015-03-13,18.6800,19.0400,18.6000,18.9800,17.7647,1283737,0.0000,1.0000
2015-03-12,18.5900,18.7200,18.3300,18.6800,17.4839,959051,0.0000,1.0000
2015-03-11,18.2800,18.5800,18.0500,18.4300,17.2499,1171593,0.2100,1.0000
2015-03-10,18.8900,18.8900,18.4100,18.5100,17.1296,1011760,0.0000,1.0000
2015-03-09,19.1800,19.2000,18.7600,18.9300,17.5183,690720,0.0000,1.0000
2015-03-06,19.5000,19.5700,18.9800,19.0900,17.6663,873673,0.0000,1.0000
2015-03-05,19.1000,19.7200,19.0100,19.4800,18.0272,1797321,0.0000,1.0000
2015-03-04,18.9100,19.1050,18.5850,19.0500,17.6293,1686452,0.0000,1.0000
2015-03-03,18.4400,18.9800,18.3300,18.9600,17.5460,1600971,0.0000,1.0000
2015-03-02,18.6900,18.7700,18.3300,18.4500,17.0740,2287547,0.0000,1.0000
2015-02-27,18.9200,19.0800,18.4800,18.7400,17.3424,2805313,0.0000,1.0000
2015-02-26,19.7800,20.0600,18.9300,19.1700,17.7404,3645349,0.0000,1.0000
2015-02-25,20.7700,20.8300,20.2800,20.3500,18.8324,2258597,0.0000,1.0000
2015-02-24,20.2900,20.8200,20.1500,20.7700,19.2210,2752710,0.0000,1.0000
2015-02-23,19.9500,20.3000,19.9400,20.3000,18.7861,1746364,0.0000,1.0000
2015-02-20,19.7600,20.1000,19.6500,19.9600,18.4714,1611639,0.0000,1.0000
2015-02-19,19.1600,20.1600,19.0800,19.8200,18.3419,2140940,0.0000,1.0000
2015-02-18,18.9600,19.2001,18.8900,19.0800,17.6571,1264943,0.0000,1.0000
2015-02-17,18.8000,19.1000,18.7200,18.9800,17.5645,1103887,0.0000,1.0000
2015-02-13,18.7400,19.1800,18.7020,18.8300,17.4257,960601,0.0000,1.0000
2015-02-12,18.4100,18.8700,18.2600,18.8000,17.3979,860561,0.0000,1.0000
2015-02-11,18.3500,18.4500,18.3000,18.3200,16.9537,851151,0.0000,1.0000
2015-02-10,17.9900,18.4100,17.9400,18.3800,17.0093,798057,0.0000,1.0000
2015-02-09,17.8800,18.0650,17.7900,17.9900,16.6484,586208,0.0000,1.0000
2015-02-06,18.0400,18.1500,17.9200,17.9800,16.6391,464067,0.0000,1.0000
2015-02-05,17.8800,18.0890,17.6700,18.0200,16.6761,496955,0.0000,1.0000
2015-02-04,17.8600,17.9500,17.6000,17.7600,16.4355,536884,0.0000,1.0000
2015-02-03,17.6300,17.9000,17.6000,17.8400,16.5095,727386,0.0000,1.0000
2015-02-02,17.5200,17.5600,16.8100,17.5500,16.2412,1314067,0.0000,1.0000
2015-01-30,17.5700,17.6500,17.3300,17.5100,16.2042,1018172,0.0000,1.0000
2015-01-29,17.4000,17.7100,17.1900,17.6400,16.3245,804700,0.0000,1.0000
2015-01-28,17.8300,17.8300,17.1600,17.3800,16.0838,1701924,0.0000,1.0000
2015-01-27,17.1500,17.8400,17.0201,17.7100,16.3892,1148488,0.0000,1.0000
2015-01-26,16.6800,17.4200,16.6500,17.4000,16.1024,1085283,0.0000,1.0000
2015-01-23,16.9600,17.0100,16.5600,16.6800,15.4360,834050,0.0000,1.0000
2015-01-22,16.5500,17.0000,16.4400,16.9300,15.6674,1126174,0.0000,1.0000
2015-01-21,16.4200,16.6550,16.3500,16.4600,15.2325,728766,0.0000,1.0000
2015-01-20,16.5500,16.6600,16.2200,16.4500,15.2232,575552,0.0000,1.0000
2015-01-16,16.5000,16.6100,16.3600,16.6100,15.3713,626114,0.0000,1.0000
2015-01-15,16.8200,16.9000,16.2800,16.5000,15.2695,760965,0.0000,1.0000
2015-01-14,16.6000,16.8400,16.5500,16.7800,15.5286,856212,0.0000,1.0000
2015-01-13,16.9500,17.1200,16.5300,16.7900,15.5378,1127630,0.0000,1.0000
2015-01-12,16.9200,16.9400,16.5500,16.8400,15.5841,782250,0.0000,1.0000
2015-01-09,17.2200,17.2200,16.8200,16.8500,15.5934,930655,0.2100,1.0000
2015-01-08,17.6000,17.7200,17.1400,17.3600,15.8676,1266077,0.0000,1.0000
2015-01-07,17.5100,17.6500,17.0700,17.4700,15.9681,881291,0.0000,1.0000
2015-01-06,17.5300,17.6450,17.1400,17.3500,15.8584,846413,0.0000,1.0000
2015-01-05,17.8700,17.8700,17.1300,17.4500,15.9498,1021951,0.0000,1.0000
2015-01-02,18.0100,18.0850,17.8500,17.9700,16.4251,856987,0.0000,1.0000
2014-12-31,18.0400,18.1000,17.8800,17.9000,16.3612,959254,0.0000,1.0000
2014-12-30,17.8900,18.0300,17.7600,17.9300,16.3886,907152,0.0000,1.0000
2014-12-29,17.5600,18.1300,17.5400,17.9300,16.3886,1308962,0.0000,1.0000
2014-12-26,17.4200,17.8010,17.3100,17.5300,16.0230,683571,0.0000,1.0000
2014-12-24,17.6000,17.6000,17.2900,17.4000,15.9041,504430,0.0000,1.0000
2014-12-23,17.3700,17.7600,17.2500,17.5800,16.0687,959099,0.0000,1.0000
2014-12-22,17.4400,17.4600,17.0700,17.3500,15.8584,1560194,0.0000,1.0000
2014-12-19,16.5100,17.5800,16.5100,17.3900,15.8950,2814692,0.0000,1.0000
2014-12-18,16.5000,16.8200,16.0800,16.4000,14.9901,1594141,0.0000,1.0000
2014-12-17,15.4700,16.2800,15.1100,16.2200,14.8256,2476186,0.0000,1.0000
2014-12-16,15.5500,15.6500,15.4100,15.4300,14.1035,2619116,0.0000,1.0000
2014-12-15,15.5900,15.7300,15.3198,15.5500,14.2132,2141654,0.0000,1.0000
2014-12-12,16.3500,16.7299,15.7200,15.7700,14.4143,2039291,0.0000,1.0000
2014-12-11,15.7500,16.1400,15.7500,16.0900,14.7068,1710726,0.0000,1.0000
2014-12-10,16.1000,16.1900,15.5700,15.6400,14.2954,1192908,0.0000,1.0000
2014-12-09,16.0600,16.2100,16.0100,16.0900,14.7068,824990,0.0000,1.0000
2014-12-08,16.1700,16.3800,16.0800,16.1400,14.7525,706569,0.0000,1.0000
2014-12-05,16.1600,16.3800,16.1200,16.3100,14.9078,831037,0.0000,1.0000
2014-12-04,16.2100,16.2800,16.0800,16.1300,14.7433,813186,0.0000,1.0000
2014-12-03,16.2100,16.3700,16.1500,16.1800,14.7890,1072010,0.0000,1.0000
2014-12-02,16.5700,16.6200,16.0900,16.2500,14.8530,1576118,0.0000,1.0000
2014-12-01,16.6800,16.7200,16.3100,16.4900,15.0724,1146963,0.0000,1.0000
2014-11-28,16.8100,16.9300,16.6000,16.6900,15.2552,500501,0.0000,1.0000
2014-11-26,16.8000,16.9200,16.7800,16.8100,15.3649,512629,0.0000,1.0000
2014-11-25,17.0400,17.1100,16.8500,16.8800,15.4288,1212171,0.0000,1.0000
2014-11-24,17.1800,17.2200,16.9500,17.0600,15.5934,788564,0.0000,1.0000
2014-11-21,17.1900,17.2400,17.0000,17.0700,15.6025,797957,0.0000,1.0000
2014-11-20,17.0500,17.1700,16.9600,17.0800,15.6117,719706,0.0000,1.0000
2014-11-19,17.0000,17.2300,16.9900,17.1000,15.6299,1067846,0.0000,1.0000
2014-11-18,16.9300,17.1050,16.8800,17.0600,15.5934,1180715,0.0000,1.0000
2014-11-17,16.9500,17.0500,16.6400,16.9400,15.4837,2192692,0.0000,1.0000
2014-11-14,17.0000,17.1450,16.8500,16.9100,15.4563,1973368,0.0000,1.0000
2014-11-13,16.7700,17.1200,16.6500,17.0200,15.5568,4789589,0.0000,1.0000
2014-11-12,18.2500,18.8500,16.1601,16.8500,15.4014,9529974,0.0000,1.0000
2014-11-11,18.4500,18.6200,18.4000,18.6000,17.0010,3505205,0.0000,1.0000
2014-11-10,18.3300,18.9800,18.2300,18.4500,16.8639,2675159,0.0000,1.0000
2014-11-07,18.8200,18.9500,18.3159,18.3900,16.8090,2205408,0.0000,1.0000
2014-11-06,18.8200,19.0000,18.7300,18.8400,17.2203,820283,0.0000,1.0000
2014-11-05,18.5700,19.0200,18.5700,18.7000,17.0924,910080,0.0000,1.0000
2014-11-04,19.1900,19.1900,18.3800,18.5300,16.9370,815945,0.0000,1.0000
2014-11-03,19.1900,19.4200,19.0600,19.2500,17.5951,580178,0.0000,1.0000
2014-10-31,18.9700,19.2800,18.8100,19.2400,17.5860,942896,0.0000,1.0000
2014-10-30,16.7700,17.1200,16.6500,17.0200,15.5568,829647,0.0000,1.0000
2014-10-29,19.0500,19.3000,18.9750,19.2000,17.5494,591968,0.0000,1.0000
2014-10-28,18.5000,19.1900,18.4800,19.0000,17.3666,653415,0.0000,1.0000
2014-10-27,18.5900,18.7000,18.3400,18.5000,16.9096,616364,0.0000,1.0000
2014-10-24,18.5000,18.6699,18.1800,18.6000,17.0010,581382,0.0000,1.0000
2014-10-23,18.2100,18.9000,18.0800,18.5500,16.9553,899484,0.0000,1.0000
2014-10-22,18.1500,18.6600,17.9100,18.0700,16.5165,1664246,0.0000,1.0000
2014-10-21,17.8500,18.3100,17.8500,18.0600,16.5074,904930,0.0000,1.0000
2014-10-20,17.6900,18.0200,17.6300,17.7900,16.2606,864101,0.0000,1.0000
2014-10-17,17.8500,18.0300,17.6250,17.7100,16.1875,1056917,0.0000,1.0000
2014-10-16,17.6700,18.0200,17.4100,17.7500,16.2241,946067,0.0000,1.0000
2014-10-15,17.9600,18.0050,17.2200,17.9600,16.4160,1357211,0.0000,1.0000
2014-10-14,18.0000,18.5000,17.9801,18.1500,16.5897,910070,0.0000,1.0000
2014-10-13,18.4000,18.6600,17.8800,17.9200,16.3794,838818,0.0000,1.0000
2014-10-10,18.4800,18.7100,18.1000,18.3500,16.7725,583799,0.0000,1.0000
2014-10-09,18.7600,18.8500,18.5000,18.5100,16.9187,797791,0.0000,1.0000
2014-10-08,18.6900,18.9400,18.4400,18.8200,17.2021,1117094,0.0000,1.0000
2014-10-07,18.8700,18.9700,18.6400,18.6600,17.0558,1925611,0.0000,1.0000
2014-10-06,19.0300,19.1900,18.8179,19.0600,17.4214,816387,0.0000,1.0000
2014-10-03,18.9500,19.2500,18.8300,18.9700,17.3392,902336,0.0000,1.0000
2014-10-02,18.7300,19.0100,18.5350,18.8500,17.2295,1577797,0.0000,1.0000
2014-10-01,19.2000,19.2700,18.6400,18.7300,17.1198,1454480,0.0000,1.0000
2014-09-30,19.5300,19.6900,19.1549,19.2300,17.5768,1079164,0.0000,1.0000
2014-09-29,19.7500,19.7700,19.4100,19.5600,17.8784,1077735,0.0000,1.0000
2014-09-26,19.8500,20.1500,19.6200,19.9800,18.2623,809887,0.0000,1.0000
2014-09-25,20.0200,20.1000,19.4535,19.7200,18.0247,1066259,0.2100,1.0000
2014-09-24,20.0100,20.4100,19.8704,20.3700,18.4226,1184052,0.0000,1.0000
2014-09-23,20.2900,20.3200,20.0300,20.0400,18.1242,867743,0.0000,1.0000
2014-09-22,20.5100,20.5500,20.2400,20.3200,18.3774,862557,0.0000,1.0000
2014-09-19,20.5500,20.6800,20.4650,20.5700,18.6035,1574100,0.0000,1.0000
2014-09-18,20.5200,20.7700,20.5000,20.5400,18.5764,1062600,0.0000,1.0000
2014-09-17,20.4900,20.6600,20.4200,20.5100,18.5492,1391800,0.0000,1.0000
2014-09-16,20.3700,20.5900,20.3700,20.5300,18.5673,1174500,0.0000,1.0000
2014-09-15,20.6400,20.6750,20.3500,20.5000,18.5402,1986700,0.0000,1.0000
2014-09-12,20.8000,20.9200,20.5700,20.7000,18.7211,2612700,0.0000,1.0000
2014-09-11,21.0000,21.4900,20.7800,20.9000,18.9020,2525700,0.0000,1.0000
2014-09-10,20.3700,20.7800,20.3700,20.6900,18.7120,1210100,0.0000,1.0000
2014-09-09,20.3700,20.6000,20.3100,20.4400,18.4859,1488000,0.0000,1.0000
2014-09-08,20.3800,20.8000,20.3610,20.5400,18.5764,1834300,0.0000,1.0000
2014-09-05,20.2000,20.5100,20.0900,20.4800,18.5221,1353900,0.0000,1.0000
2014-09-04,20.1900,20.3900,20.1300,20.2600,18.3231,1323900,0.0000,1.0000
2014-09-03,20.5400,20.6400,20.1100,20.2100,18.2779,3442900,0.0000,1.0000
2014-09-02,20.8100,20.8600,20.4700,20.5100,18.5492,2132300,0.0000,1.0000
2014-08-29,20.5600,20.8500,20.5000,20.7900,18.8025,1370500,0.0000,1.0000
2014-08-28,20.7500,20.7500,20.3200,20.5600,18.5945,1989100,0.0000,1.0000
2014-08-27,20.5200,20.9700,20.4700,20.8500,18.8567,3879600,0.0000,1.0000
2014-08-26,20.1700,20.5700,20.0100,20.4700,18.5131,3545700,0.0000,1.0000
2014-08-25,20.4800,20.4800,19.9000,20.1400,18.2146,4215500,0.0000,1.0000
2014-08-22,19.3900,20.8500,19.1500,20.2700,18.3322,9643500,0.0000,1.0000
2014-08-21,19.0100,19.0600,18.9000,19.0100,17.1926,2669100,0.0000,1.0000
2014-08-20,18.7500,19.0500,18.7000,18.9400,17.1293,3047500,0.0000,1.0000
2014-08-19,18.9100,18.9890,18.5000,18.7100,16.9213,3605500,0.0000,1.0000
2014-08-18,19.0000,19.2000,18.7800,18.9000,17.0932,6539400,0.0000,1.0000
2014-08-15,18.1000,18.7200,18.0300,18.6600,16.8761,13702100,0.0000,1.0000
2014-08-14,19.0400,19.1000,17.8300,18.0000,16.2792,16327000,0.0000,1.0000
2014-08-13,20.0800,21.3500,18.1700,18.9000,17.0932,41554100,0.0000,1.0000
2014-08-12,27.9800,28.4390,27.8600,28.1500,25.4589,2389900,0.0000,1.0000
2014-08-11,27.3300,28.1700,27.3050,28.0600,25.3775,2109600,0.0000,1.0000
2014-08-08,27.1800,27.2400,26.6900,27.1700,24.5726,1981700,0.0000,1.0000
2014-08-07,27.4100,27.6800,26.7700,26.8300,24.2651,1425700,0.0000,1.0000
2014-08-06,27.8300,27.8600,27.0000,27.4300,24.8077,3266800,0.0000,1.0000
2014-08-05,28.1100,28.2200,27.8100,27.9100,25.2418,1011400,0.0000,1.0000
2014-08-04,27.8200,28.3300,27.7000,28.2700,25.5674,762000,0.0000,1.0000
2014-08-01,27.8000,27.9100,27.5700,27.7500,25.0971,503100,0.0000,1.0000
2014-07-31,28.0300,28.1460,27.7500,27.8500,25.1875,580500,0.0000,1.0000
2014-07-30,28.4300,28.5300,28.1000,28.2800,25.5764,589800,0.0000,1.0000
2014-07-29,28.1600,28.5050,28.1500,28.2100,25.5131,308500,0.0000,1.0000
2014-07-28,28.3300,28.4600,28.0000,28.1800,25.4860,542500,0.0000,1.0000
2014-07-25,28.0000,28.3300,27.9600,28.3000,25.5945,692100,0.0000,1.0000
2014-07-24,28.1200,28.1600,27.9900,28.0200,25.3413,686200,0.0000,1.0000
2014-07-23,27.9900,28.0200,27.7500,28.0200,25.3413,928400,0.0000,1.0000
2014-07-22,28.1000,28.1499,27.6800,27.9300,25.2599,1533600,0.0000,1.0000
2014-07-21,28.4300,28.6200,27.3900,28.0100,25.3322,1534000,0.0000,1.0000
2014-07-18,27.9400,28.6350,27.9400,28.5500,25.8206,1219200,0.0000,1.0000
2014-07-17,28.0300,28.3500,27.9500,27.9700,25.2961,1791300,0.0000,1.0000
2014-07-16,28.5100,28.6700,28.0800,28.1500,25.4589,811900,0.0000,1.0000
2014-07-15,28.4600,28.5800,28.2200,28.3700,25.6578,546900,0.0000,1.0000
2014-07-14,28.7300,28.7300,28.3700,28.3800,25.6669,1288700,0.0000,1.0000
2014-07-11,28.5600,28.7900,28.4725,28.5800,25.8478,670800,0.0000,1.0000
2014-07-10,28.3700,29.1100,28.3040,28.6800,25.9382,730700,0.0000,1.0000
2014-07-09,28.9700,28.9700,28.4900,28.6600,25.9201,1269200,0.0000,1.0000
2014-07-08,29.6100,29.6900,28.7800,29.0000,26.2276,738800,0.0000,1.0000
2014-07-07,29.6100,29.7400,29.1600,29.5900,26.7612,1104300,0.0000,1.0000
2014-07-03,28.7600,29.3100,28.6400,29.1400,26.3542,804600,0.0000,1.0000
2014-07-02,28.1500,28.8700,28.0600,28.8500,26.0919,671000,0.0000,1.0000
2014-07-01,28.4900,28.7100,28.0900,28.1000,25.4136,1224300,0.0000,1.0000
2014-06-30,28.0000,28.3500,27.8000,28.3300,25.6217,1874200,0.0000,1.0000
2014-06-27,28.3400,28.5000,27.9800,28.0000,25.3232,2498600,0.0000,1.0000
2014-06-26,28.4100,28.5650,28.1800,28.3800,25.6669,860100,0.0000,1.0000
2014-06-25,28.8600,29.2800,28.2600,28.3100,25.6036,1940500,0.0000,1.0000
2014-06-24,29.4600,29.7300,28.7100,28.8700,26.1100,3434700,0.0000,1.0000
2014-06-23,30.2100,30.7900,29.4800,29.6000,26.7702,2059100,0.0000,1.0000
2014-06-20,30.2300,30.5700,30.1700,30.3200,27.4214,980100,0.0000,1.0000
2014-06-19,29.9100,30.4800,29.9100,30.1400,27.2586,876200,0.0000,1.0000
2014-06-18,29.5000,30.1500,29.5000,29.9800,27.1139,657200,0.2100,1.0000
2014-06-17,29.7800,29.9650,29.6900,29.7400,26.7098,586600,0.0000,1.0000
2014-06-16,30.0500,30.1620,29.7700,29.8100,26.7726,802300,0.0000,1.0000
2014-06-13,30.4400,30.5480,29.7900,30.1600,27.0870,941600,0.0000,1.0000
2014-06-12,31.0800,31.1220,30.4200,30.5000,27.3923,368100,0.0000,1.0000
2014-06-11,31.1000,31.2020,30.6100,31.0600,27.8953,343000,0.0000,1.0000
2014-06-10,31.0100,31.2700,30.8900,31.1800,28.0030,262800,0.0000,1.0000
2014-06-09,30.8500,31.2000,30.8500,31.1000,27.9312,599200,0.0000,1.0000
2014-06-06,30.6300,30.9700,30.3800,30.8400,27.6977,408600,0.0000,1.0000
2014-06-05,30.2300,30.6100,30.0600,30.5900,27.4732,499100,0.0000,1.0000
2014-06-04,30.2900,30.5000,30.2200,30.3600,27.2666,415200,0.0000,1.0000
2014-06-03,30.3100,30.6000,30.3100,30.4000,27.3025,534600,0.0000,1.0000
2014-06-02,30.6700,30.8100,29.9600,30.4500,27.3474,951200,0.0000,1.0000
2014-05-30,30.6600,31.0000,30.3900,30.5200,27.4103,961500,0.0000,1.0000
2014-05-29,31.2400,31.3900,30.7200,30.7600,27.6258,404000,0.0000,1.0000
2014-05-28,31.0100,31.4600,30.8900,31.2500,28.0659,425800,0.0000,1.0000
2014-05-27,31.1900,31.2900,30.9400,31.1500,27.9761,521200,0.0000,1.0000
2014-05-23,31.0100,31.2600,30.8900,31.1800,28.0030,370500,0.0000,1.0000
2014-05-22,31.0200,31.3600,30.7400,31.0400,27.8773,1299100,0.0000,1.0000
2014-05-21,30.6000,31.1500,30.5200,30.8900,27.7426,581900,0.0000,1.0000
2014-05-20,31.0000,31.0000,30.3700,30.6400,27.5181,711900,0.0000,1.0000
2014-05-19,29.9700,31.1200,29.9501,30.9600,27.8055,1687900,0.0000,1.0000
2014-05-16,29.7500,30.3300,29.2000,30.0500,26.9882,1569000,0.0000,1.0000
2014-05-15,29.2400,30.2220,28.7500,29.6800,26.6559,3404200,0.0000,1.0000
2014-05-14,30.1200,30.2000,29.0100,29.3400,26.3505,2691600,0.0000,1.0000
2014-05-13,30.5900,30.6000,29.8200,29.9100,26.8624,807100,0.0000,1.0000
2014-05-12,30.0000,30.7300,30.0000,30.5700,27.4552,872200,0.0000,1.0000
2014-05-09,30.4400,30.7075,29.8800,29.9400,26.8894,845100,0.0000,1.0000
2014-05-08,30.5400,31.0500,30.3099,30.5000,27.3923,627300,0.0000,1.0000
2014-05-07,30.6200,30.8000,30.1400,30.5700,27.4552,922900,0.0000,1.0000
2014-05-06,30.2900,30.9200,30.1400,30.5000,27.3923,635900,0.0000,1.0000
2014-05-05,30.8100,30.9000,30.0150,30.3600,27.2666,503500,0.0000,1.0000
2014-05-02,30.9200,31.2300,30.8480,31.0300,27.8683,679200,0.0000,1.0000
2014-05-01,30.0000,30.8100,29.8800,30.7100,27.5809,427600,0.0000,1.0000
2014-04-30,30.1000,30.2300,29.9100,30.0600,26.9972,373000,0.0000,1.0000
2014-04-29,29.9900,30.4300,29.7200,30.0900,27.0241,546400,0.0000,1.0000
2014-04-28,29.9000,30.2300,29.5600,29.9000,26.8535,557700,0.0000,1.0000
2014-04-25,30.3500,30.3500,29.6700,29.7000,26.6738,381900,0.0000,1.0000
2014-04-24,30.4400,30.6700,30.2700,30.3700,27.2756,603800,0.0000,1.0000
2014-04-23,30.2000,30.4800,29.8300,30.2400,27.1588,347700,0.0000,1.0000
2014-04-22,29.7200,30.5800,29.6300,30.1700,27.0960,863600,0.0000,1.0000
2014-04-21,29.9300,29.9900,29.5000,29.6800,26.6559,517200,0.0000,1.0000
2014-04-17,29.7400,30.0600,29.6700,30.0100,26.9523,533400,0.0000,1.0000
2014-04-16,30.0200,30.2500,29.5900,29.7300,26.7008,599000,0.0000,1.0000
2014-04-15,29.6300,29.8500,29.0800,29.8100,26.7726,1112000,0.0000,1.0000
2014-04-14,30.3100,30.3100,29.2500,29.6800,26.6559,944100,0.0000,1.0000
2014-04-11,30.1800,30.4000,29.5300,29.9900,26.9343,1255900,0.0000,1.0000
2014-04-10,31.8700,31.9220,30.4600,30.4600,27.3564,1797200,0.0000,1.0000
2014-04-09,30.9000,31.8250,30.7300,31.7500,28.5150,2318600,0.0000,1.0000
2014-04-08,29.4000,31.1700,29.0000,30.9000,27.7516,6359400,0.0000,1.0000
2014-04-07,29.8000,30.1800,29.3000,29.3300,26.3415,3032900,0.0000,1.0000
2014-04-04,30.8700,30.9000,29.7500,29.9700,26.9163,9273800,0.0000,1.0000
2014-04-03,29.6500,30.2800,29.4200,30.0100,26.9523,2800900,0.0000,1.0000
2014-04-02,30.1400,30.7600,29.7100,30.4400,27.3384,2579700,0.0000,1.0000
2014-04-01,30.2700,30.5769,29.8000,30.0100,26.9523,892400,0.0000,1.0000
2014-03-31,30.3300,30.6500,29.8000,30.2300,27.1498,1285100,0.0000,1.0000
2014-03-28,30.5900,31.0400,30.0700,30.1400,27.0690,1153900,0.0000,1.0000
2014-03-27,31.0000,31.4000,30.3100,30.3600,27.2666,1405200,0.0000,1.0000
2014-03-26,31.7500,32.0500,30.9500,31.0600,27.8953,1024100,0.0000,1.0000
2014-03-25,31.9000,31.9100,31.2200,31.8700,28.6227,1107500,0.0000,1.0000
2014-03-24,32.3500,32.4700,31.4700,31.9800,28.7215,1111100,0.0000,1.0000
2014-03-21,32.8000,33.3300,32.6900,33.1700,29.7903,1354400,0.0000,1.0000
2014-03-20,32.0600,32.9900,32.0200,32.8000,29.4580,646900,0.0000,1.0000
2014-03-19,31.9500,32.3100,31.9200,32.3000,29.0089,490600,0.0000,1.0000
2014-03-18,31.0500,32.0300,31.0500,31.9700,28.7125,625900,0.2000,1.0000
2014-03-17,32.5800,32.6150,30.8000,31.6800,28.2752,1300500,0.0000,1.0000
2014-03-14,31.1000,33.0800,30.5000,32.5600,29.0606,2405600,0.0000,1.0000
2014-03-13,32.3400,32.4200,31.2800,31.5100,28.1235,1241700,0.0000,1.0000
2014-03-12,33.4000,33.6300,32.1900,32.3700,28.8911,1852200,0.0000,1.0000
2014-03-11,33.8100,34.6100,33.4300,33.6000,29.9889,524700,0.0000,1.0000
2014-03-10,33.0800,34.0000,32.7900,33.8700,30.2298,920800,0.0000,1.0000
2014-03-07,35.2200,35.2200,32.5200,33.1200,29.5604,3018700,0.0000,1.0000
2014-03-06,35.0000,35.1900,34.7600,35.1100,31.3366,265800,0.0000,1.0000
2014-03-05,34.3700,35.0400,34.2200,34.9200,31.1670,596300,0.0000,1.0000
2014-03-04,33.9500,35.0000,33.8600,34.4000,30.7029,466000,0.0000,1.0000
2014-03-03,33.7500,33.9400,33.1100,33.7700,30.1406,719500,0.0000,1.0000
2014-02-28,34.1200,34.4800,33.5600,34.1400,30.4708,424200,0.0000,1.0000
2014-02-27,34.3700,34.5500,33.9900,34.2500,30.5690,256400,0.0000,1.0000
2014-02-26,34.6400,35.3000,34.1300,34.2900,30.6047,536700,0.0000,1.0000
2014-02-25,34.0600,34.7500,34.0000,34.5600,30.8457,447700,0.0000,1.0000
2014-02-24,33.4800,34.1100,33.4600,34.0000,30.3459,363400,0.0000,1.0000
2014-02-21,33.7600,33.7600,33.3200,33.5000,29.8996,309200,0.0000,1.0000
2014-02-20,33.7700,33.9500,33.5200,33.7600,30.1317,296400,0.0000,1.0000
2014-02-19,33.4300,33.8300,33.0900,33.7400,30.1138,310900,0.0000,1.0000
2014-02-18,33.2500,33.7600,33.2500,33.4000,29.8104,707300,0.0000,1.0000
2014-02-14,32.7500,33.7200,32.6400,33.2500,29.6765,303000,0.0000,1.0000
2014-02-13,32.4200,32.9000,32.2500,32.8100,29.2838,255600,0.0000,1.0000
2014-02-12,32.5000,32.7300,32.4000,32.5200,29.0249,571600,0.0000,1.0000
2014-02-11,32.5300,32.8400,32.2500,32.5400,29.0428,388600,0.0000,1.0000
2014-02-10,32.4700,32.7600,32.3700,32.5200,29.0249,535700,0.0000,1.0000
2014-02-07,32.0200,32.6300,31.6600,32.6000,29.0963,547800,0.0000,1.0000
2014-02-06,31.2500,32.1800,31.0600,31.9000,28.4716,661600,0.0000,1.0000
2014-02-05,31.3800,31.6175,31.1299,31.2200,27.8646,456700,0.0000,1.0000
2014-02-04,31.2300,31.6100,31.0400,31.5100,28.1235,227800,0.0000,1.0000
2014-02-03,32.2700,32.5025,30.6000,31.1000,27.7575,907100,0.0000,1.0000
2014-01-31,31.8500,32.5400,31.2400,32.4200,28.9357,501400,0.0000,1.0000
2014-01-30,32.7900,33.0250,31.9700,32.0500,28.6054,1143900,0.0000,1.0000
2014-01-29,33.1000,33.1500,32.4600,32.6200,29.1142,1055300,0.0000,1.0000
2014-01-28,33.0300,33.7500,32.9100,33.2300,29.6586,649600,0.0000,1.0000
2014-01-27,33.2500,33.3600,32.5300,33.1500,29.5872,542300,0.0000,1.0000
2014-01-24,33.0600,33.4400,32.7100,33.1800,29.6140,900100,0.0000,1.0000
2014-01-23,32.8000,33.5200,32.4300,33.4400,29.8461,687600,0.0000,1.0000
2014-01-22,33.0100,33.2700,32.8500,32.9400,29.3998,190400,0.0000,1.0000
2014-01-21,33.2300,33.4650,32.5000,32.9900,29.4444,730000,0.0000,1.0000
2014-01-17,33.0800,33.4400,32.5000,33.2500,29.6765,1326000,0.0000,1.0000
2014-01-16,31.1400,33.6350,31.1100,33.5900,29.9799,2685200,0.0000,1.0000
2014-01-15,30.7200,31.3000,30.4200,30.9900,27.6594,1172600,0.0000,1.0000
2014-01-14,30.2800,31.0700,30.2800,30.7800,27.4719,2647800,0.0000,1.0000
2014-01-13,29.4300,30.9700,29.4300,30.1000,26.8650,3275200,0.0000,1.0000
2014-01-10,28.0000,29.5900,28.0000,29.4500,26.2849,3225800,0.0000,1.0000
2014-01-09,27.8800,28.0500,27.6500,27.9700,24.9639,1278500,0.0000,1.0000
2014-01-08,28.1700,28.1700,27.4900,27.7900,24.8033,2207300,0.0000,1.0000
2014-01-07,28.2200,28.3200,28.0000,28.1100,25.0889,1149100,0.0000,1.0000
2014-01-06,28.8600,28.9400,28.0000,28.2100,25.1781,1414200,0.0000,1.0000
2014-01-03,29.0000,29.2500,28.8300,28.9000,25.7940,1288200,0.0000,1.0000
2014-01-02,28.8100,29.3400,28.6000,29.0200,25.9011,1296300,0.0000,1.0000
2013-12-31,28.1000,28.9800,28.0000,28.7700,25.6780,2283100,0.0000,1.0000
2013-12-30,28.6900,28.6900,28.0200,28.1200,25.0978,1294200,0.0000,1.0000
2013-12-27,28.6800,28.6800,28.2500,28.6300,25.5530,1702900,0.0000,1.0000
2013-12-26,29.0300,29.1400,28.4400,28.5400,25.4727,802800,0.0000,1.0000
2013-12-24,28.7700,29.0900,28.4300,29.0700,25.9457,972200,0.0000,1.0000
2013-12-23,29.3300,29.4900,28.6700,28.7900,25.6958,3287000,0.0000,1.0000
2013-12-20,29.2500,29.6000,29.0880,29.3400,26.1867,923300,0.0000,1.0000
2013-12-19,29.5400,29.8700,29.2100,29.2700,26.1242,545200,0.0000,1.0000
2013-12-18,29.0800,29.8700,28.9700,29.7200,26.5259,617400,0.2000,1.0000
2013-12-17,29.5000,29.7800,29.2500,29.3300,26.0028,644600,0.0000,1.0000
2013-12-16,29.3600,29.9400,29.2200,29.4900,26.1446,1443700,0.0000,1.0000
2013-12-13,29.4000,29.6100,28.7600,29.3100,25.9851,3148500,0.0000,1.0000
2013-12-12,29.7900,30.1400,29.1100,29.4100,26.0737,7587400,0.0000,1.0000
2013-12-11,29.6000,30.2400,29.4500,30.0800,26.6677,1555600,0.0000,1.0000
2013-12-10,29.3500,30.1300,29.2600,29.6300,26.2688,1526500,0.0000,1.0000
2013-12-09,29.4800,30.0040,29.2500,29.8500,26.4638,286700,0.0000,1.0000
2013-12-06,29.8300,30.2000,29.5680,29.6600,26.2954,200700,0.0000,1.0000
2013-12-05,29.6100,30.2500,29.4680,29.6800,26.3131,356000,0.0000,1.0000
2013-12-04,29.6600,30.2000,29.3900,29.5500,26.1978,280000,0.0000,1.0000
2013-12-03,29.9900,30.2500,29.3900,29.6500,26.2865,859600,0.0000,1.0000
2013-12-02,29.7300,30.3500,29.4600,30.0100,26.6057,416200,0.0000,1.0000
2013-11-29,29.6500,29.8200,29.4300,29.8200,26.4372,123900,0.0000,1.0000
2013-11-27,29.3400,30.2800,29.3140,29.6500,26.2865,319800,0.0000,1.0000
2013-11-26,29.8600,30.2600,29.4500,29.6000,26.2422,591900,0.0000,1.0000
2013-11-25,30.6500,30.7200,29.6100,29.8600,26.4727,314400,0.0000,1.0000
2013-11-22,30.6400,30.9300,30.3700,30.5200,27.0578,203400,0.0000,1.0000
2013-11-21,31.1200,31.5900,30.5300,30.5900,27.1199,270000,0.0000,1.0000
2013-11-20,31.2400,32.2900,29.7300,31.1900,27.6518,569100,0.0000,1.0000
2013-11-19,31.9000,32.4000,31.6500,31.8100,28.2015,386800,0.0000,1.0000
2013-11-18,31.4500,32.2600,31.4500,32.0500,28.4142,512500,0.0000,1.0000
2013-11-15,30.7900,32.2500,30.7900,31.5000,27.9266,1520800,0.0000,1.0000
2013-11-14,32.7300,34.0000,30.3700,30.6800,27.1996,2573600,0.0000,1.0000
2013-11-13,31.9000,32.8700,31.8000,32.8200,29.0969,559700,0.0000,1.0000
2013-11-12,32.6800,33.0200,31.7800,31.9200,28.2990,766200,0.0000,1.0000
2013-11-11,30.6000,31.7200,30.5050,31.2000,27.6607,502700,0.0000,1.0000
2013-11-08,30.8500,31.0700,30.3800,30.6700,27.1908,165500,0.0000,1.0000
2013-11-07,30.4900,31.0100,30.3500,30.8700,27.3681,536700,0.0000,1.0000
2013-11-06,29.3700,30.7800,29.2000,30.4800,27.0223,312500,0.0000,1.0000
2013-11-05,29.5200,29.7100,29.1300,29.3300,26.0028,146500,0.0000,1.0000
2013-11-04,29.7500,29.9600,28.9900,29.6700,26.3042,114900,0.0000,1.0000
2013-11-01,29.9600,29.9600,29.4000,29.7300,26.3574,256100,0.0000,1.0000
2013-10-31,29.7800,30.1900,29.7200,30.0300,26.6234,197300,0.0000,1.0000
2013-10-30,30.1200,30.4900,29.4800,29.8500,26.4638,176500,0.0000,1.0000
2013-10-29,30.3900,30.6200,29.9100,30.0300,26.6234,230000,0.0000,1.0000
2013-10-28,29.9400,30.5600,29.6000,30.3300,26.8894,328200,0.0000,1.0000
2013-10-25,29.7600,30.1450,29.4800,29.9900,26.5879,124300,0.0000,1.0000
2013-10-24,28.7100,29.8000,28.6750,29.7600,26.3840,260500,0.0000,1.0000
2013-10-23,29.1700,29.3900,28.6900,28.7100,25.4531,196700,0.0000,1.0000
2013-10-22,29.7700,30.1300,29.2200,29.4300,26.0914,232700,0.0000,1.0000
2013-10-21,29.9600,29.9600,29.4300,29.7600,26.3840,252300,0.0000,1.0000
2013-10-18,29.7200,30.2100,29.6000,29.9800,26.5791,287700,0.0000,1.0000
2013-10-17,29.1900,29.7600,29.0900,29.5700,26.2156,285900,0.0000,1.0000
2013-10-16,28.8000,29.4100,28.8000,29.2100,25.8964,270200,0.0000,1.0000
2013-10-15,28.6200,29.1700,28.3900,28.5600,25.3201,270900,0.0000,1.0000
2013-10-14,28.6200,28.7600,27.9200,28.7400,25.4797,491000,0.0000,1.0000
2013-10-11,27.9500,28.8900,27.9000,28.6200,25.3733,285700,0.0000,1.0000
2013-10-10,27.9100,28.2000,27.8200,28.0500,24.8680,500600,0.0000,1.0000
2013-10-09,28.1900,28.3444,27.4801,27.6600,24.5222,447300,0.0000,1.0000
2013-10-08,29.0600,29.1450,27.9100,28.1900,24.9921,259000,0.0000,1.0000
2013-10-07,29.0700,29.3400,29.0700,29.1300,25.8255,85200,0.0000,1.0000
2013-10-04,29.6800,29.6800,28.7300,29.3000,25.9762,882900,0.0000,1.0000
2013-10-03,30.0000,30.1800,29.4550,29.6500,26.2865,213100,0.0000,1.0000
2013-10-02,30.2100,30.3200,29.9000,30.0800,26.6677,77600,0.0000,1.0000
2013-10-01,29.7100,30.6800,29.6500,30.3000,26.8628,358200,0.0000,1.0000
2013-09-30,30.0000,30.2400,29.3900,29.6300,26.2688,310700,0.0000,1.0000
2013-09-27,30.4200,30.7000,30.0900,30.2100,26.7830,77700,0.0000,1.0000
2013-09-26,30.7600,30.9690,30.2000,30.5300,27.0667,174800,0.0000,1.0000
2013-09-25,31.6400,31.8400,30.5500,30.7800,27.2883,1184700,0.0000,1.0000
2013-09-24,31.7700,31.8800,31.3701,31.6500,28.0596,218100,0.0000,1.0000
2013-09-23,31.6500,32.0000,31.3600,31.7300,28.1305,585400,0.0000,1.0000
2013-09-20,31.6300,31.9100,31.5100,31.7300,28.1305,394900,0.0000,1.0000
2013-09-19,31.3100,31.7300,31.1000,31.5600,27.9798,267300,0.0000,1.0000
2013-09-18,30.9500,31.6400,30.8500,31.3000,27.7493,162100,0.2000,1.0000
2013-09-17,30.8900,31.2800,30.8500,31.2100,27.4938,237400,0.0000,1.0000
2013-09-16,31.5500,31.7900,30.7200,30.9600,27.2736,367300,0.0000,1.0000
2013-09-13,30.9100,31.4300,30.1100,31.4300,27.6876,348200,0.0000,1.0000
2013-09-12,30.5000,31.3400,29.5600,30.8400,27.1679,1210700,0.0000,1.0000
2013-09-11,29.6800,29.8300,28.3800,28.6500,25.2387,608900,0.0000,1.0000
2013-09-10,29.2800,30.1700,29.2500,29.7800,26.2341,526300,0.0000,1.0000
2013-09-09,30.0200,30.1200,28.8400,29.2600,25.7760,592800,0.0000,1.0000
2013-09-06,30.0100,30.2900,29.3500,30.0000,26.4279,847400,0.0000,1.0000
2013-09-05,29.4300,30.0700,28.8500,30.0500,26.4720,485200,0.0000,1.0000
2013-09-04,29.6900,29.7750,28.9700,29.3400,25.8465,999800,0.0000,1.0000
2013-09-03,30.3100,30.8800,29.5300,29.8000,26.2517,663500,0.0000,1.0000
2013-08-30,29.8300,30.2400,29.6000,29.9300,26.3663,396000,0.0000,1.0000
2013-08-29,30.0000,31.7000,29.4900,29.5900,26.0667,1862600,0.0000,1.0000
2013-08-28,31.6900,31.9000,29.6000,29.7000,26.1636,959400,0.0000,1.0000
2013-08-27,32.9000,33.0600,31.6600,31.7600,27.9784,1150200,0.0000,1.0000
2013-08-26,33.3600,33.7100,33.0000,33.0700,29.1324,79500,0.0000,1.0000
2013-08-23,33.6400,33.6650,33.0000,33.2900,29.3262,189200,0.0000,1.0000
2013-08-22,33.3700,33.6100,33.0000,33.5400,29.5464,227000,0.0000,1.0000
2013-08-21,33.4800,33.8300,33.0100,33.3800,29.4055,78500,0.0000,1.0000
2013-08-20,33.5700,33.8100,33.4300,33.4700,29.4847,91100,0.0000,1.0000
2013-08-19,33.7600,33.9120,33.3700,33.5100,29.5200,105500,0.0000,1.0000
2013-08-16,33.6200,34.2300,33.3800,33.8800,29.8459,133000,0.0000,1.0000
2013-08-15,34.7600,34.7600,33.4100,33.4900,29.5024,312400,0.0000,1.0000
2013-08-14,33.0000,35.4000,32.8300,34.9400,30.7797,2239400,0.0000,1.0000
2013-08-13,36.4700,36.6798,35.8800,36.3100,31.9866,345400,0.0000,1.0000
2013-08-12,35.7100,36.5200,35.3100,36.4600,32.1187,195300,0.0000,1.0000
2013-08-09,35.7500,36.0200,35.1700,35.9500,31.6695,194500,0.0000,1.0000
2013-08-08,36.6900,36.7060,35.7400,35.7400,31.4845,214700,0.0000,1.0000
2013-08-07,36.7000,36.9500,36.4300,36.5100,32.1628,153300,0.0000,1.0000
2013-08-06,37.0000,37.0000,36.5585,36.8800,32.4887,260800,0.0000,1.0000
2013-08-05,36.6000,37.1700,36.2700,37.0000,32.5944,320300,0.0000,1.0000
2013-08-02,37.0400,37.4800,36.4600,36.6100,32.2509,341000,0.0000,1.0000
2013-08-01,36.7600,37.1300,36.6700,37.0100,32.6032,105600,0.0000,1.0000
2013-07-31,36.7600,37.2650,36.1500,36.6700,32.3037,246600,0.0000,1.0000
2013-07-30,37.4100,37.9500,36.5800,36.8100,32.4271,368700,0.0000,1.0000
2013-07-29,37.5300,37.9100,37.3000,37.5400,33.0701,12800,0.0000,1.0000
2013-07-26,37.2700,37.6700,36.7900,37.6300,33.1494,108400,0.0000,1.0000
2013-07-25,37.7000,37.9000,37.1400,37.4700,33.0085,128700,0.0000,1.0000
2013-07-24,38.2900,38.5775,37.5000,37.8100,33.3080,846700,0.0000,1.0000
2013-07-23,38.0600,38.9400,38.0000,38.3300,33.7661,466900,0.0000,1.0000
2013-07-22,38.2300,38.2300,37.8900,38.0500,33.5194,76500,0.0000,1.0000
2013-07-19,38.0600,38.6690,37.9900,38.3000,33.7396,128900,0.0000,1.0000
2013-07-18,38.3000,38.4800,37.7300,38.1800,33.6339,107100,0.0000,1.0000
2013-07-17,38.5500,38.7200,38.1500,38.3000,33.7396,68200,0.0000,1.0000
2013-07-16,38.8800,38.9200,37.9000,38.7100,34.1008,171200,0.0000,1.0000
2013-07-15,38.3600,39.1900,38.3200,38.8800,34.2506,194400,0.0000,1.0000
2013-07-12,38.9490,38.9900,37.9920,38.3200,33.7573,199100,0.0000,1.0000
2013-07-11,38.9500,39.0000,38.2000,38.9200,34.2858,355300,0.0000,1.0000
2013-07-10,38.5000,38.9400,37.8540,38.5300,33.9423,286500,0.0000,1.0000
2013-07-09,36.7400,38.5000,36.4900,38.4700,33.8894,1122800,0.0000,1.0000
2013-07-08,35.4800,36.6100,35.4800,36.4900,32.1452,380500,0.0000,1.0000
2013-07-05,35.2800,36.2000,35.2000,35.4500,31.2290,188900,0.0000,1.0000
2013-07-03,35.5500,35.5706,34.8800,35.1700,30.9823,226400,0.0000,1.0000
2013-07-02,36.4000,36.5200,35.3700,35.7000,31.4492,248100,0.0000,1.0000
2013-07-01,35.1000,36.7300,34.8600,36.4100,32.0747,375600,0.0000,1.0000
2013-06-28,35.1300,35.9692,35.0400,35.1000,30.9207,1664200,0.0000,1.0000
2013-06-27,35.6000,35.9000,34.8100,35.1000,30.9207,395300,0.0000,1.0000
2013-06-26,36.4900,36.5550,34.8800,35.5500,31.3171,837100,0.0000,1.0000
2013-06-25,37.6500,37.7000,36.0800,36.3000,31.9778,271600,0.0000,1.0000
2013-06-24,37.4300,37.6800,36.3000,37.4300,32.9732,220800,0.0000,1.0000
2013-06-21,37.9900,38.3100,37.6800,37.7300,33.2375,1200100,0.0000,1.0000
2013-06-20,37.9800,38.3700,37.7200,38.0000,33.4754,580900,0.0000,1.0000
2013-06-19,37.9700,38.4900,37.7200,38.2800,33.7220,408100,0.0000,1.0000
2013-06-18,37.7000,38.4800,37.6400,37.9900,33.4666,115000,0.2000,1.0000
2013-06-17,38.3400,39.0580,37.4800,37.9000,33.2124,301200,0.0000,1.0000
2013-06-14,36.8500,38.0800,36.5600,37.9500,33.2562,271600,0.0000,1.0000
2013-06-13,36.4900,37.1300,35.6400,37.1300,32.5377,232300,0.0000,1.0000
2013-06-12,37.1800,37.2500,36.3900,36.6300,32.0995,206000,0.0000,1.0000
2013-06-11,37.2200,37.3150,36.7500,37.0200,32.4413,195800,0.0000,1.0000
2013-06-10,37.5300,37.8480,37.0001,37.7300,33.0634,254300,0.0000,1.0000
2013-06-07,37.4800,37.7750,37.1500,37.5600,32.9145,105900,0.0000,1.0000
2013-06-06,36.4700,37.4900,36.3500,37.4500,32.8181,253100,0.0000,1.0000
2013-06-05,36.5900,37.1500,36.3700,36.3900,31.8892,130200,0.0000,1.0000
2013-06-04,36.0100,37.2700,35.7825,36.6000,32.0732,286000,0.0000,1.0000
2013-06-03,35.0200,35.6400,34.1700,35.6400,31.2319,807900,0.0000,1.0000
2013-05-31,35.6700,36.3900,34.8400,35.3900,31.0129,454100,0.0000,1.0000
2013-05-30,36.0300,36.2300,35.3510,35.6000,31.1969,451400,0.0000,1.0000
2013-05-29,36.2600,37.1300,35.6000,36.1500,31.6789,572400,0.0000,1.0000
2013-05-28,38.7200,38.7800,37.5100,37.7100,33.0459,339700,0.0000,1.0000
2013-05-24,37.4000,38.5400,37.1760,37.9900,33.2913,155100,0.0000,1.0000
2013-05-23,37.0000,37.4900,34.6200,37.4600,32.8268,959800,0.0000,1.0000
2013-05-22,38.1100,38.6800,37.1700,37.7300,33.0634,451000,0.0000,1.0000
2013-05-21,38.7800,39.2300,37.8300,38.1100,33.3964,783200,0.0000,1.0000
2013-05-20,38.5500,39.6500,38.1800,38.8500,34.0449,452500,0.0000,1.0000
2013-05-17,37.6100,39.0300,37.4100,38.8800,34.0712,1053000,0.0000,1.0000
2013-05-16,37.4000,37.5000,37.3250,37.3500,32.7304,206500,0.0000,1.0000
2013-05-15,36.9000,37.5800,36.9000,37.3500,32.7304,506200,0.0000,1.0000
2013-05-14,36.9600,37.0620,36.3600,36.9200,32.3536,171000,0.0000,1.0000
2013-05-13,35.1900,37.0000,35.1100,36.8600,32.3011,593800,0.0000,1.0000
2013-05-10,34.4900,35.1900,34.4900,35.1600,30.8113,220900,0.0000,1.0000
2013-05-09,33.7500,34.8200,33.6000,34.3500,30.1015,296500,0.0000,1.0000
2013-05-08,33.2700,35.9400,33.2600,34.0200,29.8123,824600,0.0000,1.0000
2013-05-07,32.8900,33.8400,32.7900,33.7200,29.5494,711400,0.0000,1.0000
2013-05-06,33.0000,33.1200,32.6300,33.0000,28.9185,366700,0.0000,1.0000
2013-05-03,34.0000,34.0000,32.8500,33.1300,29.0324,212900,0.0000,1.0000
2013-05-02,33.1200,33.7800,33.1200,33.6900,29.5231,215700,0.0000,1.0000
2013-05-01,33.2000,33.5100,32.6300,33.0500,28.9623,151400,0.0000,1.0000
2013-04-30,32.9500,33.8500,32.9400,33.6000,29.4443,345300,0.0000,1.0000
2013-04-29,32.0400,33.2400,32.0400,33.1600,29.0587,368100,0.0000,1.0000
2013-04-26,32.9300,33.1900,32.0100,32.3200,28.3226,893500,0.0000,1.0000
2013-04-25,32.4800,34.1200,32.0300,33.2000,29.0937,719000,0.0000,1.0000
2013-04-24,32.6400,33.2000,31.7650,32.4700,28.4540,702900,0.0000,1.0000
2013-04-23,32.9200,33.4600,32.5500,32.8500,28.7870,821900,0.0000,1.0000
2013-04-22,33.6800,33.9300,32.7500,32.9200,28.8484,1611700,0.0000,1.0000
2013-04-19,30.5600,34.6700,30.2600,33.5200,29.3742,21676800,0.0000,1.0000
