timestamp,open,high,low,close,adjusted_close,volume,dividend_amount,split_coefficient
2018-08-06,6.9200,7.0000,6.5600,6.6800,6.6800,11149885,0.0000,1.0000
2018-08-03,6.1800,7.3100,6.1600,7.0500,7.0500,32189127,0.0000,1.0000
2018-08-02,6.0900,6.1200,5.7200,5.9900,5.9900,6887651,0.0000,1.0000
2018-08-01,5.8600,6.1300,5.8200,6.1200,6.1200,4000727,0.0000,1.0000
2018-07-31,5.7100,5.8600,5.6200,5.8400,5.8400,2894623,0.0000,1.0000
2018-07-30,5.9600,6.0900,5.6200,5.6900,5.6900,4095743,0.0000,1.0000
2018-07-27,6.4000,6.5400,5.9500,5.9700,5.9700,3070543,0.0000,1.0000
2018-07-26,6.2600,6.4600,6.2500,6.4500,6.4500,1640796,0.0000,1.0000
2018-07-25,6.1300,6.4000,6.1100,6.3100,6.3100,1993094,0.0000,1.0000
2018-07-24,6.2200,6.2901,6.0600,6.1200,6.1200,2499734,0.0000,1.0000
2018-07-23,6.2600,6.2600,6.0800,6.1900,6.1900,1680920,0.0000,1.0000
2018-07-20,6.5600,6.5800,6.2300,6.2600,6.2600,2610690,0.0000,1.0000
2018-07-19,6.6500,6.7600,6.5900,6.6100,6.6100,2129404,0.0000,1.0000
2018-07-18,6.4700,6.6200,6.4020,6.6000,6.6000,1987447,0.0000,1.0000
2018-07-17,6.2700,6.5400,6.2500,6.5100,6.5100,2175679,0.0000,1.0000
2018-07-16,6.3000,6.3512,6.2000,6.3100,6.3100,1671313,0.0000,1.0000
2018-07-13,6.2400,6.3185,6.1200,6.3100,6.3100,2373678,0.0000,1.0000
2018-07-12,6.3000,6.3900,6.1600,6.2000,6.2000,2952681,0.0000,1.0000
2018-07-11,6.7000,6.7600,6.2200,6.2300,6.2300,4834993,0.0000,1.0000
2018-07-10,6.8900,6.8900,6.6800,6.7500,6.7500,1534944,0.0000,1.0000
2018-07-09,6.9600,6.9789,6.6300,6.8700,6.8700,3317949,0.0000,1.0000
2018-07-06,6.6300,6.9900,6.6100,6.9400,6.9400,4173626,0.0000,1.0000
2018-07-05,6.5300,6.6250,6.4925,6.5900,6.5900,1784756,0.0000,1.0000
2018-07-03,6.5200,6.6300,6.4900,6.5400,6.5400,1407711,0.0000,1.0000
2018-07-02,6.4000,6.4900,6.3050,6.4900,6.4900,1968726,0.0000,1.0000
2018-06-29,6.4200,6.5200,6.3500,6.4400,6.4400,2573399,0.0000,1.0000
2018-06-28,6.3000,6.4200,6.1600,6.3900,6.3900,2284410,0.0000,1.0000
2018-06-27,6.6200,6.6300,6.2800,6.3000,6.3000,2440672,0.0000,1.0000
2018-06-26,6.4800,6.6400,6.4000,6.6000,6.6000,3522852,0.0000,1.0000
2018-06-25,6.6000,6.7300,6.3000,6.4700,6.4700,5235979,0.0000,1.0000
2018-06-22,6.7600,6.8200,6.5800,6.7700,6.7700,4129476,0.0000,1.0000
2018-06-21,6.6100,6.8300,6.4710,6.7100,6.7100,3719241,0.0000,1.0000
2018-06-20,6.2700,6.7500,6.2700,6.6400,6.6400,4817419,0.0000,1.0000
2018-06-19,6.4100,6.4285,6.0841,6.2700,6.2700,3899349,0.0000,1.0000
2018-06-18,6.1800,6.5000,6.1700,6.4900,6.4900,3210697,0.0000,1.0000
2018-06-15,6.1600,6.2700,5.9500,6.2300,6.2300,3426867,0.0000,1.0000
2018-06-14,6.4500,6.4800,6.0600,6.2200,6.2200,4090694,0.0000,1.0000
2018-06-13,6.5500,6.6600,6.2500,6.4400,6.4400,4288746,0.0000,1.0000
2018-06-12,6.3100,6.6800,6.2500,6.5700,6.5700,7043881,0.0000,1.0000
2018-06-11,5.8300,6.4500,5.8300,6.2400,6.2400,6041805,0.0000,1.0000
2018-06-08,6.0300,6.0900,5.7400,5.8400,5.8400,4803347,0.0000,1.0000
2018-06-07,5.8800,6.1650,5.8400,6.0900,6.0900,5057465,0.0000,1.0000
2018-06-06,5.7800,5.8900,5.6050,5.8800,5.8800,2876223,0.0000,1.0000
2018-06-05,5.7200,5.8800,5.7200,5.8000,5.8000,2433739,0.0000,1.0000
2018-06-04,5.6000,5.7400,5.4720,5.7000,5.7000,3004513,0.0000,1.0000
2018-06-01,5.5700,5.6300,5.4200,5.5000,5.5000,2469327,0.0000,1.0000
2018-05-31,5.6200,5.6804,5.5300,5.5400,5.5400,1679150,0.0000,1.0000
2018-05-30,5.6100,5.6300,5.4900,5.6200,5.6200,2046146,0.0000,1.0000
2018-05-29,5.5200,5.6700,5.5000,5.6000,5.6000,2312861,0.0000,1.0000
2018-05-25,5.5200,5.5900,5.4550,5.5500,5.5500,1675650,0.0000,1.0000
2018-05-24,5.4500,5.5500,5.4100,5.5400,5.5400,1580345,0.0000,1.0000
2018-05-23,5.3600,5.4950,5.3100,5.4700,5.4700,2044092,0.0000,1.0000
2018-05-22,5.4800,5.5150,5.3100,5.3500,5.3500,2380617,0.0000,1.0000
2018-05-21,5.5100,5.6000,5.4210,5.4600,5.4600,1804082,0.0000,1.0000
2018-05-18,6.0000,6.0200,5.3900,5.4200,5.4200,4985344,0.0000,1.0000
2018-05-17,5.8500,6.0199,5.7900,5.9900,5.9900,3459028,0.0000,1.0000
2018-05-16,5.7400,5.9000,5.6500,5.8600,5.8600,2079819,0.0000,1.0000
2018-05-15,5.6200,5.7800,5.5600,5.7400,5.7400,2656197,0.0000,1.0000
2018-05-14,5.7500,5.8100,5.6000,5.6500,5.6500,2657536,0.0000,1.0000
2018-05-11,5.5400,5.7600,5.4597,5.7400,5.7400,2784223,0.0000,1.0000
2018-05-10,5.7200,5.9100,5.5300,5.5600,5.5600,4621347,0.0000,1.0000
2018-05-09,5.6800,5.9200,5.6800,5.7000,5.7000,3957140,0.0000,1.0000
2018-05-08,5.4400,5.9400,5.4000,5.6800,5.6800,6973393,0.0000,1.0000
2018-05-07,5.4700,5.5200,5.2501,5.4300,5.4300,4870741,0.0000,1.0000
2018-05-04,4.9300,5.5400,4.8900,5.4500,5.4500,12720769,0.0000,1.0000
2018-05-03,4.9800,5.0700,4.8400,4.9600,4.9600,4987977,0.0000,1.0000
2018-05-02,4.9000,5.0800,4.8699,4.9700,4.9700,2497699,0.0000,1.0000
2018-05-01,5.0200,5.0700,4.8100,4.9100,4.9100,4113646,0.0000,1.0000
2018-04-30,4.9100,5.0900,4.8500,5.0600,5.0600,2674707,0.0000,1.0000
2018-04-27,4.9500,4.9800,4.8700,4.8800,4.8800,1457385,0.0000,1.0000
2018-04-26,4.8500,4.9600,4.8000,4.9400,4.9400,1674810,0.0000,1.0000
2018-04-25,4.9100,5.0400,4.8100,4.8600,4.8600,2739790,0.0000,1.0000
2018-04-24,4.8200,4.9500,4.7500,4.9300,4.9300,2625729,0.0000,1.0000
2018-04-23,5.0700,5.1000,4.7500,4.8100,4.8100,4441283,0.0000,1.0000
2018-04-20,5.1000,5.2100,5.0250,5.0700,5.0700,2730672,0.0000,1.0000
2018-04-19,5.0400,5.1500,5.0200,5.1300,5.1300,2601240,0.0000,1.0000
2018-04-18,5.0800,5.1900,4.9700,5.0600,5.0600,4547472,0.0000,1.0000
2018-04-17,5.6000,5.6174,5.0300,5.0400,5.0400,7989161,0.0000,1.0000
2018-04-16,5.3000,5.7200,5.2100,5.5800,5.5800,6619536,0.0000,1.0000
2018-04-13,5.4200,5.5000,5.2300,5.2600,5.2600,5523705,0.0000,1.0000
2018-04-12,4.8900,5.3000,4.8800,5.2200,5.2200,8268375,0.0000,1.0000
2018-04-11,4.7100,4.9400,4.7100,4.8700,4.8700,1875148,0.0000,1.0000
2018-04-10,4.7600,4.8500,4.7200,4.7600,4.7600,1971169,0.0000,1.0000
2018-04-09,4.8800,4.9100,4.6600,4.7100,4.7100,2631853,0.0000,1.0000
2018-04-06,4.8900,5.0500,4.8400,4.8800,4.8800,1829237,0.0000,1.0000
2018-04-05,4.8000,4.9400,4.7300,4.9100,4.9100,1420933,0.0000,1.0000
2018-04-04,4.4800,4.8300,4.4200,4.7800,4.7800,3320775,0.0000,1.0000
2018-04-03,4.5300,4.6600,4.4650,4.5400,4.5400,3289620,0.0000,1.0000
2018-04-02,4.7200,4.7800,4.4500,4.5300,4.5300,4035630,0.0000,1.0000
2018-03-29,4.8400,4.8900,4.6700,4.7900,4.7900,1843659,0.0000,1.0000
2018-03-28,4.9300,4.9800,4.7600,4.8400,4.8400,2442347,0.0000,1.0000
2018-03-27,4.7600,5.0900,4.7500,4.9100,4.9100,5114677,0.0000,1.0000
2018-03-26,4.6700,4.7700,4.5600,4.7300,4.7300,3615675,0.0000,1.0000
2018-03-23,4.7400,4.7800,4.5600,4.5800,4.5800,3885955,0.0000,1.0000
2018-03-22,4.8800,4.9172,4.7550,4.7800,4.7800,3191361,0.0000,1.0000
2018-03-21,4.9800,5.0600,4.8700,4.9200,4.9200,2778697,0.0000,1.0000
2018-03-20,5.3600,5.3700,4.9200,5.0000,5.0000,5033471,0.0000,1.0000
2018-03-19,5.5400,5.5500,5.3200,5.3300,5.3300,2811783,0.0000,1.0000
2018-03-16,5.6000,5.6300,5.5300,5.5400,5.5400,2189206,0.0000,1.0000
2018-03-15,5.6000,5.6900,5.5900,5.6200,5.6200,1528338,0.0000,1.0000
2018-03-14,5.6700,5.6800,5.5925,5.6100,5.6100,1148236,0.0000,1.0000
2018-03-13,5.6300,5.7200,5.6000,5.6300,5.6300,1665976,0.0000,1.0000
2018-03-12,5.5100,5.6400,5.5050,5.6300,5.6300,2443067,0.0000,1.0000
2018-03-09,5.6700,5.6800,5.4200,5.5100,5.5100,3245076,0.0000,1.0000
2018-03-08,5.8100,5.8450,5.7100,5.7400,5.7400,1314485,0.0000,1.0000
2018-03-07,5.8100,5.8800,5.6900,5.7900,5.7900,1858095,0.0000,1.0000
2018-03-06,5.7200,5.8800,5.7000,5.8300,5.8300,2386543,0.0000,1.0000
2018-03-05,5.5100,5.7500,5.4867,5.7300,5.7300,2951756,0.0000,1.0000
2018-03-02,5.3500,5.6100,5.3500,5.5600,5.5600,3000031,0.0000,1.0000
2018-03-01,5.3600,5.4800,5.3200,5.4200,5.4200,2776636,0.0000,1.0000
2018-02-28,5.4500,5.5000,5.3600,5.3800,5.3800,1780233,0.0000,1.0000
2018-02-27,5.6300,5.7100,5.3700,5.4600,5.4600,3716825,0.0000,1.0000
2018-02-26,5.6000,5.7300,5.5900,5.6500,5.6500,2018789,0.0000,1.0000
2018-02-23,5.4600,5.6000,5.4600,5.5900,5.5900,1556769,0.0000,1.0000
2018-02-22,5.5500,5.5810,5.3900,5.4600,5.4600,1977766,0.0000,1.0000
2018-02-21,5.5900,5.6500,5.5400,5.5500,5.5500,1687962,0.0000,1.0000
2018-02-20,5.4500,5.6200,5.4500,5.5700,5.5700,2769073,0.0000,1.0000
2018-02-16,5.6000,5.7190,5.4750,5.4900,5.4900,3643552,0.0000,1.0000
2018-02-15,5.7100,5.7700,5.5800,5.6200,5.6200,1876610,0.0000,1.0000
2018-02-14,5.3000,5.7700,5.2700,5.6700,5.6700,4999758,0.0000,1.0000
2018-02-13,5.2000,5.4200,5.2000,5.2900,5.2900,2410256,0.0000,1.0000
2018-02-12,5.5000,5.5000,5.2200,5.2600,5.2600,4098266,0.0000,1.0000
2018-02-09,5.6100,5.6500,5.2500,5.4600,5.4600,4253512,0.0000,1.0000
2018-02-08,5.6000,5.7300,5.5500,5.5800,5.5800,3022854,0.0000,1.0000
2018-02-07,5.6200,5.6800,5.5300,5.6100,5.6100,3602261,0.0000,1.0000
2018-02-06,5.4000,5.7000,5.4000,5.6300,5.6300,4564432,0.0000,1.0000
2018-02-05,5.5600,5.7300,5.3800,5.5200,5.5200,5358894,0.0000,1.0000
2018-02-02,5.2700,5.7500,5.1300,5.5500,5.5500,8651891,0.0000,1.0000
2018-02-01,5.4300,5.5300,5.3600,5.5000,5.5000,3623216,0.0000,1.0000
2018-01-31,5.5600,5.6300,5.3800,5.4700,5.4700,2986893,0.0000,1.0000
2018-01-30,5.2400,5.5700,5.2400,5.4700,5.4700,5355897,0.0000,1.0000
2018-01-29,5.6100,5.6500,5.2900,5.3200,5.3200,8703690,0.0000,1.0000
2018-01-26,5.9600,5.9862,5.6100,5.6500,5.6500,7870412,0.0000,1.0000
2018-01-25,6.1500,6.1500,5.9400,5.9600,5.9600,4375801,0.0000,1.0000
2018-01-24,6.0700,6.2200,5.9300,6.1000,6.1000,4441879,0.0000,1.0000
2018-01-23,5.8900,6.1700,5.8500,6.1200,6.1200,6589534,0.0000,1.0000
2018-01-22,6.2200,6.3000,6.2000,6.3000,6.3000,1902051,0.0000,1.0000
2018-01-19,6.2400,6.3300,6.2300,6.2900,6.2900,3000380,0.0000,1.0000
2018-01-18,6.2500,6.3900,6.1950,6.2700,6.2700,2618256,0.0000,1.0000
2018-01-17,6.4000,6.6050,6.2600,6.3400,6.3400,5582663,0.0000,1.0000
2018-01-16,6.2100,6.4600,6.1600,6.3600,6.3600,7055771,0.0000,1.0000
2018-01-12,6.1300,6.2700,6.0400,6.2300,6.2300,5148029,0.0000,1.0000
2018-01-11,6.0000,6.2600,5.9600,6.1500,6.1500,5255251,0.0000,1.0000
2018-01-10,6.1000,6.1300,5.9300,6.0500,6.0500,7486457,0.0000,1.0000
2018-01-09,6.2500,6.3400,6.0701,6.1700,6.1700,15730776,0.0000,1.0000
2018-01-08,6.6900,7.1800,5.0400,6.5600,6.5600,59776732,0.0000,1.0000
2018-01-05,7.6500,7.8000,7.4750,7.5200,7.5200,3715812,0.0000,1.0000
2018-01-04,7.5700,7.6350,7.4500,7.5700,7.5700,3337028,0.0000,1.0000
2018-01-03,7.5000,7.7000,7.4398,7.4900,7.4900,4969610,0.0000,1.0000
2018-01-02,7.6300,7.6493,7.3900,7.4400,7.4400,5482839,0.0000,1.0000
2017-12-29,7.7000,7.7000,7.4000,7.5700,7.5700,5252598,0.0000,1.0000
2017-12-28,7.6700,7.7500,7.6600,7.6900,7.6900,2128704,0.0000,1.0000
2017-12-27,7.8300,7.8500,7.6500,7.6700,7.6700,3766277,0.0000,1.0000
2017-12-26,7.9200,8.0000,7.8500,7.8500,7.8500,2514731,0.0000,1.0000
2017-12-22,8.2100,8.2200,7.8500,7.9500,7.9500,3367483,0.0000,1.0000
2017-12-21,8.0200,8.2650,8.0130,8.0800,8.0800,2998808,0.0000,1.0000
2017-12-20,8.0300,8.1300,7.9300,8.0400,8.0400,2464137,0.0000,1.0000
2017-12-19,8.0600,8.1250,8.0187,8.0800,8.0800,2294092,0.0000,1.0000
2017-12-18,8.0200,8.1600,8.0050,8.0600,8.0600,3612004,0.0000,1.0000
2017-12-15,7.8800,8.1300,7.8700,8.0400,8.0400,4892812,0.0000,1.0000
2017-12-14,7.9900,8.0800,7.8400,7.8400,7.8400,4356297,0.0000,1.0000
2017-12-13,8.0100,8.1800,7.9900,7.9900,7.9900,4181669,0.0000,1.0000
2017-12-12,8.1600,8.2200,8.0200,8.0300,8.0300,2362716,0.0000,1.0000
2017-12-11,8.0100,8.2250,8.0100,8.2000,8.2000,2454499,0.0000,1.0000
2017-12-08,7.9800,8.2000,7.9400,8.0200,8.0200,3175210,0.0000,1.0000
2017-12-07,7.9500,8.0800,7.9100,7.9900,7.9900,2846644,0.0000,1.0000
2017-12-06,8.0800,8.1600,7.8900,7.9200,7.9200,4015920,0.0000,1.0000
2017-12-05,8.2000,8.2950,8.0400,8.1400,8.1400,3256236,0.0000,1.0000
2017-12-04,8.5600,8.6450,8.2100,8.2300,8.2300,3683688,0.0000,1.0000
2017-12-01,8.4700,8.7100,8.4500,8.5100,8.5100,2749308,0.0000,1.0000
2017-11-30,8.6900,8.6900,8.4600,8.5400,8.5400,2328690,0.0000,1.0000
2017-11-29,8.6800,8.7200,8.4000,8.6300,8.6300,3156380,0.0000,1.0000
2017-11-28,8.6300,8.7700,8.6172,8.7200,8.7200,2496558,0.0000,1.0000
2017-11-27,8.5300,8.7400,8.3700,8.6300,8.6300,3079717,0.0000,1.0000
2017-11-24,8.6100,8.6700,8.5000,8.5800,8.5800,1440685,0.0000,1.0000
2017-11-22,8.7400,8.7800,8.5700,8.5800,8.5800,3691073,0.0000,1.0000
2017-11-21,8.4500,8.6780,8.4010,8.6100,8.6100,3137257,0.0000,1.0000
2017-11-20,8.3100,8.5000,8.3100,8.3900,8.3900,3179744,0.0000,1.0000
2017-11-17,8.3000,8.4600,8.2600,8.2900,8.2900,3012474,0.0000,1.0000
2017-11-16,8.1400,8.3300,8.1400,8.2700,8.2700,2537335,0.0000,1.0000
2017-11-15,8.0400,8.2300,7.9600,8.1600,8.1600,3323283,0.0000,1.0000
2017-11-14,8.3800,8.4700,8.1300,8.2100,8.2100,4074823,0.0000,1.0000
2017-11-13,8.5400,8.6598,8.3500,8.3800,8.3800,3653447,0.0000,1.0000
2017-11-10,8.4100,8.6500,8.3600,8.5100,8.5100,4172406,0.0000,1.0000
2017-11-09,8.7000,8.7200,8.3200,8.3500,8.3500,4668064,0.0000,1.0000
2017-11-08,8.7700,8.8300,8.6100,8.7300,8.7300,4244668,0.0000,1.0000
2017-11-07,9.0000,9.0000,8.8100,8.8500,8.8500,4102625,0.0000,1.0000
2017-11-06,9.2100,9.2200,8.7900,8.9100,8.9100,8970212,0.0000,1.0000
2017-11-03,9.4300,9.6000,9.1000,9.1300,9.1300,7997088,0.0000,1.0000
2017-11-02,9.5700,9.6400,9.0000,9.5800,9.5800,11698920,0.0000,1.0000
2017-11-01,10.4700,10.6700,10.2900,10.6700,10.6700,9700504,0.0000,1.0000
2017-10-31,10.6800,10.7000,10.2200,10.4300,10.4300,6372626,0.0000,1.0000
2017-10-30,10.0800,10.5000,10.0500,10.3400,10.3400,7304961,0.0000,1.0000
2017-10-27,10.0700,10.1000,9.7600,10.0000,10.0000,4675924,0.0000,1.0000
2017-10-26,9.6500,10.0300,9.6400,9.8600,9.8600,7457036,0.0000,1.0000
2017-10-25,9.7100,9.8600,9.4600,9.6200,9.6200,6830834,0.0000,1.0000
2017-10-24,9.4100,9.5100,9.3700,9.4000,9.4000,2790627,0.0000,1.0000
2017-10-23,9.4400,9.5400,9.3100,9.4000,9.4000,4252090,0.0000,1.0000
2017-10-20,9.3100,9.5300,9.2400,9.4800,9.4800,4450273,0.0000,1.0000
2017-10-19,9.4900,9.5400,9.1700,9.2100,9.2100,4487299,0.0000,1.0000
2017-10-18,9.6800,9.8500,9.4600,9.4700,9.4700,10126938,0.0000,1.0000
2017-10-17,9.1000,9.4000,9.0500,9.2300,9.2300,8549343,0.0000,1.0000
2017-10-16,9.5900,9.6000,9.0300,9.0800,9.0800,10704727,0.0000,1.0000
2017-10-13,9.6200,9.7400,9.5350,9.5600,9.5600,4040645,0.0000,1.0000
2017-10-12,9.5900,9.6900,9.4700,9.5800,9.5800,4238271,0.0000,1.0000
2017-10-11,9.7100,9.7900,9.4200,9.6300,9.6300,5905468,0.0000,1.0000
2017-10-10,9.8400,9.9500,9.7050,9.7500,9.7500,4429141,0.0000,1.0000
2017-10-09,9.9500,10.1750,9.7100,9.8100,9.8100,6707849,0.0000,1.0000
2017-10-06,9.7600,10.1800,9.7500,9.8800,9.8800,10384664,0.0000,1.0000
2017-10-05,10.5900,10.6390,9.6100,9.6700,9.6700,13511603,0.0000,1.0000
2017-10-04,11.0600,11.4100,10.1600,10.3900,10.3900,12555285,0.0000,1.0000
2017-10-03,11.1100,11.2350,10.9900,11.0900,11.0900,3064672,0.0000,1.0000
2017-10-02,10.8200,11.2500,10.7000,11.1200,11.1200,5185179,0.0000,1.0000
2017-09-29,11.4800,11.5700,10.9600,11.0100,11.0100,8016117,0.0000,1.0000
2017-09-28,11.7900,11.8000,11.2900,11.4800,11.4800,8134660,0.0000,1.0000
2017-09-27,11.5500,11.8900,11.2700,11.6900,11.6900,7732651,0.0000,1.0000
2017-09-26,11.2800,11.8700,11.2500,11.5100,11.5100,9039200,0.0000,1.0000
2017-09-25,10.9100,11.4000,10.8800,11.1800,11.1800,9287124,0.0000,1.0000
2017-09-22,10.9800,11.1600,10.5400,10.7500,10.7500,5603930,0.0000,1.0000
2017-09-21,10.9000,11.4700,10.8800,10.9400,10.9400,8364203,0.0000,1.0000
2017-09-20,10.9200,11.0300,10.6100,10.6600,10.6600,4202335,0.0000,1.0000
2017-09-19,11.1700,11.2700,10.8700,10.9700,10.9700,4780535,0.0000,1.0000
2017-09-18,11.6300,11.7300,11.0500,11.1200,11.1200,6437971,0.0000,1.0000
2017-09-15,11.2000,11.6900,11.0000,11.5200,11.5200,7172545,0.0000,1.0000
2017-09-14,11.3600,11.6000,11.0600,11.2300,11.2300,7962108,0.0000,1.0000
2017-09-13,10.7200,11.6100,10.6800,11.4100,11.4100,10084463,0.0000,1.0000
2017-09-12,11.0900,11.2900,10.6000,10.8900,10.8900,8559349,0.0000,1.0000
2017-09-11,10.3600,11.3700,10.3100,10.9200,10.9200,17217793,0.0000,1.0000
2017-09-08,10.1000,10.4000,9.8300,10.2600,10.2600,9655563,0.0000,1.0000
2017-09-07,10.0100,10.8900,9.8300,10.0000,10.0000,32831807,0.0000,1.0000
2017-09-06,8.9600,9.0400,8.7700,8.9000,8.9000,2883621,0.0000,1.0000
2017-09-05,8.9100,9.0500,8.7900,8.9300,8.9300,2606747,0.0000,1.0000
2017-09-01,9.1800,9.4500,8.9900,9.0000,9.0000,3390220,0.0000,1.0000
2017-08-31,9.1100,9.2200,9.1000,9.2100,9.2100,1968887,0.0000,1.0000
2017-08-30,9.1500,9.1900,9.0500,9.1100,9.1100,1716980,0.0000,1.0000
2017-08-29,9.1200,9.2400,9.0600,9.1500,9.1500,1753902,0.0000,1.0000
2017-08-28,9.1300,9.2900,8.9000,9.2600,9.2600,2471048,0.0000,1.0000
2017-08-25,9.4300,9.4400,9.1300,9.1300,9.1300,3102979,0.0000,1.0000
2017-08-24,9.2500,9.3100,9.0600,9.1300,9.1300,2001993,0.0000,1.0000
2017-08-23,8.9900,9.2800,8.9100,9.2100,9.2100,2642343,0.0000,1.0000
2017-08-22,8.8000,9.1000,8.6700,9.0600,9.0600,4052116,0.0000,1.0000
2017-08-21,9.0300,9.1200,8.7100,8.7600,8.7600,3786523,0.0000,1.0000
2017-08-18,9.3400,9.3600,9.0300,9.0500,9.0500,4398963,0.0000,1.0000
2017-08-17,9.4300,9.6100,9.3000,9.3200,9.3200,3145757,0.0000,1.0000
2017-08-16,9.9000,9.9300,9.2900,9.4100,9.4100,6268833,0.0000,1.0000
2017-08-15,10.0200,10.4800,9.8790,9.8800,9.8800,7031661,0.0000,1.0000
2017-08-14,9.9000,9.9500,9.5800,9.7400,9.7400,3925488,0.0000,1.0000
2017-08-11,9.7900,9.9800,9.6100,9.8800,9.8800,4592811,0.0000,1.0000
2017-08-10,10.1700,10.4200,9.7500,9.7800,9.7800,5070707,0.0000,1.0000
2017-08-09,10.3500,10.4000,9.9510,10.1600,10.1600,6149664,0.0000,1.0000
2017-08-08,10.1100,10.8500,10.0900,10.5200,10.5200,9429736,0.0000,1.0000
2017-08-07,9.8000,10.3650,9.5100,10.1600,10.1600,13177479,0.0000,1.0000
2017-08-04,9.5400,10.3800,9.3100,9.8500,9.8500,28773541,0.0000,1.0000
2017-08-03,8.0500,8.3800,8.0500,8.2600,8.2600,6293753,0.0000,1.0000
2017-08-02,8.0600,8.1600,7.9800,8.0300,8.0300,1591471,0.0000,1.0000
2017-08-01,8.3000,8.3300,7.9600,8.0800,8.0800,3277326,0.0000,1.0000
2017-07-31,8.3100,8.3900,8.1300,8.2400,8.2400,2217472,0.0000,1.0000
2017-07-28,8.0100,8.1300,7.9600,8.1000,8.1000,1684379,0.0000,1.0000
2017-07-27,8.2100,8.2300,7.9200,8.0600,8.0600,1775657,0.0000,1.0000
2017-07-26,8.1000,8.2600,8.0590,8.1800,8.1800,1667121,0.0000,1.0000
2017-07-25,8.0200,8.1900,7.9600,8.0900,8.0900,2416259,0.0000,1.0000
2017-07-24,7.9600,8.0500,7.8800,8.0300,8.0300,1873786,0.0000,1.0000
2017-07-21,8.0400,8.0700,7.9100,7.9600,7.9600,1778315,0.0000,1.0000
2017-07-20,8.0200,8.2800,8.0050,8.0100,8.0100,2081366,0.0000,1.0000
2017-07-19,7.9500,8.0950,7.9460,8.0700,8.0700,1742100,0.0000,1.0000
2017-07-18,8.0800,8.1100,7.9200,7.9900,7.9900,2036580,0.0000,1.0000
2017-07-17,8.1800,8.2700,8.0750,8.1100,8.1100,1658142,0.0000,1.0000
2017-07-14,8.4000,8.4400,8.0600,8.1800,8.1800,2878744,0.0000,1.0000
2017-07-13,8.0500,8.4900,8.0500,8.4400,8.4400,2722348,0.0000,1.0000
2017-07-12,8.0000,8.1200,7.9900,8.1200,8.1200,1333725,0.0000,1.0000
2017-07-11,7.9700,8.0600,7.8900,7.9500,7.9500,1284566,0.0000,1.0000
2017-07-10,7.9800,8.0800,7.9250,7.9600,7.9600,1126753,0.0000,1.0000
2017-07-07,8.0000,8.1100,7.9000,7.9800,7.9800,1706326,0.0000,1.0000
2017-07-06,7.9800,8.2600,7.9500,8.0000,8.0000,1925567,0.0000,1.0000
2017-07-05,8.0400,8.1200,7.9100,8.0500,8.0500,1623800,0.0000,1.0000
2017-07-03,8.1500,8.2000,7.9990,8.1900,8.1900,688266,0.0000,1.0000
2017-06-30,8.2600,8.3100,8.0900,8.1300,8.1300,1789648,0.0000,1.0000
2017-06-29,8.2300,8.3300,8.1500,8.2800,8.2800,1317709,0.0000,1.0000
2017-06-28,8.1500,8.3700,8.1200,8.2500,8.2500,1494710,0.0000,1.0000
2017-06-27,8.1500,8.4600,8.1200,8.1400,8.1400,2619021,0.0000,1.0000
2017-06-26,7.7600,8.3500,7.7500,8.1900,8.1900,3515137,0.0000,1.0000
2017-06-23,7.7300,7.8600,7.6800,7.8200,7.8200,4992853,0.0000,1.0000
2017-06-22,7.6300,7.8300,7.6200,7.7400,7.7400,1518170,0.0000,1.0000
2017-06-21,7.8800,7.8800,7.6000,7.7000,7.7000,1937700,0.0000,1.0000
2017-06-20,7.8600,7.9900,7.7100,7.8000,7.8000,3051015,0.0000,1.0000
2017-06-19,7.7700,7.8910,7.6200,7.8400,7.8400,2711160,0.0000,1.0000
2017-06-16,8.0400,8.0600,7.5700,7.7700,7.7700,4628504,0.0000,1.0000
2017-06-15,8.2200,8.3050,8.0700,8.0700,8.0700,1549497,0.0000,1.0000
2017-06-14,8.4600,8.4700,8.3000,8.3400,8.3400,1509402,0.0000,1.0000
2017-06-13,8.5300,8.5700,8.4300,8.4300,8.4300,1181428,0.0000,1.0000
2017-06-12,8.3100,8.5500,8.3000,8.5300,8.5300,1504979,0.0000,1.0000
2017-06-09,8.5200,8.6600,8.3300,8.3700,8.3700,1785354,0.0000,1.0000
2017-06-08,8.4400,8.5900,8.4000,8.5300,8.5300,976368,0.0000,1.0000
2017-06-07,8.5100,8.6400,8.4300,8.4400,8.4400,1364239,0.0000,1.0000
2017-06-06,8.5000,8.6200,8.3750,8.4900,8.4900,1547551,0.0000,1.0000
2017-06-05,8.4000,8.5900,8.2800,8.5700,8.5700,1390469,0.0000,1.0000
2017-06-02,8.3500,8.4800,8.3200,8.4100,8.4100,973626,0.0000,1.0000
2017-06-01,8.2200,8.5500,8.2010,8.4200,8.4200,1921281,0.0000,1.0000
2017-05-31,8.2900,8.3200,8.0200,8.2200,8.2200,2563280,0.0000,1.0000
2017-05-30,8.3500,8.3800,8.2300,8.3000,8.3000,1703397,0.0000,1.0000
2017-05-26,8.4700,8.4830,8.3200,8.4000,8.4000,1161830,0.0000,1.0000
2017-05-25,8.5500,8.6200,8.4100,8.4700,8.4700,1650807,0.0000,1.0000
2017-05-24,8.6200,8.6500,8.5000,8.5400,8.5400,1907832,0.0000,1.0000
2017-05-23,8.8400,8.8700,8.5200,8.6300,8.6300,3508350,0.0000,1.0000
2017-05-22,8.5300,9.1800,8.4900,8.8600,8.8600,5430922,0.0000,1.0000
2017-05-19,8.2600,8.5750,8.2600,8.5200,8.5200,2297260,0.0000,1.0000
2017-05-18,8.3000,8.3600,8.2100,8.2500,8.2500,1932336,0.0000,1.0000
2017-05-17,8.6000,8.6000,8.3700,8.3900,8.3900,2314109,0.0000,1.0000
2017-05-16,8.6400,8.7300,8.5900,8.6800,8.6800,1580094,0.0000,1.0000
2017-05-15,8.5700,8.8000,8.5470,8.6400,8.6400,2042015,0.0000,1.0000
2017-05-12,8.6200,8.6900,8.5300,8.5400,8.5400,1812037,0.0000,1.0000
2017-05-11,8.5400,8.6400,8.3700,8.6200,8.6200,2364018,0.0000,1.0000
2017-05-10,8.3100,8.6400,8.3100,8.5300,8.5300,2526952,0.0000,1.0000
2017-05-09,8.4100,8.4500,8.2800,8.3100,8.3100,1825008,0.0000,1.0000
2017-05-08,8.5700,8.5700,8.3100,8.4100,8.4100,1797316,0.0000,1.0000
2017-05-05,8.2500,8.5190,8.2100,8.4200,8.4200,2669083,0.0000,1.0000
2017-05-04,8.4200,8.4380,8.1200,8.2600,8.2600,4312125,0.0000,1.0000
2017-05-03,8.6100,8.6700,8.3900,8.4000,8.4000,2558773,0.0000,1.0000
2017-05-02,8.5200,8.7900,8.4600,8.6800,8.6800,3797423,0.0000,1.0000
2017-05-01,8.2400,8.6300,8.2300,8.5200,8.5200,5031648,0.0000,1.0000
2017-04-28,8.9900,9.0000,8.2000,8.2500,8.2500,10542921,0.0000,1.0000
2017-04-27,9.3300,9.3600,8.9100,8.9400,8.9400,7894565,0.0000,1.0000
2017-04-26,9.2100,9.4000,9.1000,9.1400,9.1400,3376345,0.0000,1.0000
2017-04-25,9.0200,9.2150,9.0200,9.1800,9.1800,2488516,0.0000,1.0000
2017-04-24,8.9300,9.0850,8.7100,9.0100,9.0100,2719745,0.0000,1.0000
2017-04-21,8.9900,9.0100,8.8300,8.8700,8.8700,1943751,0.0000,1.0000
2017-04-20,8.9300,9.0800,8.9200,8.9700,8.9700,2371465,0.0000,1.0000
2017-04-19,8.7400,8.9800,8.7200,8.8800,8.8800,2078623,0.0000,1.0000
2017-04-18,8.6600,8.7800,8.6100,8.7500,8.7500,1384784,0.0000,1.0000
2017-04-17,8.6300,8.7500,8.5600,8.7500,8.7500,1215660,0.0000,1.0000
2017-04-13,8.6000,8.8000,8.5700,8.6300,8.6300,1284464,0.0000,1.0000
2017-04-12,9.0100,9.0700,8.6500,8.6900,8.6900,2581457,0.0000,1.0000
2017-04-11,8.7500,9.3100,8.7300,8.9500,8.9500,6494826,0.0000,1.0000
2017-04-10,8.5500,8.7400,8.5200,8.6900,8.6900,1583704,0.0000,1.0000
2017-04-07,8.4600,8.7500,8.4600,8.5500,8.5500,1867657,0.0000,1.0000
2017-04-06,8.3800,8.6600,8.3400,8.5100,8.5100,2841702,0.0000,1.0000
2017-04-05,8.4500,8.6400,8.3800,8.4300,8.4300,1984048,0.0000,1.0000
2017-04-04,8.5400,8.6200,8.3800,8.4300,8.4300,1880117,0.0000,1.0000
2017-04-03,8.6800,8.7500,8.5700,8.6100,8.6100,1923186,0.0000,1.0000
2017-03-31,8.6000,8.7600,8.5800,8.7000,8.7000,1975879,0.0000,1.0000
2017-03-30,8.7600,8.8000,8.5200,8.6600,8.6600,1968605,0.0000,1.0000
2017-03-29,8.5700,8.8500,8.5700,8.7300,8.7300,2997432,0.0000,1.0000
2017-03-28,8.4400,8.5800,8.3400,8.5700,8.5700,2087244,0.0000,1.0000
2017-03-27,8.3000,8.6300,8.2200,8.4300,8.4300,2915407,0.0000,1.0000
2017-03-24,8.4300,8.4300,8.2600,8.3000,8.3000,1620213,0.0000,1.0000
2017-03-23,8.3000,8.4710,8.3000,8.3600,8.3600,1610185,0.0000,1.0000
2017-03-22,8.3400,8.3800,8.1600,8.3300,8.3300,2059255,0.0000,1.0000
2017-03-21,8.6600,8.7000,8.2700,8.4000,8.4000,3521130,0.0000,1.0000
2017-03-20,8.5300,8.7300,8.4000,8.6600,8.6600,3893582,0.0000,1.0000
2017-03-17,8.5100,8.5800,8.2600,8.5700,8.5700,6284038,0.0000,1.0000
2017-03-16,8.2200,8.6400,8.0500,8.5100,8.5100,20003677,0.0000,1.0000
2017-03-15,7.2400,7.3700,7.1450,7.3500,7.3500,3886715,0.0000,1.0000
2017-03-14,7.5400,7.5700,7.1600,7.2400,7.2400,5482225,0.0000,1.0000
2017-03-13,7.9700,7.9800,7.5250,7.5700,7.5700,5352464,0.0000,1.0000
2017-03-10,8.0000,8.1150,7.9600,7.9700,7.9700,2464886,0.0000,1.0000
2017-03-09,7.9400,8.0650,7.9400,7.9600,7.9600,2551458,0.0000,1.0000
2017-03-08,7.9500,8.1200,7.9500,7.9800,7.9800,2681964,0.0000,1.0000
2017-03-07,8.1600,8.3400,7.9100,7.9300,7.9300,3697775,0.0000,1.0000
2017-03-06,8.5600,8.7250,7.9500,8.1400,8.1400,9923482,0.0000,1.0000
2017-03-03,9.1500,9.2300,8.7700,8.8400,8.8400,3859453,0.0000,1.0000
2017-03-02,9.3200,9.5600,9.2600,9.2700,9.2700,1830548,0.0000,1.0000
2017-03-01,9.3600,9.4650,9.2900,9.4200,9.4200,2592734,0.0000,1.0000
2017-02-28,9.5500,9.6000,9.3800,9.4000,9.4000,1910049,0.0000,1.0000
2017-02-27,9.3200,9.7400,9.3200,9.6600,9.6600,2900168,0.0000,1.0000
2017-02-24,9.5100,9.5700,9.3200,9.4300,9.4300,2983547,0.0000,1.0000
2017-02-23,9.6000,9.7500,9.5100,9.5700,9.5700,2117314,0.0000,1.0000
2017-02-22,9.4000,9.6000,9.3500,9.5100,9.5100,1749112,0.0000,1.0000
2017-02-21,9.3100,9.5900,9.2700,9.4600,9.4600,2931317,0.0000,1.0000
2017-02-17,9.3300,9.3300,9.1200,9.2500,9.2500,1877478,0.0000,1.0000
2017-02-16,9.4000,9.4400,9.2100,9.3300,9.3300,2620935,0.0000,1.0000
2017-02-15,9.4900,9.4900,9.2000,9.4400,9.4400,3146544,0.0000,1.0000
2017-02-14,9.0800,9.2600,9.0300,9.1700,9.1700,3223333,0.0000,1.0000
2017-02-13,8.9800,9.0900,8.9300,9.0500,9.0500,3054757,0.0000,1.0000
2017-02-10,8.8300,8.9000,8.6200,8.9000,8.9000,3300076,0.0000,1.0000
2017-02-09,8.9600,8.9800,8.7200,8.7400,8.7400,3661364,0.0000,1.0000
2017-02-08,9.3200,9.3900,8.8000,8.8400,8.8400,7532514,0.0000,1.0000
2017-02-07,9.5100,9.6500,9.3300,9.3400,9.3400,4701490,0.0000,1.0000
2017-02-06,9.5500,9.8000,9.5000,9.5100,9.5100,4912899,0.0000,1.0000
2017-02-03,9.6800,9.8500,9.4000,9.5800,9.5800,15208856,0.0000,1.0000
2017-02-02,10.7500,11.1000,10.5900,10.9700,10.9700,8426908,0.0000,1.0000
2017-02-01,10.7700,10.9500,10.5000,10.5700,10.5700,4350918,0.0000,1.0000
2017-01-31,10.7000,10.7500,10.3700,10.7500,10.7500,5417740,0.0000,1.0000
2017-01-30,9.9800,10.8800,9.8500,10.8000,10.8000,6650444,0.0000,1.0000
2017-01-27,10.0200,10.1500,9.9500,10.0700,10.0700,1759226,0.0000,1.0000
2017-01-26,10.0300,10.2000,9.9600,10.0300,10.0300,2615573,0.0000,1.0000
2017-01-25,10.1600,10.2600,9.8300,10.0000,10.0000,3797735,0.0000,1.0000
2017-01-24,9.8700,10.4400,9.8100,10.1300,10.1300,10523472,0.0000,1.0000
2017-01-23,9.4200,9.4700,9.2000,9.4000,9.4000,3264685,0.0000,1.0000
2017-01-20,9.2000,9.5500,9.1900,9.5100,9.5100,4287323,0.0000,1.0000
2017-01-19,9.1700,9.3400,9.1200,9.1700,9.1700,2149680,0.0000,1.0000
2017-01-18,9.4100,9.4700,9.1200,9.2200,9.2200,2319815,0.0000,1.0000
2017-01-17,9.2900,9.5400,9.2000,9.4200,9.4200,2982307,0.0000,1.0000
2017-01-13,9.2000,9.4200,9.1700,9.2700,9.2700,2838883,0.0000,1.0000
2017-01-12,9.1000,9.2500,9.0400,9.1500,9.1500,1959491,0.0000,1.0000
2017-01-11,9.0500,9.2100,9.0203,9.1200,9.1200,2496858,0.0000,1.0000
2017-01-10,9.0500,9.1500,8.9800,9.0200,9.0200,3039515,0.0000,1.0000
2017-01-09,9.1000,9.2500,9.0000,9.0600,9.0600,2625686,0.0000,1.0000
2017-01-06,9.1400,9.2500,8.9950,9.0700,9.0700,4864609,0.0000,1.0000
2017-01-05,9.1200,9.5500,9.0600,9.3500,9.3500,5786074,0.0000,1.0000
2017-01-04,8.8100,9.1200,8.7800,9.0200,9.0200,3644581,0.0000,1.0000
2017-01-03,8.8200,8.9700,8.6700,8.7700,8.7700,3289042,0.0000,1.0000
2016-12-30,8.8000,8.8500,8.6500,8.7100,8.7100,4272509,0.0000,1.0000
2016-12-29,8.9000,8.9700,8.7100,8.8400,8.8400,3442152,0.0000,1.0000
2016-12-28,9.0200,9.1900,8.8500,8.9500,8.9500,3243468,0.0000,1.0000
2016-12-27,9.1200,9.2800,9.0200,9.0900,9.0900,3009431,0.0000,1.0000
2016-12-23,9.0400,9.1900,8.8100,9.1900,9.1900,3544954,0.0000,1.0000
2016-12-22,8.8100,9.6000,8.7500,9.0100,9.0100,7663238,0.0000,1.0000
2016-12-21,8.8400,8.9499,8.8000,8.9000,8.9000,1694644,0.0000,1.0000
2016-12-20,8.9200,9.1200,8.8700,8.9000,8.9000,2451908,0.0000,1.0000
2016-12-19,9.0500,9.1799,8.8000,8.9200,8.9200,3342346,0.0000,1.0000
2016-12-16,8.7500,9.6000,8.6898,9.0100,9.0100,6698766,0.0000,1.0000
2016-12-15,8.7100,8.7500,8.5400,8.6900,8.6900,3554560,0.0000,1.0000
2016-12-14,8.8500,8.9600,8.7500,8.7800,8.7800,2406685,0.0000,1.0000
2016-12-13,9.0200,9.0200,8.8000,8.8200,8.8200,3499262,0.0000,1.0000
2016-12-12,9.3500,9.3500,8.7500,8.8100,8.8100,4895798,0.0000,1.0000
2016-12-09,9.1700,9.4200,9.1500,9.2300,9.2300,3808094,0.0000,1.0000
2016-12-08,9.3400,9.3900,9.0100,9.2000,9.2000,4799339,0.0000,1.0000
2016-12-07,9.7500,9.7900,9.3300,9.3700,9.3700,5008517,0.0000,1.0000
2016-12-06,9.6400,9.7900,9.6100,9.7500,9.7500,2334370,0.0000,1.0000
2016-12-05,9.7200,9.8811,9.6500,9.6600,9.6600,4108580,0.0000,1.0000
2016-12-02,10.0200,10.0200,9.5900,9.7000,9.7000,3398923,0.0000,1.0000
2016-12-01,10.0800,10.2400,9.7000,9.8200,9.8200,4786484,0.0000,1.0000
2016-11-30,10.0800,10.4000,9.9800,9.9800,9.9800,6192217,0.0000,1.0000
2016-11-29,9.8000,10.0700,9.7300,9.8300,9.8300,2961143,0.0000,1.0000
2016-11-28,9.7500,9.9200,9.7200,9.8100,9.8100,2597929,0.0000,1.0000
2016-11-25,9.9000,10.0800,9.8400,9.8900,9.8900,1793302,0.0000,1.0000
2016-11-23,9.7400,9.9400,9.6100,9.8800,9.8800,2293932,0.0000,1.0000
2016-11-22,9.9300,10.0000,9.5500,9.7900,9.7900,5536950,0.0000,1.0000
2016-11-21,9.9500,10.2300,9.8500,9.9100,9.9100,4822883,0.0000,1.0000
2016-11-18,10.0100,10.0700,9.8698,10.0200,10.0200,3437002,0.0000,1.0000
2016-11-17,9.8900,10.0900,9.7700,9.9800,9.9800,4195287,0.0000,1.0000
2016-11-16,10.0800,10.1400,9.8600,9.9000,9.9000,4744180,0.0000,1.0000
2016-11-15,10.3500,10.4000,10.0100,10.1400,10.1400,4568455,0.0000,1.0000
2016-11-14,10.2500,10.5000,10.2000,10.3500,10.3500,3181171,0.0000,1.0000
2016-11-11,10.1700,10.3600,9.9500,10.2800,10.2800,3710371,0.0000,1.0000
2016-11-10,10.3700,10.6700,10.0700,10.2100,10.2100,3592830,0.0000,1.0000
2016-11-09,9.8200,10.4200,9.7500,10.4100,10.4100,7585388,0.0000,1.0000
2016-11-08,10.6400,11.1600,10.4400,10.8600,10.8600,5786068,0.0000,1.0000
2016-11-07,11.3000,11.3499,10.2900,10.6400,10.6400,10583756,0.0000,1.0000
2016-11-04,10.0000,12.4700,9.9000,11.1600,11.1600,29462187,0.0000,1.0000
2016-11-03,12.5500,12.6000,11.8200,11.9400,11.9400,9147319,0.0000,1.0000
2016-11-02,12.3200,13.0900,12.3200,12.8400,12.8400,5882591,0.0000,1.0000
2016-11-01,12.7200,13.0000,12.2500,12.4800,12.4800,5520679,0.0000,1.0000
2016-10-31,13.5400,13.6000,12.7200,12.7800,12.7800,7439877,0.0000,1.0000
2016-10-28,13.7500,14.0400,13.5600,13.6000,13.6000,2929183,0.0000,1.0000
2016-10-27,14.2000,14.3400,13.7000,13.7300,13.7300,3747896,0.0000,1.0000
2016-10-26,13.8400,14.3000,13.8000,14.1300,14.1300,3632690,0.0000,1.0000
2016-10-25,13.9100,14.1090,13.6646,13.8800,13.8800,3964114,0.0000,1.0000
2016-10-24,14.6500,14.7500,13.8000,13.8800,13.8800,9195445,0.0000,1.0000
2016-10-21,14.5900,15.1200,14.5000,14.9300,14.9300,4051459,0.0000,1.0000
2016-10-20,14.6600,15.0300,14.5500,14.7500,14.7500,4946281,0.0000,1.0000
2016-10-19,14.7500,14.8700,14.5500,14.7000,14.7000,5016292,0.0000,1.0000
2016-10-18,14.2500,14.5800,14.1100,14.4100,14.4100,6694333,0.0000,1.0000
2016-10-17,14.0500,14.2900,13.5900,14.0700,14.0700,7759884,0.0000,1.0000
2016-10-14,14.2000,14.2000,13.5000,13.6000,13.6000,6852149,0.0000,1.0000
2016-10-13,13.7600,14.3900,13.5900,13.8400,13.8400,10582570,0.0000,1.0000
2016-10-12,14.9500,14.9500,14.1800,14.3000,14.3000,7241610,0.0000,1.0000
2016-10-11,15.5500,15.6800,14.8500,15.0200,15.0200,7883744,0.0000,1.0000
2016-10-10,16.4300,16.5000,15.6500,15.6600,15.6600,7150599,0.0000,1.0000
2016-10-07,16.6600,16.7690,16.0600,16.3400,16.3400,5574972,0.0000,1.0000
2016-10-06,17.0600,17.1300,16.6100,16.7900,16.7900,5927257,0.0000,1.0000
2016-10-05,16.9000,17.6800,16.9000,17.1300,17.1300,9229091,0.0000,1.0000
2016-10-04,16.8300,17.6200,16.6000,16.8900,16.8900,11129773,0.0000,1.0000
2016-10-03,16.8700,16.9800,16.3450,16.7400,16.7400,7279344,0.0000,1.0000
2016-09-30,16.8000,17.0000,16.6000,16.6800,16.6800,5501695,0.0000,1.0000
2016-09-29,16.8600,16.9100,16.4000,16.6000,16.6000,6570057,0.0000,1.0000
2016-09-28,16.5700,17.2000,16.4700,16.9900,16.9900,7946133,0.0000,1.0000
2016-09-27,16.7200,17.3500,15.8450,16.7900,16.7900,14304848,0.0000,1.0000
2016-09-26,16.8200,17.1800,16.5100,16.9200,16.9200,8883319,0.0000,1.0000
2016-09-23,16.1200,17.4068,16.1000,17.1500,17.1500,20180989,0.0000,1.0000
2016-09-22,15.3000,16.4200,15.1300,16.0500,16.0500,18576538,0.0000,1.0000
2016-09-21,14.6200,15.0500,14.2600,14.9700,14.9700,10497589,0.0000,1.0000
2016-09-20,15.6900,15.7000,13.8910,14.2600,14.2600,22467789,0.0000,1.0000
2016-09-19,15.6000,16.4400,15.0000,15.3100,15.3100,35136412,0.0000,1.0000
2016-09-16,14.6600,15.0700,14.5100,14.9600,14.9600,17463525,0.0000,1.0000
2016-09-15,13.2100,14.2300,13.1300,14.1600,14.1600,8134941,0.0000,1.0000
2016-09-14,12.8100,13.2500,12.8100,13.0700,13.0700,5120418,0.0000,1.0000
2016-09-13,13.1300,13.1699,12.6200,12.8000,12.8000,5320396,0.0000,1.0000
2016-09-12,12.6100,13.5300,12.5800,13.2000,13.2000,6565725,0.0000,1.0000
2016-09-09,13.4800,13.5500,12.8300,12.8500,12.8500,7071689,0.0000,1.0000
2016-09-08,14.1200,14.1200,13.3800,13.5800,13.5800,6152744,0.0000,1.0000
2016-09-07,14.4400,14.6600,13.6600,13.8800,13.8800,7384010,0.0000,1.0000
2016-09-06,14.2200,14.6600,14.1000,14.5700,14.5700,4836110,0.0000,1.0000
2016-09-02,14.5700,14.7000,14.0400,14.1300,14.1300,5783303,0.0000,1.0000
2016-09-01,14.9400,14.9500,14.1400,14.5300,14.5300,5564388,0.0000,1.0000
2016-08-31,14.9400,15.0500,14.5600,14.6500,14.6500,3844610,0.0000,1.0000
2016-08-30,15.0000,15.3200,14.7500,14.8600,14.8600,4731199,0.0000,1.0000
2016-08-29,14.7500,15.2000,14.6600,14.8700,14.8700,3643380,0.0000,1.0000
2016-08-26,14.9000,15.1800,14.5100,14.7200,14.7200,4452581,0.0000,1.0000
2016-08-25,14.9600,15.1100,14.6500,14.8900,14.8900,4047770,0.0000,1.0000
2016-08-24,15.7900,15.8000,14.9100,15.0000,15.0000,6494400,0.0000,1.0000
2016-08-23,15.6100,15.9900,15.4700,15.5100,15.5100,8029373,0.0000,1.0000
2016-08-22,14.9800,15.9000,14.9000,15.2000,15.2000,6708201,0.0000,1.0000
2016-08-19,15.0100,15.2100,14.6000,15.1200,15.1200,6261020,0.0000,1.0000
2016-08-18,15.4300,15.4900,14.9000,15.1200,15.1200,5692153,0.0000,1.0000
2016-08-17,15.5100,15.6200,15.1900,15.4100,15.4100,5290478,0.0000,1.0000
2016-08-16,15.7000,16.0000,15.2500,15.3900,15.3900,8865678,0.0000,1.0000
2016-08-15,14.3000,16.2500,14.3000,15.6100,15.6100,17270620,0.0000,1.0000
2016-08-12,14.0300,14.3300,13.8280,14.3000,14.3000,4978086,0.0000,1.0000
2016-08-11,14.3500,14.3600,13.9600,13.9700,13.9700,5203683,0.0000,1.0000
2016-08-10,14.6700,14.6800,13.9300,14.1400,14.1400,6787920,0.0000,1.0000
2016-08-09,14.6800,14.8700,14.3900,14.5400,14.5400,7261541,0.0000,1.0000
2016-08-08,14.0000,14.8000,13.9611,14.2900,14.2900,10105641,0.0000,1.0000
2016-08-05,13.5900,14.1400,13.5900,13.7700,13.7700,7028163,0.0000,1.0000
2016-08-04,13.5000,13.8275,13.1910,13.5300,13.5300,7028942,0.0000,1.0000
2016-08-03,12.7300,13.5000,12.6100,13.3000,13.3000,7598110,0.0000,1.0000
2016-08-02,12.9000,13.3200,12.5300,12.5500,12.5500,6741919,0.0000,1.0000
2016-08-01,12.5800,13.3000,12.4700,12.9400,12.9400,7627229,0.0000,1.0000
2016-07-29,12.8800,12.8900,12.2300,12.6400,12.6400,11416580,0.0000,1.0000
2016-07-28,12.1500,13.2800,11.7535,13.0200,13.0200,24144992,0.0000,1.0000
2016-07-27,11.4700,11.8300,11.4200,11.5700,11.5700,10651708,0.0000,1.0000
2016-07-26,11.4100,11.5400,11.2500,11.3200,11.3200,4094044,0.0000,1.0000
2016-07-25,11.1100,11.5000,11.0567,11.4100,11.4100,4933164,0.0000,1.0000
2016-07-22,11.3200,11.5200,11.0600,11.0800,11.0800,4989930,0.0000,1.0000
2016-07-21,11.0900,11.4900,11.0300,11.2300,11.2300,7211503,0.0000,1.0000
2016-07-20,11.0900,11.1300,10.8800,10.9000,10.9000,6044671,0.0000,1.0000
2016-07-19,11.9800,11.9800,10.9850,11.0100,11.0100,9468669,0.0000,1.0000
2016-07-18,11.9500,12.0000,11.6500,11.8500,11.8500,4384456,0.0000,1.0000
2016-07-15,12.3100,12.4700,11.8500,11.9000,11.9000,5174826,0.0000,1.0000
2016-07-14,12.6000,12.7200,12.2400,12.2800,12.2800,5361381,0.0000,1.0000
2016-07-13,12.8000,13.4000,12.1400,12.4300,12.4300,9434929,0.0000,1.0000
2016-07-12,12.5300,12.6500,12.1900,12.4600,12.4600,7082649,0.0000,1.0000
2016-07-11,11.1100,12.4900,11.1000,12.4300,12.4300,13488023,0.0000,1.0000
2016-07-08,10.9600,11.2200,10.8500,10.9700,10.9700,4454255,0.0000,1.0000
2016-07-07,10.5500,11.1300,10.5200,10.7700,10.7700,5766144,0.0000,1.0000
2016-07-06,10.3800,10.6599,10.2500,10.5900,10.5900,2966497,0.0000,1.0000
2016-07-05,10.9200,10.9600,10.6000,10.6500,10.6500,3083706,0.0000,1.0000
2016-07-01,10.8600,11.1400,10.7700,11.0500,11.0500,4190812,0.0000,1.0000
2016-06-30,10.7000,10.8800,10.3200,10.8100,10.8100,5661176,0.0000,1.0000
2016-06-29,10.6000,10.9000,10.4310,10.8100,10.8100,5284213,0.0000,1.0000
2016-06-28,10.5200,10.8993,10.3000,10.4800,10.4800,5261725,0.0000,1.0000
2016-06-27,10.6100,10.8700,10.0100,10.2100,10.2100,6846518,0.0000,1.0000
2016-06-24,10.5200,11.0650,10.5000,10.7800,10.7800,15050669,0.0000,1.0000
2016-06-23,11.2600,11.4000,11.1500,11.3200,11.3200,4479373,0.0000,1.0000
2016-06-22,11.2000,11.4600,11.0300,11.1000,11.1000,4121755,0.0000,1.0000
2016-06-21,11.0100,11.2600,10.9500,11.2000,11.2000,5898447,0.0000,1.0000
2016-06-20,10.8900,11.4700,10.8000,10.8500,10.8500,8240289,0.0000,1.0000
2016-06-17,9.8800,10.8300,9.8700,10.6500,10.6500,8843150,0.0000,1.0000
2016-06-16,9.6600,9.8950,9.5100,9.8400,9.8400,4415260,0.0000,1.0000
2016-06-15,9.8000,10.2301,9.6400,9.8200,9.8200,4891929,0.0000,1.0000
2016-06-14,9.8400,10.0700,9.5300,9.7100,9.7100,4451815,0.0000,1.0000
2016-06-13,9.9100,10.3000,9.8500,9.9700,9.9700,4395228,0.0000,1.0000
2016-06-10,10.7900,10.7900,10.2400,10.2600,10.2600,3959470,0.0000,1.0000
2016-06-09,10.8900,10.9600,10.7700,10.9000,10.9000,3198750,0.0000,1.0000
2016-06-08,11.1500,11.2900,10.9100,11.0600,11.0600,3941359,0.0000,1.0000
2016-06-07,10.9400,11.1000,10.7500,11.0700,11.0700,3850203,0.0000,1.0000
2016-06-06,10.7000,11.0000,10.3900,10.9200,10.9200,4564156,0.0000,1.0000
2016-06-03,11.0000,11.0000,10.6600,10.7200,10.7200,5973095,0.0000,1.0000
2016-06-02,10.2800,10.7500,10.2300,10.7200,10.7200,5079770,0.0000,1.0000
2016-06-01,10.1600,10.3200,9.9200,10.3200,10.3200,4875741,0.0000,1.0000
2016-05-31,10.2700,10.5100,10.1000,10.2700,10.2700,5931026,0.0000,1.0000
2016-05-27,9.9900,10.2200,9.7200,10.2000,10.2000,5138328,0.0000,1.0000
2016-05-26,10.2000,10.2400,9.7700,9.9800,9.9800,6191566,0.0000,1.0000
2016-05-25,9.8200,10.1800,9.7100,10.0800,10.0800,6079826,0.0000,1.0000
2016-05-24,9.9100,10.0800,9.6300,9.7100,9.7100,9519218,0.0000,1.0000
2016-05-23,9.2000,9.6000,9.2000,9.2600,9.2600,5698391,0.0000,1.0000
2016-05-20,8.9200,9.2000,8.7500,9.1500,9.1500,5928162,0.0000,1.0000
2016-05-19,8.7500,8.9000,8.6200,8.8500,8.8500,5955730,0.0000,1.0000
2016-05-18,8.9400,9.1200,8.7700,8.8000,8.8000,4798799,0.0000,1.0000
2016-05-17,8.9800,9.2300,8.8500,8.9900,8.9900,4361393,0.0000,1.0000
2016-05-16,9.0500,9.2600,8.8000,8.9300,8.9300,5758130,0.0000,1.0000
2016-05-13,8.8900,9.4200,8.7600,8.8800,8.8800,7739064,0.0000,1.0000
2016-05-12,9.5100,9.5500,8.7901,8.8200,8.8200,10038958,0.0000,1.0000
2016-05-11,9.8300,9.8500,9.4100,9.4600,9.4600,7687848,0.0000,1.0000
2016-05-10,9.8700,9.9900,9.4300,9.8200,9.8200,6623057,0.0000,1.0000
2016-05-09,10.4500,10.6000,9.7500,9.7800,9.7800,10693309,0.0000,1.0000
2016-05-06,9.9300,10.6500,9.8100,10.4600,10.4600,14540097,0.0000,1.0000
2016-05-05,11.3900,11.5500,10.6700,10.7100,10.7100,12398039,0.0000,1.0000
2016-05-04,11.5400,11.7900,11.1700,11.4000,11.4000,6183510,0.0000,1.0000
2016-05-03,12.1000,12.1200,11.4500,11.6500,11.6500,6227628,0.0000,1.0000
2016-05-02,12.5600,12.6400,12.0000,12.2300,12.2300,6276314,0.0000,1.0000
2016-04-29,13.0200,13.1400,12.4100,12.6400,12.6400,5395413,0.0000,1.0000
2016-04-28,13.2400,13.3500,12.9100,12.9400,12.9400,5111769,0.0000,1.0000
2016-04-27,12.9400,13.4300,12.8000,13.3000,13.3000,4672843,0.0000,1.0000
2016-04-26,12.8600,13.2400,12.5300,13.1800,13.1800,5310140,0.0000,1.0000
2016-04-25,13.7100,13.8000,12.6700,12.8200,12.8200,11089535,0.0000,1.0000
2016-04-22,13.5300,14.1790,13.5000,13.9800,13.9800,6612307,0.0000,1.0000
2016-04-21,13.5200,13.8200,13.3200,13.5600,13.5600,5354977,0.0000,1.0000
2016-04-20,13.0900,13.7700,12.9000,13.4400,13.4400,8377719,0.0000,1.0000
2016-04-19,13.2100,13.3800,12.8200,12.9500,12.9500,5428649,0.0000,1.0000
2016-04-18,13.6800,13.6800,13.0400,13.1300,13.1300,7017069,0.0000,1.0000
2016-04-15,13.5900,14.3400,13.4100,13.7700,13.7700,9264115,0.0000,1.0000
2016-04-14,14.1700,14.3500,13.1100,13.8000,13.8000,17303350,0.0000,1.0000
2016-04-13,12.0000,14.0400,11.8500,13.9000,13.9000,21039619,0.0000,1.0000
2016-04-12,11.9300,12.0600,11.5800,11.6800,11.6800,4851842,0.0000,1.0000
2016-04-11,12.3500,12.5300,11.7400,11.7700,11.7700,5344948,0.0000,1.0000
2016-04-08,12.3700,12.7500,12.2500,12.3200,12.3200,4660034,0.0000,1.0000
2016-04-07,11.9000,12.4900,11.9000,12.2900,12.2900,5312943,0.0000,1.0000
2016-04-06,11.7900,12.1600,11.6300,12.1200,12.1200,5983777,0.0000,1.0000
2016-04-05,11.9300,12.0400,11.6208,11.6500,11.6500,4047959,0.0000,1.0000
2016-04-04,11.7700,12.3700,11.6700,12.0300,12.0300,5288241,0.0000,1.0000
2016-04-01,11.8100,11.9900,11.6100,11.7400,11.7400,3899045,0.0000,1.0000
2016-03-31,12.2000,12.2126,11.8400,11.9600,11.9600,4372245,0.0000,1.0000
2016-03-30,11.7900,12.3700,11.7000,12.1600,12.1600,6099011,0.0000,1.0000
2016-03-29,11.4600,11.7600,11.0800,11.6500,11.6500,7289916,0.0000,1.0000
2016-03-28,12.4300,12.5000,11.4900,11.5000,11.5000,6918759,0.0000,1.0000
2016-03-24,12.2000,12.4800,11.9200,12.4200,12.4200,2834044,0.0000,1.0000
2016-03-23,12.9700,13.1100,12.2300,12.2700,12.2700,4407519,0.0000,1.0000
2016-03-22,12.9900,13.1700,12.7900,12.9700,12.9700,3339332,0.0000,1.0000
2016-03-21,12.7500,13.1900,12.6300,13.0700,13.0700,3356802,0.0000,1.0000
2016-03-18,13.1400,13.6100,12.7200,12.8800,12.8800,6224289,0.0000,1.0000
2016-03-17,12.3000,13.1900,12.2400,12.9500,12.9500,6603120,0.0000,1.0000
2016-03-16,11.7100,12.4700,11.6600,12.3100,12.3100,6304806,0.0000,1.0000
2016-03-15,12.2100,12.2400,11.5500,11.7000,11.7000,6310721,0.0000,1.0000
2016-03-14,12.5200,12.6000,12.1400,12.2700,12.2700,5480049,0.0000,1.0000
2016-03-11,12.3200,12.9800,12.1300,12.6000,12.6000,6948241,0.0000,1.0000
2016-03-10,12.4200,12.6200,11.9000,12.1800,12.1800,5813517,0.0000,1.0000
2016-03-09,12.7000,12.7000,12.1000,12.2800,12.2800,4907092,0.0000,1.0000
2016-03-08,13.7000,13.7000,12.3750,12.4100,12.4100,10756632,0.0000,1.0000
2016-03-07,13.5000,14.0750,13.2300,13.8800,13.8800,9572408,0.0000,1.0000
2016-03-04,13.3400,14.8400,13.1000,13.3600,13.3600,14102440,0.0000,1.0000
2016-03-03,13.1000,14.1000,12.7600,13.5800,13.5800,10986034,0.0000,1.0000
2016-03-02,12.0300,13.2400,11.9500,13.0200,13.0200,8861058,0.0000,1.0000
2016-03-01,12.0600,12.3200,11.6500,11.8900,11.8900,7731957,0.0000,1.0000
2016-02-29,12.3300,12.4500,11.7597,11.8800,11.8800,5826389,0.0000,1.0000
2016-02-26,11.4700,12.7500,11.3400,12.3000,12.3000,9529910,0.0000,1.0000
2016-02-25,11.6900,12.0000,11.0100,11.3400,11.3400,7064140,0.0000,1.0000
2016-02-24,11.7700,11.8599,11.2600,11.7500,11.7500,5020359,0.0000,1.0000
2016-02-23,12.8000,12.8300,12.0000,12.1100,12.1100,5490219,0.0000,1.0000
2016-02-22,12.7400,12.9525,12.3800,12.8600,12.8600,6261623,0.0000,1.0000
2016-02-19,12.3200,12.7200,12.0400,12.3800,12.3800,4965848,0.0000,1.0000
2016-02-18,13.1700,13.4199,12.1300,12.3900,12.3900,7987641,0.0000,1.0000
2016-02-17,11.3800,13.0500,11.3000,12.9900,12.9900,11718506,0.0000,1.0000
2016-02-16,10.5200,11.7000,10.3201,11.5900,11.5900,8913124,0.0000,1.0000
2016-02-12,10.3000,10.5600,10.1200,10.3100,10.3100,4000189,0.0000,1.0000
2016-02-11,10.3700,10.7100,9.9500,10.1700,10.1700,4499829,0.0000,1.0000
2016-02-10,11.5000,11.6300,10.5400,10.5900,10.5900,8913879,0.0000,1.0000
2016-02-09,10.6500,11.6500,10.5401,11.3900,11.3900,10144878,0.0000,1.0000
2016-02-08,10.3200,11.6900,10.0100,10.9900,10.9900,15246752,0.0000,1.0000
2016-02-05,9.7400,10.6800,9.6000,9.9600,9.9600,8990550,0.0000,1.0000
2016-02-04,9.1300,10.2000,9.0100,9.7800,9.7800,21150274,0.0000,1.0000
2016-02-03,10.2800,10.8000,10.0300,10.7100,10.7100,13551446,0.0000,1.0000
2016-02-02,10.9000,10.9100,10.1800,10.2400,10.2400,6305224,0.0000,1.0000
2016-02-01,11.1300,11.1800,10.5200,11.0600,11.0600,7319032,0.0000,1.0000
2016-01-29,10.5600,11.7500,10.5600,11.4500,11.4500,6614460,0.0000,1.0000
2016-01-28,10.8000,11.0000,10.4800,10.5700,10.5700,4013066,0.0000,1.0000
2016-01-27,11.0300,11.1000,10.5000,10.6100,10.6100,4863612,0.0000,1.0000
2016-01-26,10.6400,10.9600,10.3800,10.8800,10.8800,5801152,0.0000,1.0000
2016-01-25,10.7400,11.3300,10.5800,10.5900,10.5900,4193781,0.0000,1.0000
2016-01-22,11.0300,11.2700,10.6900,10.8300,10.8300,4864487,0.0000,1.0000
2016-01-21,11.0000,11.3900,10.3200,10.6800,10.6800,6733237,0.0000,1.0000
2016-01-20,10.1800,11.0800,9.9000,11.0000,11.0000,10318110,0.0000,1.0000
2016-01-19,11.6800,11.7700,10.2600,10.5700,10.5700,11886759,0.0000,1.0000
2016-01-15,11.7300,12.3200,11.2300,11.4600,11.4600,10678453,0.0000,1.0000
2016-01-14,11.4800,12.8200,11.2600,12.4800,12.4800,31587616,0.0000,1.0000
2016-01-13,14.7300,14.9800,14.3244,14.6100,14.6100,9743753,0.0000,1.0000
2016-01-12,15.6900,15.7000,14.3600,14.6000,14.6000,7416745,0.0000,1.0000
2016-01-11,16.4300,16.4400,14.5700,15.2600,15.2600,12620624,0.0000,1.0000
2016-01-08,17.5900,17.6600,16.1310,16.1900,16.1900,7661875,0.0000,1.0000
2016-01-07,17.8900,18.2000,16.7500,17.0000,17.0000,10116655,0.0000,1.0000
2016-01-06,18.1800,19.0000,18.0500,18.4100,18.4100,6513500,0.0000,1.0000
2016-01-05,20.0500,20.5000,18.2500,18.4900,18.4900,16303264,0.0000,1.0000
2016-01-04,17.5700,19.6500,17.5000,18.6900,18.6900,10436055,0.0000,1.0000
2015-12-31,18.2700,18.5500,17.8600,18.0100,18.0100,5155799,0.0000,1.0000
2015-12-30,18.1200,18.5800,18.0100,18.4000,18.4000,4382549,0.0000,1.0000
2015-12-29,18.2200,18.4400,17.6000,18.2800,18.2800,5118673,0.0000,1.0000
2015-12-28,18.3600,18.9800,17.8400,17.9200,17.9200,6027067,0.0000,1.0000
2015-12-24,18.2900,18.4400,18.1400,18.2200,18.2200,1976348,0.0000,1.0000
2015-12-23,18.4200,18.8500,18.2000,18.2700,18.2700,4376166,0.0000,1.0000
2015-12-22,18.3300,18.9500,18.1000,18.3400,18.3400,6302951,0.0000,1.0000
2015-12-21,19.1400,19.5000,18.0000,18.1000,18.1000,8183071,0.0000,1.0000
2015-12-18,17.9400,19.7000,17.7600,19.5000,19.5000,7903829,0.0000,1.0000
2015-12-17,19.0000,19.8900,17.9100,17.9500,17.9500,8159799,0.0000,1.0000
2015-12-16,18.1000,19.2000,17.8800,18.8200,18.8200,7061666,0.0000,1.0000
2015-12-15,17.2600,18.0900,16.7050,17.9100,17.9100,8491637,0.0000,1.0000
2015-12-14,17.9200,17.9800,15.9000,17.3100,17.3100,21106208,0.0000,1.0000
2015-12-11,18.7300,19.4700,17.9000,19.1500,19.1500,13078619,0.0000,1.0000
2015-12-10,17.2500,19.6400,17.1700,18.8300,18.8300,18708037,0.0000,1.0000
2015-12-09,17.6700,17.9500,16.7700,16.8900,16.8900,8188958,0.0000,1.0000
2015-12-08,17.2600,18.1100,17.2500,17.5800,17.5800,4938960,0.0000,1.0000
2015-12-07,17.7700,18.0900,17.2400,17.5100,17.5100,6039542,0.0000,1.0000
2015-12-04,17.9600,18.6400,17.5500,18.0000,18.0000,11394213,0.0000,1.0000
2015-12-03,19.7200,20.1000,18.8800,18.9300,18.9300,7235902,0.0000,1.0000
2015-12-02,19.9200,20.3900,19.8500,20.0900,20.0900,3375781,0.0000,1.0000
2015-12-01,20.4600,20.6000,19.6400,20.1300,20.1300,5590288,0.0000,1.0000
2015-11-30,20.3800,20.8300,20.2300,20.4000,20.4000,4654052,0.0000,1.0000
2015-11-27,20.1500,20.9400,19.8500,20.2800,20.2800,4470780,0.0000,1.0000
2015-11-25,19.3000,20.4700,19.2100,20.0000,20.0000,5734602,0.0000,1.0000
2015-11-24,18.8000,19.5000,18.7500,19.3200,19.3200,7775920,0.0000,1.0000
2015-11-23,20.2000,20.2400,18.7999,18.9900,18.9900,11300489,0.0000,1.0000
2015-11-20,20.0000,20.5400,19.7100,20.4500,20.4500,5561505,0.0000,1.0000
2015-11-19,19.9500,20.3300,19.4500,19.9300,19.9300,5075263,0.0000,1.0000
2015-11-18,19.8700,19.9800,18.8600,19.8100,19.8100,17129662,0.0000,1.0000
2015-11-17,21.7500,21.8900,20.7700,20.8700,20.8700,4838923,0.0000,1.0000
2015-11-16,21.0900,21.7900,20.8500,21.6200,21.6200,4709835,0.0000,1.0000
2015-11-13,22.8700,22.9500,20.7600,21.1600,21.1600,11115265,0.0000,1.0000
2015-11-12,24.8800,24.8980,23.1000,23.1500,23.1500,9106900,0.0000,1.0000
2015-11-11,25.0200,25.3800,24.7600,25.1000,25.1000,3525880,0.0000,1.0000
2015-11-10,25.9000,25.9900,24.8200,25.0200,25.0200,4741382,0.0000,1.0000
2015-11-09,25.1500,26.1200,25.1300,25.9200,25.9200,6693212,0.0000,1.0000
2015-11-06,24.8100,25.2400,24.5000,25.1300,25.1300,4358693,0.0000,1.0000
2015-11-05,25.4000,25.5500,24.6200,24.8100,24.8100,6355686,0.0000,1.0000
2015-11-04,25.0700,25.8100,25.0700,25.3800,25.3800,6024786,0.0000,1.0000
2015-11-03,25.7500,25.7500,24.8400,25.0200,25.0200,9473350,0.0000,1.0000
2015-11-02,25.1200,25.9300,24.3001,25.5500,25.5500,8777205,0.0000,1.0000
2015-10-30,25.9400,25.9400,24.9900,25.0000,25.0000,10112389,0.0000,1.0000
2015-10-29,25.0200,26.3500,24.9501,25.6200,25.6200,41418753,0.0000,1.0000
2015-10-28,28.6200,30.6700,28.4200,30.2100,30.2100,24816468,0.0000,1.0000
2015-10-27,29.0400,29.0500,27.9900,28.2300,28.2300,6386567,0.0000,1.0000
2015-10-26,29.1100,29.4200,28.5800,28.7900,28.7900,4799101,0.0000,1.0000
2015-10-23,29.6500,29.7000,28.8100,29.1500,29.1500,5692149,0.0000,1.0000
2015-10-22,29.2500,30.0800,28.5000,28.7200,28.7200,5843518,0.0000,1.0000
2015-10-21,30.5200,30.6000,28.8300,29.0600,29.0600,6174443,0.0000,1.0000
2015-10-20,30.1400,31.3300,29.8700,30.3100,30.3100,9052495,0.0000,1.0000
2015-10-19,28.5000,30.3000,28.0760,29.6400,29.6400,8393774,0.0000,1.0000
2015-10-16,28.2700,28.7800,27.8300,28.5200,28.5200,5170934,0.0000,1.0000
2015-10-15,28.0300,29.2800,28.0100,28.5400,28.5400,6737489,0.0000,1.0000
2015-10-14,27.2900,28.4550,26.6800,28.0900,28.0900,8027395,0.0000,1.0000
2015-10-13,27.9400,28.6900,27.9000,27.9700,27.9700,4659015,0.0000,1.0000
2015-10-12,29.1000,29.3000,27.8602,28.4600,28.4600,7137535,0.0000,1.0000
2015-10-09,28.2300,30.2000,27.9500,29.0800,29.0800,18093195,0.0000,1.0000
2015-10-08,28.9600,29.0100,27.0650,27.6000,27.6000,18023213,0.0000,1.0000
2015-10-07,29.9900,30.7500,27.5200,29.3300,29.3300,18629583,0.0000,1.0000
2015-10-06,30.4500,31.9500,29.7800,30.6500,30.6500,8715038,0.0000,1.0000
2015-10-05,30.5600,30.9300,29.4800,30.2600,30.2600,8285085,0.0000,1.0000
2015-10-02,29.4000,30.6000,28.9100,30.4400,30.4400,10697118,0.0000,1.0000
2015-10-01,31.0200,31.4900,29.7500,30.0700,30.0700,6885380,0.0000,1.0000
2015-09-30,30.3000,31.5000,29.9000,31.2200,31.2200,6619236,0.0000,1.0000
2015-09-29,29.8500,30.9700,28.9000,29.8600,29.8600,8871161,0.0000,1.0000
2015-09-28,32.0000,32.1500,29.6200,29.6700,29.6700,9771950,0.0000,1.0000
2015-09-25,34.6900,35.0000,32.1400,32.3100,32.3100,8291990,0.0000,1.0000
2015-09-24,32.5200,34.0200,32.2601,33.9200,33.9200,7620515,0.0000,1.0000
2015-09-23,33.4500,33.6500,32.2200,32.6400,32.6400,8442808,0.0000,1.0000
2015-09-22,31.3800,33.7500,30.5500,33.3100,33.3100,14515387,0.0000,1.0000
2015-09-21,33.6800,33.9800,32.0000,32.2700,32.2700,14611657,0.0000,1.0000
2015-09-18,35.7300,35.8900,34.3900,35.1500,35.1500,13075231,0.0000,1.0000
2015-09-17,35.3200,37.2500,35.2300,36.3200,36.3200,13632655,0.0000,1.0000
2015-09-16,33.9500,35.8200,33.5350,35.7300,35.7300,14501348,0.0000,1.0000
2015-09-15,33.6800,34.1000,32.7400,33.5700,33.5700,10278894,0.0000,1.0000
2015-09-14,32.9000,34.5800,32.6200,32.8800,32.8800,17324849,0.0000,1.0000
2015-09-11,33.5000,33.9500,31.3220,32.4200,32.4200,16583791,0.0000,1.0000
2015-09-10,33.8600,34.9300,33.7500,33.8800,33.8800,13764947,0.0000,1.0000
2015-09-09,38.0400,38.1500,33.3400,33.6500,33.6500,19289875,0.0000,1.0000
2015-09-08,37.8200,38.0900,36.3800,37.5000,37.5000,11942642,0.0000,1.0000
2015-09-04,38.1300,39.3100,36.7500,36.8300,36.8300,14255773,0.0000,1.0000
2015-09-03,40.8800,41.7400,38.6100,38.6500,38.6500,11260919,0.0000,1.0000
2015-09-02,40.6700,41.3700,39.0400,41.2800,41.2800,19379926,0.0000,1.0000
2015-09-01,43.6000,44.0500,42.0900,43.6900,43.6900,15897846,0.0000,1.0000
2015-08-31,47.5700,48.3800,46.3472,46.5900,46.5900,5200800,0.0000,1.0000
2015-08-28,47.2100,49.4900,47.0601,48.1800,48.1800,5337482,0.0000,1.0000
2015-08-27,47.8500,49.4600,46.8500,47.7600,47.7600,8483878,0.0000,1.0000
2015-08-26,48.2800,48.9500,43.8800,46.2800,46.2800,11537210,0.0000,1.0000
2015-08-25,51.4100,51.6500,46.9700,47.0300,47.0300,8670007,0.0000,1.0000
2015-08-24,43.3000,51.3200,42.7500,47.8600,47.8600,12340854,0.0000,1.0000
2015-08-21,48.4500,50.8400,48.0500,48.3900,48.3900,8724464,0.0000,1.0000
2015-08-20,53.2200,53.7000,50.5300,50.6000,50.6000,8839668,0.0000,1.0000
2015-08-19,56.7600,56.9600,54.3550,54.6700,54.6700,6931572,0.0000,1.0000
2015-08-18,58.0900,58.7200,56.8400,57.4900,57.4900,3999878,0.0000,1.0000
2015-08-17,58.8000,59.6700,57.9300,58.5500,58.5500,4428145,0.0000,1.0000
2015-08-14,59.2800,59.9399,58.6100,58.8500,58.8500,3410220,0.0000,1.0000
2015-08-13,58.5700,60.8700,58.1700,59.5000,59.5000,9238394,0.0000,1.0000
2015-08-12,57.7500,57.7500,54.0200,56.9100,56.9100,13918475,0.0000,1.0000
2015-08-11,64.0000,64.1000,58.2600,59.1300,59.1300,10618090,0.0000,1.0000
2015-08-10,63.5000,65.4900,62.8000,64.7400,64.7400,8286790,0.0000,1.0000
2015-08-07,62.3400,63.2900,61.6600,63.0600,63.0600,4061864,0.0000,1.0000
2015-08-06,62.4300,64.4600,61.7000,62.8800,62.8800,6543299,0.0000,1.0000
2015-08-05,62.6000,63.6500,61.5700,62.6700,62.6700,4987230,0.0000,1.0000
2015-08-04,62.2600,62.4700,60.5100,62.0800,62.0800,4740993,0.0000,1.0000
2015-08-03,63.0000,63.4000,61.1800,62.2600,62.2600,5518493,0.0000,1.0000
2015-07-31,64.0500,64.6300,62.0300,62.1000,62.1000,9919557,0.0000,1.0000
2015-07-30,61.7600,62.2916,60.5600,61.6900,61.6900,3307305,0.0000,1.0000
2015-07-29,61.6300,62.3000,61.2500,61.8700,61.8700,3787107,0.0000,1.0000
2015-07-28,62.0400,63.3357,61.1100,62.4200,62.4200,6493180,0.0000,1.0000
2015-07-27,60.9800,62.6700,59.3800,61.2700,61.2700,6450013,0.0000,1.0000
2015-07-24,65.0000,65.0200,61.3001,62.1700,62.1700,9639399,0.0000,1.0000
2015-07-23,61.5000,65.2500,61.4800,63.9500,63.9500,18438855,0.0000,1.0000
2015-07-22,62.3900,63.2500,60.0500,61.6800,61.6800,22582216,0.0000,1.0000
2015-07-21,61.2000,62.2500,59.0600,62.0400,62.0400,23962816,0.0000,1.0000
2015-07-20,58.6500,61.2000,57.9100,60.8000,60.8000,14818632,0.0000,1.0000
2015-07-17,55.6200,56.7200,55.3000,56.6400,56.6400,5496453,0.0000,1.0000
2015-07-16,55.1500,55.3700,54.2600,55.2400,55.2400,2912422,0.0000,1.0000
2015-07-15,55.7500,56.1900,53.8300,54.5000,54.5000,4204414,0.0000,1.0000
2015-07-14,54.3400,55.9000,53.8205,54.9700,54.9700,9245837,0.0000,1.0000
2015-07-13,52.9300,53.2000,51.1200,52.1100,52.1100,3750600,0.0000,1.0000
2015-07-10,52.2500,53.2900,52.1400,52.5100,52.5100,2588467,0.0000,1.0000
2015-07-09,51.8900,52.6900,51.8600,52.0400,52.0400,1928053,0.0000,1.0000
2015-07-08,51.7600,52.7000,51.1301,51.2500,51.2500,2675478,0.0000,1.0000
2015-07-07,51.7700,52.8300,50.3500,52.2500,52.2500,5204057,0.0000,1.0000
2015-07-06,50.6200,51.1500,49.4000,50.9400,50.9400,6593619,0.0000,1.0000
2015-07-02,52.0000,52.2900,51.3000,51.7500,51.7500,2261960,0.0000,1.0000
2015-07-01,53.1600,53.3400,51.1900,51.9500,51.9500,3843852,0.0000,1.0000
2015-06-30,53.8100,54.1100,51.9500,52.7200,52.7200,4639896,0.0000,1.0000
2015-06-29,52.8100,53.7100,52.1100,53.2100,53.2100,3234830,0.0000,1.0000
2015-06-26,57.0000,57.0500,53.5700,54.1300,54.1300,11049931,0.0000,1.0000
2015-06-25,57.0700,57.6000,56.2100,56.9100,56.9100,3361825,0.0000,1.0000
2015-06-24,56.6700,57.6000,56.2000,57.0500,57.0500,3447723,0.0000,1.0000
2015-06-23,55.4000,57.4000,55.3900,56.7600,56.7600,6402930,0.0000,1.0000
2015-06-22,57.7100,57.9000,54.5000,54.9200,54.9200,8434407,0.0000,1.0000
2015-06-19,58.2100,58.6500,57.5600,57.9700,57.9700,5088801,0.0000,1.0000
2015-06-18,59.0500,59.7300,57.8300,58.2800,58.2800,3842975,0.0000,1.0000
2015-06-17,58.2600,59.2500,57.8210,59.0000,59.0000,3679894,0.0000,1.0000
2015-06-16,58.1700,59.0500,57.8356,58.1900,58.1900,4108100,0.0000,1.0000
2015-06-15,56.6200,58.5300,56.5000,58.5200,58.5200,4325571,0.0000,1.0000
2015-06-12,55.4300,58.2900,55.3500,57.4500,57.4500,6062627,0.0000,1.0000
2015-06-11,57.8100,58.4100,55.7100,55.9900,55.9900,6431450,0.0000,1.0000
2015-06-10,56.4200,58.4300,55.1500,57.9100,57.9100,9230371,0.0000,1.0000
2015-06-09,59.2300,59.6600,57.7500,58.6800,58.6800,4306923,0.0000,1.0000
2015-06-08,59.7700,61.1900,58.6300,59.4000,59.4000,7104443,0.0000,1.0000
2015-06-05,58.2400,59.7000,58.2400,59.4100,59.4100,3586930,0.0000,1.0000
2015-06-04,58.7700,58.9200,57.7800,58.8800,58.8800,4464695,0.0000,1.0000
2015-06-03,59.9900,60.4300,58.7000,59.0300,59.0300,10890806,0.0000,1.0000
2015-06-02,58.3900,59.9200,58.1500,58.4000,58.4000,8587907,0.0000,1.0000
2015-06-01,56.9000,59.6000,56.3301,58.5200,58.5200,11411763,0.0000,1.0000
2015-05-29,56.5000,56.7000,55.0810,55.4600,55.4600,5235382,0.0000,1.0000
2015-05-28,55.0400,57.8400,55.0300,56.8100,56.8100,15833480,0.0000,1.0000
2015-05-27,53.2700,53.9400,51.9100,53.2800,53.2800,4447451,0.0000,1.0000
2015-05-26,54.4900,54.5300,52.2200,53.4100,53.4100,4414663,0.0000,1.0000
2015-05-22,53.5100,54.9800,53.5100,54.4400,54.4400,4252681,0.0000,1.0000
2015-05-21,54.2600,54.2600,52.9300,53.5000,53.5000,4225994,0.0000,1.0000
2015-05-20,52.7000,54.4900,52.1200,53.8800,53.8800,6493676,0.0000,1.0000
2015-05-19,51.5000,52.5900,51.2500,51.8500,51.8500,4515529,0.0000,1.0000
2015-05-18,50.5600,52.1900,50.4100,51.1300,51.1300,4452445,0.0000,1.0000
2015-05-15,50.6200,50.6200,50.0000,50.0900,50.0900,1990122,0.0000,1.0000
2015-05-14,49.9600,50.7900,49.5400,50.6200,50.6200,3415197,0.0000,1.0000
2015-05-13,49.3200,50.2700,49.0300,49.8500,49.8500,2748869,0.0000,1.0000
2015-05-12,48.5200,49.6900,47.7300,49.5700,49.5700,3601794,0.0000,1.0000
2015-05-11,50.0400,50.2300,48.6700,48.8500,48.8500,2839489,0.0000,1.0000
2015-05-08,50.0000,50.7200,49.7000,50.2100,50.2100,3467754,0.0000,1.0000
2015-05-07,48.0000,49.9300,47.5800,49.5500,49.5500,3609580,0.0000,1.0000
2015-05-06,47.9800,48.2900,46.5000,48.1900,48.1900,4237961,0.0000,1.0000
2015-05-05,49.6000,50.3500,47.6600,47.7400,47.7400,4994136,0.0000,1.0000
2015-05-04,50.0100,50.7500,49.5550,49.7400,49.7400,3805771,0.0000,1.0000
2015-05-01,49.7100,51.2100,49.5200,49.9800,49.9800,4560482,0.0000,1.0000
2015-04-30,52.0950,52.5700,49.4300,50.0800,50.0800,10703420,0.0000,1.0000
2015-04-29,52.0100,54.0600,51.1500,52.9600,52.9600,30817709,0.0000,1.0000
2015-04-28,45.8700,47.1000,45.3900,47.0200,47.0200,12507956,0.0000,1.0000
2015-04-27,45.0900,46.0500,44.7500,45.1900,45.1900,3671333,0.0000,1.0000
2015-04-24,46.2100,46.4400,44.6000,44.7300,44.7300,4017192,0.0000,1.0000
2015-04-23,46.0000,46.7300,45.6500,46.0800,46.0800,3745329,0.0000,1.0000
2015-04-22,44.1200,46.2800,44.0500,46.2500,46.2500,4397382,0.0000,1.0000
2015-04-21,44.7500,45.4500,43.6200,44.3100,44.3100,3379670,0.0000,1.0000
2015-04-20,45.0300,45.5000,44.5000,44.8800,44.8800,2622477,0.0000,1.0000
2015-04-17,44.9400,45.5700,44.2400,44.6200,44.6200,3430948,0.0000,1.0000
2015-04-16,45.8800,46.3600,45.2100,45.4600,45.4600,3531818,0.0000,1.0000
2015-04-15,45.8700,46.9500,45.6000,45.6700,45.6700,7650134,0.0000,1.0000
2015-04-14,44.2600,44.9100,42.8700,44.4800,44.4800,4511159,0.0000,1.0000
2015-04-13,45.7000,45.9500,44.0800,44.2200,44.2200,5473548,0.0000,1.0000
2015-04-10,44.6300,45.6300,44.3500,45.2500,45.2500,6098429,0.0000,1.0000
2015-04-09,43.4400,44.9000,43.4105,43.7000,43.7000,5450859,0.0000,1.0000
2015-04-08,43.5400,44.3800,43.1300,43.3300,43.3300,3997021,0.0000,1.0000
2015-04-07,43.6000,44.1000,42.7600,43.5700,43.5700,4415790,0.0000,1.0000
2015-04-06,41.7000,43.9300,41.6800,43.5500,43.5500,4376036,0.0000,1.0000
2015-04-02,40.9500,42.2800,40.7200,41.9600,41.9600,3775362,0.0000,1.0000
2015-04-01,43.0500,43.3400,40.3700,40.8900,40.8900,6865199,0.0000,1.0000
2015-03-31,43.6000,44.4500,42.8900,43.4100,43.4100,4639583,0.0000,1.0000
2015-03-30,43.7500,43.9000,42.6500,43.5800,43.5800,4620061,0.0000,1.0000
2015-03-27,43.6400,43.9700,42.3000,42.7000,42.7000,4658298,0.0000,1.0000
2015-03-26,43.1400,44.1000,42.2000,43.2300,43.2300,6655378,0.0000,1.0000
2015-03-25,43.4000,44.3400,41.6800,42.3000,42.3000,8662263,0.0000,1.0000
2015-03-24,42.2800,42.6499,41.1040,41.8300,41.8300,4587681,0.0000,1.0000
2015-03-23,40.3000,42.7700,39.8120,42.0800,42.0800,6452513,0.0000,1.0000
2015-03-20,39.7500,40.6300,39.3000,40.4000,40.4000,5022966,0.0000,1.0000
2015-03-19,40.6700,41.3400,39.2500,39.5300,39.5300,4221421,0.0000,1.0000
2015-03-18,40.0800,41.4300,39.4100,40.6700,40.6700,4531794,0.0000,1.0000
2015-03-17,39.1600,41.2800,38.8800,40.2500,40.2500,7357973,0.0000,1.0000
2015-03-16,40.1500,40.3000,38.7100,39.3700,39.3700,4371164,0.0000,1.0000
2015-03-13,39.3600,40.4000,38.4200,40.1300,40.1300,6719308,0.0000,1.0000
2015-03-12,38.1300,39.8000,37.6300,39.7000,39.7000,3968708,0.0000,1.0000
2015-03-11,38.7300,38.9400,37.8000,38.1700,38.1700,3038573,0.0000,1.0000
2015-03-10,37.5200,39.4700,37.1300,38.7300,38.7300,4786401,0.0000,1.0000
2015-03-09,40.1700,40.3500,37.8000,37.9500,37.9500,7995828,0.0000,1.0000
2015-03-06,41.0100,41.5000,40.0000,40.1300,40.1300,4248321,0.0000,1.0000
2015-03-05,43.4300,43.8299,40.8500,41.0800,41.0800,7004130,0.0000,1.0000
2015-03-04,41.0500,43.9000,41.0000,43.0100,43.0100,10075067,0.0000,1.0000
2015-03-03,39.8000,40.9800,39.5800,40.3000,40.3000,4385682,0.0000,1.0000
2015-03-02,40.2000,41.5800,39.7000,39.9300,39.9300,9161738,0.0000,1.0000
2015-02-27,43.8600,44.1000,41.6601,41.9800,41.9800,8275005,0.0000,1.0000
2015-02-26,45.0500,45.6800,44.3200,44.6600,44.6600,4852183,0.0000,1.0000
2015-02-25,43.7500,45.1700,43.6500,45.0500,45.0500,4671577,0.0000,1.0000
2015-02-24,43.9800,44.7700,43.5200,43.8800,43.8800,4606950,0.0000,1.0000
2015-02-23,44.1000,44.8900,43.1300,43.9500,43.9500,7076970,0.0000,1.0000
2015-02-20,45.2000,45.8200,44.5000,45.0700,45.0700,6538788,0.0000,1.0000
2015-02-19,45.8500,46.4300,44.9000,45.1600,45.1600,8406074,0.0000,1.0000
2015-02-18,49.6500,49.9900,45.2000,45.2100,45.2100,24479657,0.0000,1.0000
2015-02-17,46.1200,50.9500,46.0000,50.9200,50.9200,15844339,0.0000,1.0000
2015-02-13,45.1600,46.1500,44.3000,45.2700,45.2700,5362562,0.0000,1.0000
2015-02-12,45.0000,46.4900,44.8080,45.2900,45.2900,4546198,0.0000,1.0000
2015-02-11,43.2400,45.6500,43.0200,44.7700,44.7700,7070053,0.0000,1.0000
2015-02-10,44.6100,45.3000,42.6500,43.8000,43.8000,9369382,0.0000,1.0000
2015-02-09,46.3400,46.9000,44.2000,44.4800,44.4800,12099479,0.0000,1.0000
2015-02-06,47.9600,49.7500,47.0000,47.1200,47.1200,23253267,0.0000,1.0000
2015-02-05,52.7700,54.6900,50.5000,54.3700,54.3700,20340068,0.0000,1.0000
2015-02-04,54.7500,54.7500,51.3400,51.8700,51.8700,6080642,0.0000,1.0000
2015-02-03,52.6500,55.1699,52.6000,54.5700,54.5700,5703763,0.0000,1.0000
2015-02-02,50.0500,52.2400,49.0100,52.1400,52.1400,4097366,0.0000,1.0000
2015-01-30,50.9300,51.1900,48.8000,49.7500,49.7500,2415309,0.0000,1.0000
2015-01-29,51.9200,51.9200,49.6680,50.8400,50.8400,2729773,0.0000,1.0000
2015-01-28,51.3900,54.1300,51.1000,51.4600,51.4600,4830143,0.0000,1.0000
2015-01-27,49.2400,51.9600,49.0500,51.4200,51.4200,3430745,0.0000,1.0000
2015-01-26,52.3100,53.1758,49.8000,50.4100,50.4100,5178013,0.0000,1.0000
2015-01-23,48.8000,52.5100,48.4400,52.5100,52.5100,7275318,0.0000,1.0000
2015-01-22,50.8000,51.3000,47.6600,48.3500,48.3500,5123656,0.0000,1.0000
2015-01-21,47.7900,50.6700,47.5200,50.2900,50.2900,5059905,0.0000,1.0000
2015-01-20,47.1000,48.9300,46.1200,47.3400,47.3400,4574967,0.0000,1.0000
2015-01-16,47.8500,48.4700,45.3600,47.5100,47.5100,10652518,0.0000,1.0000
2015-01-15,52.9900,53.0000,48.4100,48.5800,48.5800,4720733,0.0000,1.0000
2015-01-14,50.8500,52.7000,49.7500,52.3400,52.3400,7189771,0.0000,1.0000
2015-01-13,57.0600,57.2000,48.2300,49.8700,49.8700,15263390,0.0000,1.0000
2015-01-12,59.8600,60.0000,56.3450,56.7800,56.7800,5025601,0.0000,1.0000
2015-01-09,60.0500,61.6999,58.8000,60.8400,60.8400,4218226,0.0000,1.0000
2015-01-08,61.4300,61.9400,59.5000,60.0900,60.0900,6881411,0.0000,1.0000
2015-01-07,65.5900,66.4500,60.2500,62.4500,62.4500,6661975,0.0000,1.0000
2015-01-06,66.8500,67.2500,63.3100,64.8500,64.8500,3777771,0.0000,1.0000
2015-01-05,67.6000,68.5000,65.6300,66.1900,66.1900,5382059,0.0000,1.0000
2015-01-02,64.9000,66.9000,64.0801,66.8700,66.8700,5431410,0.0000,1.0000
2014-12-31,65.0600,65.7800,62.8100,63.2200,63.2200,4843099,0.0000,1.0000
2014-12-30,66.2700,67.4000,64.7600,65.4000,65.4000,6389039,0.0000,1.0000
2014-12-29,67.8300,68.8000,64.6700,64.7400,64.7400,8152254,0.0000,1.0000
2014-12-26,68.0600,69.7500,67.4500,69.2300,69.2300,14035170,0.0000,1.0000
2014-12-24,63.5000,66.7000,62.6700,66.4100,66.4100,11264433,0.0000,1.0000
2014-12-23,59.7100,61.9900,58.3000,61.5400,61.5400,13412656,0.0000,1.0000
2014-12-22,54.1900,58.0000,53.6400,58.0000,58.0000,6400291,0.0000,1.0000
2014-12-19,57.2000,57.5000,53.7700,53.9000,53.9000,6385821,0.0000,1.0000
2014-12-18,60.9100,61.0300,56.5000,57.0900,57.0900,4942541,0.0000,1.0000
2014-12-17,60.0000,60.4400,57.9000,59.5000,59.5000,2424899,0.0000,1.0000
2014-12-16,55.9100,60.2000,55.5500,58.2700,58.2700,4917811,0.0000,1.0000
2014-12-15,61.6100,61.8500,56.8600,57.0000,57.0000,5383494,0.0000,1.0000
2014-12-12,62.5600,63.2700,60.5200,60.5200,60.5200,7530549,0.0000,1.0000
2014-12-11,64.0000,64.4400,57.9200,60.0500,60.0500,14337934,0.0000,1.0000
2014-12-10,66.8500,68.5000,62.6000,62.7600,62.7600,6554568,0.0000,1.0000
2014-12-09,65.0000,68.7500,64.3600,67.9000,67.9000,6157305,0.0000,1.0000
2014-12-08,72.2500,72.3300,66.3000,67.6500,67.6500,9027218,0.0000,1.0000
2014-12-05,72.2500,73.7500,71.0000,72.1800,72.1800,5558713,0.0000,1.0000
2014-12-04,73.0100,74.5000,71.2800,71.9800,71.9800,3996760,0.0000,1.0000
2014-12-03,74.1200,75.3000,72.4500,73.6500,73.6500,4223349,0.0000,1.0000
2014-12-02,74.6000,75.4200,73.5501,73.8900,73.8900,3801775,0.0000,1.0000
2014-12-01,77.0000,77.0000,73.3900,73.5000,73.5000,6306318,0.0000,1.0000
2014-11-28,80.3800,80.6100,75.9200,77.9700,77.9700,8840837,0.0000,1.0000
2014-11-26,76.0500,79.3500,74.8500,79.0500,79.0500,13892807,0.0000,1.0000
2014-11-25,73.8400,75.7090,73.2704,74.7100,74.7100,8446592,0.0000,1.0000
2014-11-24,71.0100,73.0900,69.8000,72.5400,72.5400,6378809,0.0000,1.0000
2014-11-21,73.6000,73.6000,70.5500,70.7200,70.7200,10853573,0.0000,1.0000
2014-11-20,72.8450,75.1000,71.5800,71.7400,71.7400,24117480,0.0000,1.0000
2014-11-19,85.2200,86.0000,79.0500,79.0900,79.0900,8276689,0.0000,1.0000
2014-11-18,83.7000,85.7800,82.2000,84.1000,84.1000,10276961,0.0000,1.0000
2014-11-17,79.7400,83.4400,78.8000,81.5000,81.5000,8809146,0.0000,1.0000
2014-11-14,77.9900,79.4900,76.7500,79.1500,79.1500,4460911,0.0000,1.0000
2014-11-13,77.8500,79.6500,75.9200,76.4700,76.4700,4917933,0.0000,1.0000
2014-11-12,74.1000,78.4400,74.0800,76.8500,76.8500,4312750,0.0000,1.0000
2014-11-11,75.7500,77.2653,74.0100,75.0000,75.0000,4436635,0.0000,1.0000
2014-11-10,75.8000,78.1000,75.0000,75.7500,75.7500,9283076,0.0000,1.0000
2014-11-07,79.7900,80.4000,77.7700,79.0600,79.0600,4447265,0.0000,1.0000
2014-11-06,77.8000,79.5000,76.6300,78.7600,78.7600,5230334,0.0000,1.0000
2014-11-05,84.5000,85.5000,75.5000,75.8900,75.8900,11808028,0.0000,1.0000
2014-11-04,84.8900,87.5000,81.6700,82.2700,82.2700,13886482,0.0000,1.0000
2014-11-03,77.6400,85.4000,76.5001,84.3200,84.3200,15492590,0.0000,1.0000
2014-10-31,80.7000,81.1299,76.0000,77.1000,77.1000,17868884,0.0000,1.0000
2014-10-30,68.7900,69.7400,64.1410,68.2500,68.2500,10835370,0.0000,1.0000
2014-10-29,69.3000,69.3000,66.5500,67.8900,67.8900,3102794,0.0000,1.0000
2014-10-28,66.6000,70.9000,66.6000,69.3000,69.3000,7815082,0.0000,1.0000
2014-10-27,66.9600,69.8500,64.7500,64.9100,64.9100,9277457,0.0000,1.0000
2014-10-24,75.6300,76.5000,70.2900,71.9100,71.9100,12231242,0.0000,1.0000
2014-10-23,82.4200,82.8100,77.8800,79.1500,79.1500,7535906,0.0000,1.0000
2014-10-22,84.0000,84.9500,79.6800,80.0900,80.0900,8236797,0.0000,1.0000
2014-10-21,77.9600,82.7900,77.1100,80.9200,80.9200,7332249,0.0000,1.0000
2014-10-20,75.0300,77.5900,74.8005,76.0000,76.0000,3644613,0.0000,1.0000
2014-10-17,75.8000,76.7500,72.7900,74.6300,74.6300,4707421,0.0000,1.0000
2014-10-16,69.1000,74.8800,68.6000,72.6900,72.6900,6143538,0.0000,1.0000
2014-10-15,71.0300,74.8500,68.3400,72.8700,72.8700,8720357,0.0000,1.0000
2014-10-14,78.6000,80.9311,74.4400,75.0300,75.0300,6770363,0.0000,1.0000
2014-10-13,82.3500,83.4000,73.2800,76.6700,76.6700,13263514,0.0000,1.0000
2014-10-10,87.9100,89.8900,83.5700,85.0500,85.0500,7159655,0.0000,1.0000
2014-10-09,91.3000,92.3800,87.3000,89.1800,89.1800,8025761,0.0000,1.0000
2014-10-08,91.0000,92.7700,87.1600,89.9300,89.9300,13042875,0.0000,1.0000
2014-10-07,92.3500,98.4700,91.2200,93.8500,93.8500,20856597,0.0000,1.0000
2014-10-06,89.4800,94.3135,88.5000,93.7900,93.7900,13048866,0.0000,1.0000
2014-10-03,88.5000,89.8000,86.5300,86.9700,86.9700,12098407,0.0000,1.0000
2014-10-02,87.4200,88.9500,79.1300,85.4600,85.4600,27451224,0.0000,1.0000
2014-10-01,92.3100,93.9599,88.8700,91.8000,91.8000,12921815,0.0000,1.0000
2014-09-30,94.7750,96.4500,88.5300,93.7000,93.7000,31756088,0.0000,1.0000
2014-09-29,81.9900,91.7700,80.0000,90.9400,90.9400,26687421,0.0000,1.0000
2014-09-26,79.0000,82.4000,77.5100,82.1000,82.1000,13003673,0.0000,1.0000
2014-09-25,81.5000,81.6400,76.2080,81.3100,81.3100,14393309,0.0000,1.0000
2014-09-24,74.5000,78.8400,73.8500,78.4600,78.4600,12110395,0.0000,1.0000
2014-09-23,68.8500,73.4200,68.3400,72.8800,72.8800,8066474,0.0000,1.0000
2014-09-22,67.0500,68.9000,66.5000,68.2700,68.2700,4185489,0.0000,1.0000
2014-09-19,66.0500,67.3000,64.1000,67.2000,67.2000,5931891,0.0000,1.0000
2014-09-18,68.1000,68.6700,66.0100,66.3300,66.3300,5871786,0.0000,1.0000
2014-09-17,67.0000,68.2100,66.3100,67.2200,67.2200,5893871,0.0000,1.0000
2014-09-16,65.4000,66.6899,63.4200,65.2300,65.2300,8576158,0.0000,1.0000
2014-09-15,69.5500,71.4200,66.1700,67.2000,67.2000,10120926,0.0000,1.0000
2014-09-12,68.7400,70.1700,67.6500,69.1800,69.1800,8381821,0.0000,1.0000
2014-09-11,70.6450,70.9000,66.2600,68.2800,68.2800,15049587,0.0000,1.0000
2014-09-10,67.1100,69.3000,64.7500,68.4700,68.4700,12362264,0.0000,1.0000
2014-09-09,63.4700,68.2900,63.2600,64.1900,64.1900,13437550,0.0000,1.0000
2014-09-08,58.1500,63.7200,57.0400,63.5200,63.5200,12161719,0.0000,1.0000
2014-09-05,54.2500,59.2400,53.5100,58.7500,58.7500,7632873,0.0000,1.0000
2014-09-04,54.3000,55.8788,52.3000,53.0800,53.0800,8197654,0.0000,1.0000
2014-09-03,55.9500,57.4500,55.4300,56.8600,56.8600,9221188,0.0000,1.0000
2014-09-02,53.0000,55.3500,52.5200,53.9400,53.9400,9075576,0.0000,1.0000
2014-08-29,49.4700,52.1300,49.4500,51.8000,51.8000,10254382,0.0000,1.0000
2014-08-28,45.5000,49.8600,44.6300,48.9000,48.9000,10595261,0.0000,1.0000
2014-08-27,45.8700,46.0000,45.2900,45.5000,45.5000,1908633,0.0000,1.0000
2014-08-26,44.8000,45.8000,44.5700,45.2900,45.2900,3781936,0.0000,1.0000
2014-08-25,43.8500,44.3500,43.3010,43.8500,43.8500,1850319,0.0000,1.0000
2014-08-22,43.0000,43.8300,42.7000,43.2900,43.2900,1683879,0.0000,1.0000
2014-08-21,44.6000,44.8600,43.0264,43.1700,43.1700,2689281,0.0000,1.0000
2014-08-20,42.9050,44.6000,42.7600,43.8900,43.8900,3427176,0.0000,1.0000
2014-08-19,42.3400,43.5000,42.0501,43.3600,43.3600,4064423,0.0000,1.0000
2014-08-18,40.5000,42.6000,40.0400,41.8500,41.8500,3903791,0.0000,1.0000
2014-08-15,39.5100,40.2500,38.9000,39.7900,39.7900,2822459,0.0000,1.0000
2014-08-14,38.2500,39.8200,38.0500,39.4900,39.4900,2892037,0.0000,1.0000
2014-08-13,38.4900,39.0400,38.0100,38.1900,38.1900,2162202,0.0000,1.0000
2014-08-12,38.6500,38.6924,37.7000,38.0399,38.0399,1317728,0.0000,1.0000
2014-08-11,38.6400,38.7700,38.1000,38.2000,38.2000,1564644,0.0000,1.0000
2014-08-08,39.1600,39.1600,37.2400,37.6500,37.6500,2423591,0.0000,1.0000
2014-08-07,39.8500,39.8500,38.2700,38.7000,38.7000,2044925,0.0000,1.0000
2014-08-06,39.3600,40.1300,38.5300,38.7200,38.7200,2259646,0.0000,1.0000
2014-08-05,38.6400,40.1400,38.3500,38.8700,38.8700,4017147,0.0000,1.0000
2014-08-04,41.4400,41.8000,38.3500,38.5300,38.5300,6683634,0.0000,1.0000
2014-08-01,41.9700,44.7900,40.5200,40.9700,40.9700,13318858,0.0000,1.0000
2014-07-31,45.1000,48.4000,44.6200,47.9700,47.9700,14661983,0.0000,1.0000
2014-07-30,44.7200,46.3400,44.2500,46.3158,46.3158,6482058,0.0000,1.0000
2014-07-29,43.6800,44.7500,43.2900,44.0700,44.0700,5903634,0.0000,1.0000
2014-07-28,42.3000,43.7000,41.2300,43.2500,43.2500,5882926,0.0000,1.0000
2014-07-25,41.8200,42.4000,41.0600,41.9800,41.9800,2837865,0.0000,1.0000
2014-07-24,42.3000,42.4000,41.3200,42.1900,42.1900,3373460,0.0000,1.0000
2014-07-23,43.8300,44.8300,40.8200,41.7400,41.7400,10362883,0.0000,1.0000
2014-07-22,42.8500,43.2500,42.2000,43.1000,43.1000,5829201,0.0000,1.0000
2014-07-21,43.2000,43.8000,41.5000,41.5800,41.5800,9189147,0.0000,1.0000
2014-07-18,41.0700,42.5500,40.4000,41.4300,41.4300,5215762,0.0000,1.0000
2014-07-17,40.5000,42.1300,40.0000,40.3400,40.3400,4755012,0.0000,1.0000
2014-07-16,43.8000,44.4400,40.8000,40.9000,40.9000,11344997,0.0000,1.0000
2014-07-15,39.0900,42.1000,38.2300,41.6300,41.6300,19856584,0.0000,1.0000
2014-07-14,38.8700,39.1000,36.1000,36.8400,36.8400,10712412,0.0000,1.0000
2014-07-11,42.4500,42.8800,38.7300,38.8400,38.8400,9330315,0.0000,1.0000
2014-07-10,41.7300,42.7500,40.6000,41.9400,41.9400,4992625,0.0000,1.0000
2014-07-09,43.0100,43.7000,41.7500,43.3000,43.3000,5876831,0.0000,1.0000
2014-07-08,43.8850,44.9900,41.5300,42.2000,42.2000,10883881,0.0000,1.0000
2014-07-07,42.9800,44.4400,41.7600,43.9601,43.9601,17032380,0.0000,1.0000
2014-07-03,43.9700,45.2399,40.7400,41.5800,41.5800,15536583,0.0000,1.0000
2014-07-02,46.9000,46.9800,41.5300,42.0400,42.0400,29324076,0.0000,1.0000
2014-07-01,45.0000,49.9000,44.4000,48.7999,48.7999,41795185,0.0000,1.0000
2014-06-30,39.4400,41.1900,37.8300,40.5500,40.5500,24928679,0.0000,1.0000
2014-06-27,32.9700,40.4700,29.4980,35.7600,35.7600,45727158,0.0000,1.0000
2014-06-26,28.6500,33.0000,28.6500,31.3400,31.3400,45837325,0.0000,1.0000
