timestamp,open,high,low,close,adjusted_close,volume,dividend_amount,split_coefficient
2018-08-06,0.2730,0.2747,0.2516,0.2549,0.2549,2237606,0.0000,1.0000
2018-08-03,0.2900,0.2900,0.2750,0.2759,0.2759,1193804,0.0000,1.0000
2018-08-02,0.2820,0.2975,0.2700,0.2791,0.2791,1581093,0.0000,1.0000
2018-08-01,0.2800,0.2889,0.2501,0.2889,0.2889,3954021,0.0000,1.0000
2018-07-31,0.3100,0.3135,0.2750,0.2772,0.2772,3567620,0.0000,1.0000
2018-07-30,0.3260,0.3363,0.3100,0.3137,0.3137,2172575,0.0000,1.0000
2018-07-27,0.3394,0.3400,0.3220,0.3261,0.3261,2259462,0.0000,1.0000
2018-07-26,0.3500,0.3502,0.3327,0.3394,0.3394,1616171,0.0000,1.0000
2018-07-25,0.3605,0.3629,0.3300,0.3505,0.3505,1636105,0.0000,1.0000
2018-07-24,0.3650,0.3701,0.3600,0.3620,0.3620,1245619,0.0000,1.0000
2018-07-23,0.3615,0.3775,0.3600,0.3631,0.3631,971734,0.0000,1.0000
2018-07-20,0.3750,0.3775,0.3620,0.3666,0.3666,1015926,0.0000,1.0000
2018-07-19,0.3800,0.3800,0.3700,0.3701,0.3701,1440131,0.0000,1.0000
2018-07-18,0.3670,0.3800,0.3600,0.3684,0.3684,2431027,0.0000,1.0000
2018-07-17,0.3700,0.3796,0.3550,0.3579,0.3579,1944943,0.0000,1.0000
2018-07-16,0.3840,0.3949,0.3700,0.3799,0.3799,2608834,0.0000,1.0000
2018-07-13,0.3520,0.3550,0.3410,0.3550,0.3550,2240072,0.0000,1.0000
2018-07-12,0.3600,0.3650,0.3500,0.3549,0.3549,1550313,0.0000,1.0000
2018-07-11,0.3650,0.3650,0.3500,0.3600,0.3600,1035076,0.0000,1.0000
2018-07-10,0.3720,0.3720,0.3500,0.3533,0.3533,1603906,0.0000,1.0000
2018-07-09,0.3782,0.3800,0.3600,0.3670,0.3670,1396880,0.0000,1.0000
2018-07-06,0.3750,0.3900,0.3702,0.3760,0.3760,1300698,0.0000,1.0000
2018-07-05,0.3950,0.3954,0.3712,0.3759,0.3759,1282476,0.0000,1.0000
2018-07-03,0.4000,0.4100,0.3850,0.3909,0.3909,1678455,0.0000,1.0000
2018-07-02,0.4000,0.4090,0.3800,0.3812,0.3812,1868148,0.0000,1.0000
2018-06-29,0.3790,0.4200,0.3450,0.3872,0.3872,4180098,0.0000,1.0000
2018-06-28,0.3400,0.4590,0.3100,0.3710,0.3710,9356042,0.0000,1.0000
2018-06-27,0.3600,0.3700,0.3400,0.3500,0.3500,2507422,0.0000,1.0000
2018-06-26,0.3800,0.3820,0.3623,0.3700,0.3700,2266875,0.0000,1.0000
2018-06-25,0.3800,0.3963,0.3629,0.3820,0.3820,2030534,0.0000,1.0000
2018-06-22,0.3900,0.3949,0.3678,0.3750,0.3750,2250295,0.0000,1.0000
2018-06-21,0.3910,0.4100,0.3875,0.3942,0.3942,2469815,0.0000,1.0000
2018-06-20,0.3990,0.4100,0.3950,0.4090,0.4090,1540072,0.0000,1.0000
2018-06-19,0.4047,0.4200,0.3950,0.4080,0.4080,2119352,0.0000,1.0000
2018-06-18,0.4100,0.4280,0.3986,0.4141,0.4141,2180079,0.0000,1.0000
2018-06-15,0.3900,0.4100,0.3801,0.4099,0.4099,2151649,0.0000,1.0000
2018-06-14,0.4100,0.4100,0.3620,0.3861,0.3861,4002096,0.0000,1.0000
2018-06-13,0.4350,0.4450,0.4010,0.4040,0.4040,4931161,0.0000,1.0000
2018-06-12,0.4500,0.4520,0.4302,0.4450,0.4450,2503145,0.0000,1.0000
2018-06-11,0.4600,0.4750,0.4500,0.4521,0.4521,2281399,0.0000,1.0000
2018-06-08,0.4571,0.4700,0.4500,0.4680,0.4680,2955419,0.0000,1.0000
2018-06-07,0.4500,0.4750,0.4200,0.4637,0.4637,3656222,0.0000,1.0000
2018-06-06,0.4500,0.4755,0.4406,0.4604,0.4604,4749960,0.0000,1.0000
2018-06-05,0.4900,0.5089,0.4600,0.4850,0.4850,4688358,0.0000,1.0000
2018-06-04,0.5000,0.5200,0.4750,0.4900,0.4900,7526383,0.0000,1.0000
2018-06-01,0.4850,0.4900,0.4201,0.4500,0.4500,8014553,0.0000,1.0000
2018-05-31,0.3800,0.4900,0.3700,0.4740,0.4740,23125761,0.0000,1.0000
2018-05-30,0.4000,0.4092,0.3140,0.3256,0.3256,12394791,0.0000,1.0000
2018-05-29,0.4800,0.4801,0.3500,0.3912,0.3912,18787129,0.0000,1.0000
2018-05-25,0.6000,0.6100,0.5851,0.5890,0.5890,3482512,0.0000,1.0000
2018-05-24,0.6000,0.6000,0.5612,0.5832,0.5832,3399775,0.0000,1.0000
2018-05-23,0.5901,0.6250,0.5421,0.5940,0.5940,6595536,0.0000,1.0000
2018-05-22,0.6245,0.6300,0.5700,0.5985,0.5985,7303286,0.0000,1.0000
2018-05-21,0.6916,0.7400,0.6300,0.6572,0.6572,16102032,0.0000,1.0000
2018-05-18,0.5290,0.6961,0.5250,0.6000,0.6000,25879147,0.0000,1.0000
2018-05-17,0.5000,0.5300,0.4922,0.5090,0.5090,3011960,0.0000,1.0000
2018-05-16,0.5198,0.5390,0.4695,0.5300,0.5300,5530965,0.0000,1.0000
2018-05-15,0.4225,0.5330,0.4200,0.5198,0.5198,9818266,0.0000,1.0000
2018-05-14,0.4200,0.4400,0.4105,0.4380,0.4380,4624841,0.0000,1.0000
2018-05-11,0.4600,0.4650,0.4120,0.4421,0.4421,4141457,0.0000,1.0000
2018-05-10,0.4800,0.4875,0.4560,0.4630,0.4630,2715197,0.0000,1.0000
2018-05-09,0.4900,0.4960,0.4526,0.4762,0.4762,5157022,0.0000,1.0000
2018-05-08,0.5100,0.5100,0.4800,0.4825,0.4825,4391814,0.0000,1.0000
2018-05-07,0.5200,0.5210,0.5100,0.5129,0.5129,2325764,0.0000,1.0000
2018-05-04,0.5200,0.5290,0.5090,0.5151,0.5151,2881072,0.0000,1.0000
2018-05-03,0.5350,0.5350,0.5050,0.5168,0.5168,3014015,0.0000,1.0000
2018-05-02,0.5200,0.5330,0.5151,0.5151,0.5151,3407300,0.0000,1.0000
2018-05-01,0.5300,0.5390,0.5150,0.5330,0.5330,3186494,0.0000,1.0000
2018-04-30,0.5413,0.5550,0.5250,0.5300,0.5300,3104713,0.0000,1.0000
2018-04-27,0.5500,0.5525,0.5130,0.5460,0.5460,3737016,0.0000,1.0000
2018-04-26,0.5200,0.5550,0.5020,0.5500,0.5500,8517427,0.0000,1.0000
2018-04-25,0.5114,0.5114,0.4700,0.4924,0.4924,6243505,0.0000,1.0000
2018-04-24,0.5202,0.5290,0.5020,0.5114,0.5114,3852125,0.0000,1.0000
2018-04-23,0.5550,0.5550,0.5250,0.5365,0.5365,3334265,0.0000,1.0000
2018-04-20,0.5600,0.5600,0.5320,0.5501,0.5501,2783052,0.0000,1.0000
2018-04-19,0.5700,0.5700,0.5382,0.5411,0.5411,3311736,0.0000,1.0000
2018-04-18,0.5300,0.5760,0.5102,0.5551,0.5551,7165893,0.0000,1.0000
2018-04-17,0.5512,0.5639,0.5250,0.5347,0.5347,5688740,0.0000,1.0000
2018-04-16,0.5600,0.5695,0.5380,0.5425,0.5425,3569332,0.0000,1.0000
2018-04-13,0.5500,0.5590,0.5300,0.5545,0.5545,2751971,0.0000,1.0000
2018-04-12,0.5700,0.5950,0.5460,0.5628,0.5628,8907932,0.0000,1.0000
2018-04-11,0.5250,0.5650,0.5210,0.5244,0.5244,5579165,0.0000,1.0000
2018-04-10,0.5310,0.5800,0.4554,0.5599,0.5599,13026990,0.0000,1.0000
2018-04-09,0.6000,0.6048,0.5326,0.5491,0.5491,9743028,0.0000,1.0000
2018-04-06,0.6215,0.6225,0.5900,0.6060,0.6060,7943170,0.0000,1.0000
2018-04-05,0.6200,0.6420,0.5900,0.6350,0.6350,13015199,0.0000,1.0000
2018-04-04,0.5281,0.6400,0.5200,0.5690,0.5690,20350917,0.0000,1.0000
2018-04-03,0.7300,0.8000,0.6301,0.6459,0.6459,22731531,0.0000,1.0000
2018-04-02,0.8405,0.9000,0.8010,0.8450,0.8450,13903872,0.0000,1.0000
2018-03-29,0.8300,0.8400,0.7800,0.8299,0.8299,7838983,0.0000,1.0000
2018-03-28,0.8688,0.8700,0.7005,0.8299,0.8299,14387756,0.0000,1.0000
2018-03-27,0.9375,0.9375,0.8275,0.8789,0.8789,10302459,0.0000,1.0000
2018-03-26,0.8900,0.9803,0.8623,0.9200,0.9200,26318251,0.0000,1.0000
2018-03-23,0.8200,0.8200,0.7900,0.7970,0.7970,4323054,0.0000,1.0000
2018-03-22,0.8200,0.8303,0.8000,0.8130,0.8130,5859908,0.0000,1.0000
2018-03-21,0.7800,0.8175,0.7800,0.8040,0.8040,5861124,0.0000,1.0000
2018-03-20,0.8200,0.8500,0.7650,0.8208,0.8208,17224195,0.0000,1.0000
2018-03-19,0.7451,0.8348,0.7250,0.8200,0.8200,28050567,0.0000,1.0000
2018-03-16,0.6656,0.7400,0.6600,0.7072,0.7072,10925167,0.0000,1.0000
2018-03-15,0.6751,0.6800,0.6350,0.6800,0.6800,5580483,0.0000,1.0000
2018-03-14,0.6991,0.6991,0.6250,0.6800,0.6800,7105806,0.0000,1.0000
2018-03-13,0.7000,0.7000,0.6760,0.6900,0.6900,5050362,0.0000,1.0000
2018-03-12,0.6900,0.6980,0.6650,0.6950,0.6950,10083361,0.0000,1.0000
2018-03-09,0.6600,0.6975,0.6400,0.6600,0.6600,16632404,0.0000,1.0000
2018-03-08,0.6200,0.6200,0.5505,0.5800,0.5800,19477246,0.0000,1.0000
2018-03-07,0.6600,0.6690,0.6250,0.6350,0.6350,9464642,0.0000,1.0000
2018-03-06,0.7057,0.7199,0.6606,0.6929,0.6929,12545498,0.0000,1.0000
2018-03-05,0.7000,0.7424,0.6800,0.7200,0.7200,10669836,0.0000,1.0000
2018-03-02,0.7160,0.7770,0.6850,0.7329,0.7329,14803884,0.0000,1.0000
2018-03-01,0.8050,0.8094,0.6811,0.7620,0.7620,18839818,0.0000,1.0000
2018-02-28,0.7889,0.8850,0.6000,0.7300,0.7300,54947475,0.0000,1.0000
2018-02-27,0.6447,0.8000,0.6325,0.7500,0.7500,57994080,0.0000,1.0000
2018-02-26,0.5300,0.5889,0.5100,0.5700,0.5700,25259822,0.0000,1.0000
2018-02-23,0.5500,0.5500,0.4816,0.5050,0.5050,16273328,0.0000,1.0000
2018-02-22,0.5200,0.5950,0.5100,0.5320,0.5320,37636421,0.0000,1.0000
2018-02-21,0.4220,0.5050,0.4200,0.4989,0.4989,28694100,0.0000,1.0000
2018-02-20,0.4100,0.4289,0.3950,0.4117,0.4117,6267767,0.0000,1.0000
2018-02-16,0.4000,0.4000,0.3822,0.3998,0.3998,4566324,0.0000,1.0000
2018-02-15,0.4097,0.4100,0.3850,0.3940,0.3940,5629347,0.0000,1.0000
2018-02-14,0.3950,0.4300,0.3810,0.3992,0.3992,7550295,0.0000,1.0000
2018-02-13,0.4100,0.4102,0.3701,0.3877,0.3877,7534619,0.0000,1.0000
2018-02-12,0.4324,0.4400,0.4000,0.4096,0.4096,6975798,0.0000,1.0000
2018-02-09,0.4750,0.4880,0.4050,0.4324,0.4324,16434756,0.0000,1.0000
2018-02-08,0.4470,0.4788,0.4250,0.4418,0.4418,15937948,0.0000,1.0000
2018-02-07,0.3850,0.4550,0.3847,0.4100,0.4100,22564709,0.0000,1.0000
2018-02-06,0.3600,0.4400,0.3300,0.3690,0.3690,20577757,0.0000,1.0000
2018-02-05,0.4500,0.5400,0.3900,0.4300,0.4300,42358402,0.0000,1.0000
2018-02-02,0.3770,0.6300,0.3770,0.4950,0.4950,117148326,0.0000,1.0000
2018-02-01,0.2925,0.3940,0.2900,0.3610,0.3610,57123052,0.0000,1.0000
2018-01-31,0.2550,0.2845,0.2480,0.2813,0.2813,14559595,0.0000,1.0000
2018-01-30,0.2700,0.2700,0.2460,0.2521,0.2521,6429293,0.0000,1.0000
2018-01-29,0.2500,0.2670,0.2380,0.2570,0.2570,11976698,0.0000,1.0000
2018-01-26,0.2500,0.2550,0.2360,0.2380,0.2380,6812124,0.0000,1.0000
2018-01-25,0.2500,0.2525,0.2310,0.2377,0.2377,6160492,0.0000,1.0000
2018-01-24,0.2700,0.2700,0.2420,0.2445,0.2445,8810441,0.0000,1.0000
2018-01-23,0.2400,0.2700,0.2350,0.2599,0.2599,20668307,0.0000,1.0000
2018-01-22,0.2400,0.2400,0.2100,0.2351,0.2351,7928829,0.0000,1.0000
2018-01-19,0.2575,0.2590,0.2220,0.2303,0.2303,10351574,0.0000,1.0000
2018-01-18,0.2850,0.3000,0.2200,0.2450,0.2450,28984688,0.0000,1.0000
2018-01-17,0.2310,0.3050,0.2270,0.3000,0.3000,61529760,0.0000,1.0000
2018-01-16,0.2000,0.2195,0.1878,0.2070,0.2070,21490474,0.0000,1.0000
2018-01-12,0.1900,0.1990,0.1741,0.1834,0.1834,12630459,0.0000,1.0000
2018-01-11,0.1700,0.1847,0.1600,0.1798,0.1798,10734485,0.0000,1.0000
2018-01-10,0.1770,0.1800,0.1535,0.1650,0.1650,13878890,0.0000,1.0000
2018-01-09,0.1600,0.2098,0.1576,0.1949,0.1949,58173647,0.0000,1.0000
2018-01-08,0.1496,0.1630,0.1405,0.1501,0.1501,8575567,0.0000,1.0000
2018-01-05,0.1420,0.1470,0.1321,0.1435,0.1435,2588655,0.0000,1.0000
2018-01-04,0.1400,0.1439,0.1375,0.1393,0.1393,1564455,0.0000,1.0000
2018-01-03,0.1290,0.1449,0.1260,0.1370,0.1370,4606380,0.0000,1.0000
2018-01-02,0.1390,0.1395,0.1280,0.1281,0.1281,2835275,0.0000,1.0000
2017-12-29,0.1374,0.1400,0.1310,0.1340,0.1340,1729144,0.0000,1.0000
2017-12-28,0.1470,0.1479,0.1332,0.1375,0.1375,2269829,0.0000,1.0000
2017-12-27,0.1300,0.1550,0.1285,0.1401,0.1401,8409194,0.0000,1.0000
2017-12-26,0.1330,0.1350,0.1250,0.1288,0.1288,1620372,0.0000,1.0000
2017-12-22,0.1390,0.1400,0.1220,0.1310,0.1310,2207064,0.0000,1.0000
2017-12-21,0.1490,0.1490,0.1350,0.1372,0.1372,2247823,0.0000,1.0000
2017-12-20,0.1480,0.1480,0.1313,0.1430,0.1430,6781755,0.0000,1.0000
2017-12-19,0.1400,0.1550,0.1310,0.1420,0.1420,16186727,0.0000,1.0000
2017-12-18,0.4000,0.4500,0.3700,0.3950,0.3950,317011,0.0000,1.0000
2017-12-15,0.3700,0.4196,0.3699,0.4100,0.4100,303846,0.0000,1.0000
2017-12-14,0.3841,0.3902,0.3600,0.3800,0.3800,172234,0.0000,1.0000
2017-12-13,0.3700,0.4000,0.3600,0.3836,0.3836,181108,0.0000,1.0000
2017-12-12,0.4000,0.4480,0.3800,0.3924,0.3924,221989,0.0000,1.0000
2017-12-11,0.4250,0.4600,0.4000,0.4030,0.4030,398486,0.0000,1.0000
2017-12-08,0.4570,0.6400,0.4204,0.4600,0.4600,1018681,0.0000,1.0000
2017-12-07,0.4456,0.5085,0.4015,0.4570,0.4570,167086,0.0000,1.0000
2017-12-06,0.4800,0.4800,0.4100,0.4401,0.4401,253014,0.0000,1.0000
2017-12-05,0.5500,0.5500,0.4505,0.4697,0.4697,578999,0.0000,1.0000
2017-12-04,0.4500,0.6200,0.4500,0.6000,0.6000,1383133,0.0000,1.0000
2017-12-01,0.4825,0.4924,0.3925,0.4400,0.4400,334234,0.0000,1.0000
2017-11-30,0.5000,0.5200,0.4618,0.4900,0.4900,104728,0.0000,1.0000
2017-11-29,0.5145,0.5200,0.4700,0.5000,0.5000,96275,0.0000,1.0000
2017-11-28,0.5091,0.5200,0.4501,0.4900,0.4900,173695,0.0000,1.0000
2017-11-27,0.5599,0.5599,0.3600,0.4849,0.4849,296744,0.0000,1.0000
2017-11-24,0.5500,0.5900,0.5500,0.5700,0.5700,83679,0.0000,1.0000
2017-11-22,0.5990,0.5990,0.5150,0.5410,0.5410,303038,0.0000,1.0000
2017-11-21,0.6150,0.6260,0.5560,0.5650,0.5650,197350,0.0000,1.0000
2017-11-20,0.6200,0.6480,0.6000,0.6140,0.6140,173628,0.0000,1.0000
2017-11-17,0.6400,0.6440,0.6120,0.6200,0.6200,150565,0.0000,1.0000
2017-11-16,0.6300,0.6400,0.6200,0.6380,0.6380,185954,0.0000,1.0000
2017-11-15,0.7800,0.7800,0.6100,0.6450,0.6450,424566,0.0000,1.0000
2017-11-14,0.7800,0.8280,0.7500,0.7900,0.7900,453005,0.0000,1.0000
2017-11-13,0.7600,0.7600,0.7380,0.7480,0.7480,97187,0.0000,1.0000
2017-11-10,0.7200,0.7400,0.7000,0.7300,0.7300,102415,0.0000,1.0000
2017-11-09,0.7000,0.7400,0.7000,0.7020,0.7020,69413,0.0000,1.0000
2017-11-08,0.7250,0.7500,0.6800,0.6990,0.6990,244563,0.0000,1.0000
2017-11-07,0.7500,0.7600,0.7300,0.7430,0.7430,85289,0.0000,1.0000
2017-11-06,0.7510,0.7700,0.7300,0.7690,0.7690,94685,0.0000,1.0000
2017-11-03,0.7640,0.8000,0.7210,0.7700,0.7700,243704,0.0000,1.0000
2017-11-02,0.7940,0.8000,0.7600,0.7800,0.7800,131399,0.0000,1.0000
2017-11-01,0.7900,0.8300,0.7820,0.8000,0.8000,110987,0.0000,1.0000
2017-10-31,0.8070,0.8300,0.7800,0.8150,0.8150,131237,0.0000,1.0000
2017-10-30,0.8300,0.8340,0.8010,0.8200,0.8200,111828,0.0000,1.0000
2017-10-27,0.8300,0.8380,0.8100,0.8300,0.8300,128083,0.0000,1.0000
2017-10-26,0.8200,0.8500,0.8050,0.8250,0.8250,214123,0.0000,1.0000
2017-10-25,0.9020,0.9400,0.8000,0.8440,0.8440,366763,0.0000,1.0000
2017-10-24,0.8000,1.0800,0.7800,0.8700,0.8700,2426168,0.0000,1.0000
2017-10-23,0.8210,0.8290,0.7900,0.8200,0.8200,139180,0.0000,1.0000
2017-10-20,0.8040,0.8500,0.8000,0.8210,0.8210,163178,0.0000,1.0000
2017-10-19,0.8400,0.8800,0.7600,0.8400,0.8400,313355,0.0000,1.0000
2017-10-18,0.9000,0.9300,0.8500,0.8600,0.8600,206661,0.0000,1.0000
2017-10-17,0.9000,0.9380,0.8600,0.8800,0.8800,164352,0.0000,1.0000
2017-10-16,1.0800,1.0950,0.8700,0.8900,0.8900,1030937,0.0000,1.0000
2017-10-13,1.3000,1.3200,1.0200,1.0520,1.0520,892118,0.0000,1.0000
2017-10-12,0.9200,1.8200,0.9050,1.2600,1.2600,5561397,0.0000,1.0000
2017-10-11,0.9100,0.9100,0.8620,0.8620,0.8620,59801,0.0000,1.0000
2017-10-10,0.9200,0.9200,0.8620,0.8990,0.8990,84803,0.0000,1.0000
2017-10-09,0.8830,0.9400,0.8550,0.9100,0.9100,318337,0.0000,1.0000
2017-10-06,0.8400,0.8800,0.8400,0.8650,0.8650,68990,0.0000,1.0000
2017-10-05,0.8500,0.9000,0.8500,0.8650,0.8650,109769,0.0000,1.0000
2017-10-04,0.8000,0.8200,0.8000,0.8080,0.8080,75991,0.0000,1.0000
2017-10-03,0.8500,0.8500,0.8000,0.8000,0.8000,39647,0.0000,1.0000
2017-10-02,0.8100,0.8400,0.8010,0.8200,0.8200,50413,0.0000,1.0000
2017-09-29,0.8500,0.8500,0.6990,0.8100,0.8100,245185,0.0000,1.0000
2017-09-28,0.8500,0.9000,0.8400,0.8560,0.8560,82668,0.0000,1.0000
2017-09-27,0.8900,0.9000,0.8500,0.8750,0.8750,32551,0.0000,1.0000
2017-09-26,0.9100,0.9130,0.8620,0.8800,0.8800,32740,0.0000,1.0000
2017-09-25,0.9000,0.9200,0.9000,0.9100,0.9100,14718,0.0000,1.0000
2017-09-22,0.9050,0.9200,0.9000,0.9100,0.9100,48391,0.0000,1.0000
2017-09-21,0.9400,0.9400,0.9000,0.9000,0.9000,30398,0.0000,1.0000
2017-09-20,0.9430,0.9500,0.9000,0.9160,0.9160,64557,0.0000,1.0000
2017-09-19,0.9200,0.9780,0.9000,0.9400,0.9400,74503,0.0000,1.0000
2017-09-18,1.0200,1.0200,0.8800,0.9500,0.9500,177573,0.0000,1.0000
2017-09-15,1.0000,1.0800,0.9500,0.9500,0.9500,229457,0.0000,1.0000
2017-09-14,1.0000,1.0000,0.9910,0.9930,0.9930,56483,0.0000,1.0000
2017-09-13,0.9970,1.0080,0.9700,1.0000,1.0000,48120,0.0000,1.0000
2017-09-12,0.9500,1.0100,0.9500,0.9970,0.9970,244796,0.0000,1.0000
2017-09-11,0.9600,0.9600,0.9500,0.9600,0.9600,30455,0.0000,1.0000
2017-09-08,0.9600,0.9800,0.9300,0.9600,0.9600,47978,0.0000,1.0000
2017-09-07,0.9900,0.9900,0.9300,0.9600,0.9600,12623,0.0000,1.0000
2017-09-06,0.9700,0.9800,0.9210,0.9690,0.9690,30118,0.0000,1.0000
2017-09-05,0.9800,0.9900,0.9301,0.9800,0.9800,47789,0.0000,1.0000
2017-09-01,0.9540,0.9800,0.9420,0.9800,0.9800,15964,0.0000,1.0000
2017-08-31,0.9530,1.0000,0.9350,0.9350,0.9350,72919,0.0000,1.0000
2017-08-30,0.9910,1.0000,0.9500,0.9530,0.9530,57142,0.0000,1.0000
2017-08-29,0.9500,1.0000,0.9400,0.9900,0.9900,86232,0.0000,1.0000
2017-08-28,0.9500,0.9550,0.9000,0.9500,0.9500,91916,0.0000,1.0000
2017-08-25,1.0000,1.0000,0.9100,0.9490,0.9490,67096,0.0000,1.0000
2017-08-24,0.9600,0.9940,0.9000,0.9800,0.9800,53870,0.0000,1.0000
2017-08-23,0.9900,1.0000,0.8650,0.9200,0.9200,16891,0.0000,1.0000
2017-08-22,1.0000,1.0000,0.9500,0.9500,0.9500,26967,0.0000,1.0000
2017-08-21,1.0000,1.0100,0.9900,0.9940,0.9940,11810,0.0000,1.0000
2017-08-18,1.0650,1.0800,1.0000,1.0500,1.0500,46897,0.0000,1.0000
2017-08-17,1.0500,1.0900,1.0500,1.0500,1.0500,106959,0.0000,1.0000
2017-08-16,1.0000,1.0500,0.9500,1.0300,1.0300,35758,0.0000,1.0000
2017-08-15,1.0400,1.0400,0.9500,1.0000,1.0000,15106,0.0000,1.0000
2017-08-14,1.0000,1.0300,0.9610,1.0300,1.0300,38701,0.0000,1.0000
2017-08-11,0.8800,1.0500,0.8800,1.0000,1.0000,58901,0.0000,1.0000
2017-08-10,0.9100,0.9100,0.8800,0.8800,0.8800,54021,0.0000,1.0000
2017-08-09,0.9800,0.9800,0.9100,0.9100,0.9100,15691,0.0000,1.0000
2017-08-08,0.9240,0.9750,0.9240,0.9500,0.9500,34050,0.0000,1.0000
2017-08-07,1.0000,1.0400,0.9100,0.9200,0.9200,53316,0.0000,1.0000
2017-08-04,1.0000,1.0400,0.9000,0.9500,0.9500,151239,0.0000,1.0000
2017-08-03,0.9500,0.9930,0.8740,0.9780,0.9780,151239,0.0000,1.0000
2017-08-02,1.0500,1.0500,0.8500,0.8740,0.8740,105305,0.0000,1.0000
2017-08-01,1.1000,1.1500,1.0000,1.0000,1.0000,176061,0.0000,1.0000
2017-07-31,1.1500,1.1500,1.1000,1.1000,1.1000,24251,0.0000,1.0000
2017-07-28,1.1500,1.2000,1.1000,1.1000,1.1000,71706,0.0000,1.0000
2017-07-27,1.1500,1.1950,1.1500,1.1500,1.1500,22980,0.0000,1.0000
2017-07-26,1.2000,1.2000,1.1500,1.2000,1.2000,37398,0.0000,1.0000
2017-07-25,1.1500,1.2000,1.1500,1.1500,1.1500,29618,0.0000,1.0000
2017-07-24,1.2000,1.2000,1.1500,1.1750,1.1750,37689,0.0000,1.0000
2017-07-21,1.2000,1.2000,1.1500,1.2000,1.2000,114491,0.0000,1.0000
2017-07-20,1.1500,1.2000,1.1500,1.1500,1.1500,101791,0.0000,1.0000
2017-07-19,1.2000,1.2000,1.1500,1.1500,1.1500,121339,0.0000,1.0000
2017-07-18,1.2000,1.2000,1.1500,1.1500,1.1500,75389,0.0000,1.0000
2017-07-17,1.1500,1.2000,1.1500,1.1500,1.1500,94260,0.0000,1.0000
2017-07-14,1.2000,1.2250,1.1500,1.1500,1.1500,57416,0.0000,1.0000
2017-07-13,1.2000,1.2500,1.1500,1.2000,1.2000,104187,0.0000,1.0000
2017-07-12,1.2000,1.2000,1.1500,1.1750,1.1750,35566,0.0000,1.0000
2017-07-11,1.2000,1.2500,1.1500,1.1500,1.1500,109633,0.0000,1.0000
2017-07-10,1.2000,1.2450,1.1500,1.2000,1.2000,121195,0.0000,1.0000
2017-07-07,1.2000,1.2000,1.1500,1.2000,1.2000,48354,0.0000,1.0000
2017-07-06,1.2500,1.2500,1.1680,1.1750,1.1750,86936,0.0000,1.0000
2017-07-05,1.2000,1.2500,1.2000,1.2000,1.2000,118592,0.0000,1.0000
2017-07-03,1.3000,1.3000,1.2500,1.2500,1.2500,16926,0.0000,1.0000
2017-06-30,1.2950,1.3000,1.2500,1.2500,1.2500,10431,0.0000,1.0000
2017-06-29,1.2500,1.3000,1.2500,1.2500,1.2500,11359,0.0000,1.0000
2017-06-28,1.2950,1.3000,1.2500,1.2750,1.2750,12682,0.0000,1.0000
2017-06-27,1.2500,1.3000,1.2000,1.3000,1.3000,58648,0.0000,1.0000
2017-06-26,1.2630,1.3000,1.2500,1.2770,1.2770,46067,0.0000,1.0000
2017-06-23,1.2500,1.3000,1.2000,1.2000,1.2000,52263,0.0000,1.0000
2017-06-22,1.2000,1.3000,1.2000,1.2000,1.2000,26903,0.0000,1.0000
2017-06-21,1.2500,1.2500,1.2500,1.2500,1.2500,49259,0.0000,1.0000
2017-06-20,1.2500,1.3000,1.2500,1.2500,1.2500,18969,0.0000,1.0000
2017-06-19,1.2500,1.2500,1.2000,1.2500,1.2500,28142,0.0000,1.0000
2017-06-16,1.2500,1.3000,1.1500,1.2500,1.2500,49836,0.0000,1.0000
2017-06-15,1.2500,1.3000,1.2000,1.3000,1.3000,39284,0.0000,1.0000
2017-06-14,1.2500,1.3000,1.2500,1.2500,1.2500,13169,0.0000,1.0000
2017-06-13,1.2500,1.2500,1.2000,1.2500,1.2500,30391,0.0000,1.0000
2017-06-12,1.3000,1.3000,1.2000,1.2000,1.2000,85216,0.0000,1.0000
2017-06-09,1.3000,1.3500,1.3000,1.3050,1.3050,33715,0.0000,1.0000
2017-06-08,1.3500,1.3500,1.3000,1.3000,1.3000,13952,0.0000,1.0000
2017-06-07,1.3500,1.4000,1.3000,1.3000,1.3000,55567,0.0000,1.0000
2017-06-06,1.3500,1.4000,1.3500,1.3500,1.3500,31401,0.0000,1.0000
2017-06-05,1.4200,1.4500,1.3500,1.3500,1.3500,45115,0.0000,1.0000
2017-06-02,1.4000,1.4500,1.4000,1.4000,1.4000,11861,0.0000,1.0000
2017-06-01,1.4500,1.4500,1.4000,1.4000,1.4000,51851,0.0000,1.0000
2017-05-31,1.4500,1.5000,1.4000,1.4000,1.4000,27287,0.0000,1.0000
2017-05-30,1.4940,1.5000,1.4500,1.4500,1.4500,3158,0.0000,1.0000
2017-05-26,1.4550,1.5000,1.4500,1.4500,1.4500,11116,0.0000,1.0000
2017-05-25,1.5000,1.5000,1.4500,1.4500,1.4500,14560,0.0000,1.0000
2017-05-24,1.4980,1.5000,1.4500,1.4500,1.4500,5469,0.0000,1.0000
2017-05-23,1.4770,1.5500,1.4600,1.5000,1.5000,20614,0.0000,1.0000
2017-05-22,1.5000,1.5500,1.4500,1.4500,1.4500,47091,0.0000,1.0000
2017-05-19,1.5000,1.5500,1.4500,1.5500,1.5500,108314,0.0000,1.0000
2017-05-18,1.5000,1.5500,1.5000,1.5000,1.5000,31558,0.0000,1.0000
2017-05-17,1.5000,1.5500,1.5000,1.5000,1.5000,61089,0.0000,1.0000
2017-05-16,1.5500,1.6250,1.5000,1.5000,1.5000,103597,0.0000,1.0000
2017-05-15,1.6500,1.7500,1.6250,1.7500,1.7500,47241,0.0000,1.0000
2017-05-12,1.6000,1.7500,1.5500,1.6500,1.6500,87600,0.0000,1.0000
2017-05-11,1.5800,1.5950,1.5500,1.5750,1.5750,6800,0.0000,1.0000
2017-05-10,1.5500,1.6000,1.5500,1.5790,1.5790,32700,0.0000,1.0000
2017-05-09,1.6000,1.6500,1.5500,1.6000,1.6000,18300,0.0000,1.0000
2017-05-08,1.5500,1.6500,1.5000,1.6500,1.6500,58300,0.0000,1.0000
2017-05-05,1.5000,1.5500,1.5000,1.5500,1.5500,19900,0.0000,1.0000
2017-05-04,1.5500,1.6000,1.5000,1.5500,1.5500,98100,0.0000,1.0000
2017-05-03,1.5500,1.6000,1.5500,1.5500,1.5500,46700,0.0000,1.0000
2017-05-02,1.7000,1.7000,1.5000,1.5500,1.5500,148800,0.0000,1.0000
2017-05-01,1.6000,1.7000,1.6000,1.6000,1.6000,116100,0.0000,1.0000
2017-04-28,1.6500,1.7000,1.6250,1.6500,1.6500,92000,0.0000,1.0000
2017-04-27,1.7000,1.7250,1.6500,1.6500,1.6500,102300,0.0000,1.0000
2017-04-26,1.7500,1.8000,1.6500,1.7000,1.7000,158000,0.0000,1.0000
2017-04-25,1.8000,1.8000,1.7500,1.7500,1.7500,140000,0.0000,1.0000
2017-04-24,1.8500,2.1000,1.7500,1.8000,1.8000,335700,0.0000,1.0000
2017-04-21,1.7500,1.8500,1.7050,1.8000,1.8000,162800,0.0000,1.0000
2017-04-20,1.7000,1.7500,1.6000,1.7000,1.7000,101100,0.0000,1.0000
2017-04-19,1.7000,1.7500,1.6500,1.7000,1.7000,70500,0.0000,1.0000
2017-04-18,1.6500,1.7500,1.6500,1.7250,1.7250,56600,0.0000,1.0000
2017-04-17,1.6000,1.7000,1.6000,1.6500,1.6500,101400,0.0000,1.0000
2017-04-13,1.7000,1.7000,1.6000,1.6000,1.6000,84600,0.0000,1.0000
2017-04-12,1.8000,1.8000,1.7000,1.7000,1.7000,173100,0.0000,1.0000
2017-04-11,1.8000,1.9000,1.7000,1.8000,1.8000,379200,0.0000,1.0000
2017-04-10,1.6500,1.7000,1.6000,1.6740,1.6740,221000,0.0000,1.0000
2017-04-07,1.6500,1.6500,1.6000,1.6250,1.6250,101000,0.0000,1.0000
2017-04-06,1.6000,1.6500,1.6000,1.6000,1.6000,91200,0.0000,1.0000
2017-04-05,1.6000,1.6500,1.6000,1.6000,1.6000,120100,0.0000,1.0000
2017-04-04,1.6500,1.6550,1.6000,1.6000,1.6000,118100,0.0000,1.0000
2017-04-03,1.7500,1.7950,1.6000,1.7000,1.7000,337200,0.0000,1.0000
2017-03-31,1.6500,1.8500,1.6000,1.8000,1.8000,562400,0.0000,1.0000
2017-03-30,2.2000,2.2500,2.0000,2.1500,2.1500,652000,0.0000,1.0000
2017-03-29,2.2500,2.2950,1.8500,1.9500,1.9500,1066000,0.0000,1.0000
2017-03-28,2.2500,2.9000,1.8000,2.3500,2.3500,7330700,0.0000,1.0000
2017-03-27,1.4000,1.4500,1.3500,1.4000,1.4000,89100,0.0000,1.0000
2017-03-24,1.3000,1.5000,1.2750,1.4000,1.4000,136900,0.0000,1.0000
2017-03-23,1.2500,1.4000,1.2000,1.3000,1.3000,121900,0.0000,1.0000
2017-03-22,1.2500,1.3000,1.2000,1.2500,1.2500,69500,0.0000,1.0000
2017-03-21,1.2500,1.3000,1.2000,1.2000,1.2000,37600,0.0000,1.0000
2017-03-20,1.2500,1.3000,1.2000,1.2000,1.2000,43100,0.0000,1.0000
2017-03-17,1.2500,1.3000,1.2500,1.3000,1.3000,15700,0.0000,1.0000
2017-03-16,1.2000,1.3250,1.2000,1.2500,1.2500,56500,0.0000,1.0000
2017-03-15,1.2000,1.2500,1.2000,1.2000,1.2000,6600,0.0000,1.0000
2017-03-14,1.2000,1.3000,1.2000,1.2500,1.2500,68000,0.0000,1.0000
2017-03-13,1.3000,1.3000,1.2000,1.2000,1.2000,53700,0.0000,1.0000
2017-03-10,1.2500,1.2500,1.2000,1.2500,1.2500,19500,0.0000,1.0000
2017-03-09,1.2500,1.3000,1.2500,1.2500,1.2500,25100,0.0000,1.0000
2017-03-08,1.2500,1.3000,1.2500,1.2500,1.2500,34600,0.0000,1.0000
2017-03-07,1.3000,1.3000,1.2500,1.2500,1.2500,20300,0.0000,1.0000
2017-03-06,1.3000,1.3500,1.2500,1.3000,1.3000,42200,0.0000,1.0000
2017-03-03,1.3000,1.3000,1.2500,1.2500,1.2500,23800,0.0000,1.0000
2017-03-02,1.3000,1.3500,1.3000,1.3000,1.3000,35600,0.0000,1.0000
2017-03-01,1.2500,1.3500,1.2500,1.3000,1.3000,37000,0.0000,1.0000
2017-02-28,1.3000,1.3100,1.2500,1.3000,1.3000,42500,0.0000,1.0000
2017-02-27,1.3000,1.3000,1.2500,1.3000,1.3000,11200,0.0000,1.0000
2017-02-24,1.3500,1.3500,1.2500,1.2500,1.2500,23800,0.0000,1.0000
2017-02-23,1.2500,1.3500,1.2000,1.3000,1.3000,98300,0.0000,1.0000
2017-02-22,1.3000,1.3000,1.2000,1.2000,1.2000,69800,0.0000,1.0000
2017-02-21,1.3500,1.3570,1.2710,1.3500,1.3500,93500,0.0000,1.0000
2017-02-17,1.4000,1.4500,1.3500,1.3500,1.3500,162000,0.0000,1.0000
2017-02-16,1.3000,1.5000,1.3000,1.3500,1.3500,781100,0.0000,1.0000
2017-02-15,1.2000,1.2500,1.1500,1.2000,1.2000,31800,0.0000,1.0000
2017-02-14,1.2500,1.2500,1.1500,1.1500,1.1500,62300,0.0000,1.0000
2017-02-13,1.2250,1.2270,1.2000,1.2000,1.2000,30600,0.0000,1.0000
2017-02-10,1.2000,1.2500,1.2000,1.2250,1.2250,65200,0.0000,1.0000
2017-02-09,1.2000,1.2500,1.2000,1.2000,1.2000,64100,0.0000,1.0000
2017-02-08,1.2500,1.2750,1.2000,1.2500,1.2500,27300,0.0000,1.0000
2017-02-07,1.2000,1.3500,1.2000,1.2500,1.2500,52400,0.0000,1.0000
2017-02-06,1.2500,1.2500,1.2000,1.2000,1.2000,16300,0.0000,1.0000
2017-02-03,1.2500,1.2500,1.2000,1.2500,1.2500,17700,0.0000,1.0000
2017-02-02,1.2000,1.2500,1.2000,1.2500,1.2500,28200,0.0000,1.0000
2017-02-01,1.3000,1.3000,1.2000,1.2000,1.2000,43200,0.0000,1.0000
2017-01-31,1.2500,1.2500,1.2000,1.2500,1.2500,16300,0.0000,1.0000
2017-01-30,1.2500,1.2750,1.2000,1.2000,1.2000,36300,0.0000,1.0000
2017-01-27,1.2000,1.3000,1.2000,1.2500,1.2500,138700,0.0000,1.0000
2017-01-26,1.2000,1.2500,1.2000,1.2000,1.2000,17100,0.0000,1.0000
2017-01-25,1.1500,1.2500,1.1500,1.2000,1.2000,30700,0.0000,1.0000
2017-01-24,1.2000,1.2000,1.1500,1.2000,1.2000,40900,0.0000,1.0000
2017-01-23,1.3000,1.3000,1.1500,1.1500,1.1500,76700,0.0000,1.0000
2017-01-20,1.2500,1.3000,1.2500,1.2500,1.2500,34800,0.0000,1.0000
2017-01-19,1.3000,1.3000,1.2746,1.3000,1.3000,8900,0.0000,1.0000
2017-01-18,1.3000,1.3500,1.2500,1.2500,1.2500,74100,0.0000,1.0000
2017-01-17,1.3500,1.3500,1.3000,1.3500,1.3500,51400,0.0000,1.0000
2017-01-13,1.2500,1.3500,1.2500,1.2500,1.2500,45100,0.0000,1.0000
2017-01-12,1.3500,1.4000,1.2500,1.3000,1.3000,109300,0.0000,1.0000
2017-01-11,1.3500,1.4000,1.3000,1.3000,1.3000,98800,0.0000,1.0000
2017-01-10,1.2000,1.4500,1.2000,1.3000,1.3000,689800,0.0000,1.0000
2017-01-09,1.6500,1.7500,1.5000,1.5500,1.5500,112100,0.0000,1.0000
2017-01-06,1.7500,1.7500,1.6500,1.7000,1.7000,28200,0.0000,1.0000
2017-01-05,1.7500,1.8500,1.7500,1.7500,1.7500,11100,0.0000,1.0000
2017-01-04,1.8000,1.9000,1.7500,1.8000,1.8000,28700,0.0000,1.0000
2017-01-03,1.8250,1.9000,1.7500,1.9000,1.9000,41500,0.0000,1.0000
2016-12-30,1.6550,1.9000,1.6500,1.9000,1.9000,23200,0.0000,1.0000
2016-12-29,1.8500,1.8500,1.6500,1.6500,1.6500,31000,0.0000,1.0000
2016-12-28,1.8320,1.8320,1.7000,1.7000,1.7000,25600,0.0000,1.0000
2016-12-27,1.7000,1.9500,1.6950,1.8500,1.8500,67800,0.0000,1.0000
2016-12-23,1.5650,1.6500,1.5500,1.6450,1.6450,16600,0.0000,1.0000
2016-12-22,1.6000,1.6750,1.5500,1.5500,1.5500,23000,0.0000,1.0000
2016-12-21,1.6500,1.7000,1.5500,1.5500,1.5500,30200,0.0000,1.0000
2016-12-20,1.6000,1.7500,1.6000,1.6500,1.6500,15900,0.0000,1.0000
2016-12-19,1.8500,1.8900,1.6000,1.6500,1.6500,92000,0.0000,1.0000
2016-12-16,1.6000,1.7500,1.6000,1.7000,1.7000,49600,0.0000,1.0000
2016-12-15,1.6309,1.6500,1.6000,1.6000,1.6000,8400,0.0000,1.0000
2016-12-14,1.7000,1.7000,1.6000,1.6500,1.6500,11200,0.0000,1.0000
2016-12-13,1.7500,1.7750,1.6000,1.6450,1.6450,46300,0.0000,1.0000
2016-12-12,1.9000,1.9000,1.7500,1.7500,1.7500,25900,0.0000,1.0000
2016-12-09,1.7500,1.8500,1.7500,1.8500,1.8500,32900,0.0000,1.0000
2016-12-08,1.8500,1.8700,1.7500,1.7500,1.7500,48500,0.0000,1.0000
2016-12-07,1.9500,1.9500,1.8000,1.8000,1.8000,55800,0.0000,1.0000
2016-12-06,2.0000,2.1000,1.8500,1.9000,1.9000,38800,0.0000,1.0000
2016-12-05,1.9000,1.9500,1.8500,1.8500,1.8500,19400,0.0000,1.0000
2016-12-02,2.1000,2.1000,1.9000,1.9000,1.9000,16600,0.0000,1.0000
2016-12-01,2.2000,2.2000,1.9000,2.0500,2.0500,107300,0.0000,1.0000
2016-11-30,1.9000,1.9900,1.8000,1.9000,1.9000,36800,0.0000,1.0000
2016-11-29,1.9000,1.9500,1.8000,1.9000,1.9000,140600,0.0000,1.0000
2016-11-28,1.9500,2.2500,1.7500,1.8500,1.8500,134000,0.0000,1.0000
2016-11-25,2.0500,2.1500,1.8000,1.9500,1.9500,87000,0.0000,1.0000
2016-11-23,2.1000,2.1000,1.8500,2.1000,2.1000,195000,0.0000,1.0000
2016-11-22,2.4000,2.6000,2.0000,2.0888,2.0888,314700,0.0000,1.0000
2016-11-21,2.1000,2.1000,1.8000,1.8000,1.8000,165700,0.0000,1.0000
2016-11-18,2.1000,2.2000,2.0945,2.1500,2.1500,42300,0.0000,1.0000
2016-11-17,2.3500,2.4500,2.0000,2.1500,2.1500,146300,0.0000,1.0000
2016-11-16,3.0000,3.0450,2.2500,2.2950,2.2950,203300,0.0000,1.0000
2016-11-15,3.3000,3.3000,2.5500,3.0000,3.0000,63500,0.0000,1.0000
2016-11-14,3.3625,3.5500,3.2500,3.3000,3.3000,30600,0.0000,1.0000
2016-11-11,3.2500,3.3500,3.2500,3.2500,3.2500,9900,0.0000,1.0000
2016-11-10,3.2500,3.3000,3.2000,3.2000,3.2000,24700,0.0000,1.0000
2016-11-09,3.2500,3.3000,3.2500,3.2500,3.2500,22900,0.0000,1.0000
2016-11-08,3.2500,3.3000,3.2500,3.3000,3.3000,3500,0.0000,1.0000
2016-11-07,3.2000,3.3000,3.2000,3.3000,3.3000,5600,0.0000,1.0000
2016-11-04,3.2500,3.3000,3.2050,3.3000,3.3000,21100,0.0000,1.0000
2016-11-03,3.4000,3.4000,3.2500,3.3000,3.3000,9700,0.0000,1.0000
2016-11-02,3.4500,3.4500,3.2500,3.2500,3.2500,2700,0.0000,1.0000
2016-11-01,3.4500,3.5950,3.2500,3.2500,3.2500,40900,0.0000,1.0000
2016-10-31,3.3000,3.3500,3.2050,3.2500,3.2500,16700,0.0000,1.0000
2016-10-28,3.4000,3.6000,3.2500,3.2500,3.2500,26200,0.0000,1.0000
2016-10-27,3.2481,3.3000,3.2333,3.2500,3.2500,5200,0.0000,1.0000
2016-10-26,3.2500,3.4000,3.2500,3.3500,3.3500,15500,0.0000,1.0000
2016-10-25,3.2500,3.3500,3.2500,3.2500,3.2500,20600,0.0000,1.0000
2016-10-24,3.2500,3.3500,3.2500,3.3000,3.3000,5300,0.0000,1.0000
2016-10-21,3.3401,3.3500,3.2500,3.2500,3.2500,8700,0.0000,1.0000
2016-10-20,3.3500,3.3500,3.2500,3.2500,3.2500,3000,0.0000,1.0000
2016-10-19,3.2500,3.3500,3.2500,3.2500,3.2500,15300,0.0000,1.0000
2016-10-18,3.2900,3.3500,3.2500,3.3000,3.3000,11900,0.0000,1.0000
2016-10-17,3.2500,3.3500,3.2500,3.3000,3.3000,5200,0.0000,1.0000
2016-10-14,3.2000,3.4800,3.1316,3.3000,3.3000,101000,0.0000,1.0000
2016-10-13,3.2600,3.3300,3.1410,3.1700,3.1700,6300,0.0000,1.0000
2016-10-12,3.1200,3.3400,3.1200,3.2000,3.2000,37400,0.0000,1.0000
2016-10-11,3.2800,3.2999,2.8700,3.2500,3.2500,52600,0.0000,1.0000
2016-10-10,3.3904,3.4400,3.1800,3.3143,3.3143,21100,0.0000,1.0000
2016-10-07,3.2700,3.4500,3.2210,3.4300,3.4300,38000,0.0000,1.0000
2016-10-06,3.2800,3.3248,3.0700,3.3248,3.3248,30000,0.0000,1.0000
2016-10-05,3.3161,3.3161,3.3161,3.3161,3.3161,1100,0.0000,1.0000
2016-10-04,3.3489,3.3489,3.2100,3.3300,3.3300,11200,0.0000,1.0000
2016-10-03,3.1900,3.3500,3.1900,3.2700,3.2700,9300,0.0000,1.0000
2016-09-30,3.1510,3.4100,3.1500,3.3589,3.3589,19800,0.0000,1.0000
2016-09-29,3.2600,3.3100,3.1050,3.2000,3.2000,20800,0.0000,1.0000
2016-09-28,3.2300,3.4000,3.2000,3.2100,3.2100,18800,0.0000,1.0000
2016-09-27,3.3500,3.4000,3.2100,3.3300,3.3300,16200,0.0000,1.0000
2016-09-26,3.2700,3.4100,3.2500,3.4100,3.4100,19800,0.0000,1.0000
2016-09-23,3.2400,3.3540,3.1300,3.3100,3.3100,20700,0.0000,1.0000
2016-09-22,3.2800,3.3390,3.2201,3.2300,3.2300,10000,0.0000,1.0000
2016-09-21,3.4300,3.4301,3.2990,3.3400,3.3400,20100,0.0000,1.0000
2016-09-20,3.4600,3.4675,3.3800,3.4300,3.4300,18900,0.0000,1.0000
2016-09-19,3.4700,3.5000,3.4400,3.5000,3.5000,2400,0.0000,1.0000
2016-09-16,3.3900,3.4700,3.2800,3.4700,3.4700,8700,0.0000,1.0000
2016-09-15,3.4877,3.4877,3.2800,3.4300,3.4300,600,0.0000,1.0000
2016-09-14,3.4100,3.4400,3.2200,3.2800,3.2800,19900,0.0000,1.0000
2016-09-13,3.3400,3.4900,3.3192,3.4900,3.4900,12000,0.0000,1.0000
2016-09-12,3.3600,3.4401,3.2200,3.2800,3.2800,9500,0.0000,1.0000
2016-09-09,3.3300,3.4200,3.1010,3.4100,3.4100,30200,0.0000,1.0000
2016-09-08,3.3200,3.3999,3.0800,3.2000,3.2000,28300,0.0000,1.0000
2016-09-07,3.5900,3.5900,3.2500,3.2700,3.2700,32800,0.0000,1.0000
2016-09-06,3.6100,3.6790,3.5500,3.6200,3.6200,13800,0.0000,1.0000
2016-09-02,3.5048,3.6600,3.5001,3.6600,3.6600,6900,0.0000,1.0000
2016-09-01,3.6300,3.6300,3.4343,3.5300,3.5300,37400,0.0000,1.0000
2016-08-31,3.5800,3.6000,3.4500,3.5800,3.5800,13100,0.0000,1.0000
2016-08-30,3.6500,3.7000,3.4601,3.6800,3.6800,31600,0.0000,1.0000
2016-08-29,3.4800,3.6800,3.3400,3.5800,3.5800,41900,0.0000,1.0000
2016-08-26,3.5400,3.5400,3.2400,3.4899,3.4899,68000,0.0000,1.0000
2016-08-25,3.4100,3.6500,3.3500,3.4500,3.4500,87500,0.0000,1.0000
2016-08-24,3.2600,3.5000,3.0500,3.4300,3.4300,61500,0.0000,1.0000
2016-08-23,3.2200,3.3400,3.0200,3.2700,3.2700,61500,0.0000,1.0000
2016-08-22,3.3400,3.6800,3.1700,3.2000,3.2000,38000,0.0000,1.0000
2016-08-19,3.5000,3.5000,3.2200,3.4500,3.4500,25300,0.0000,1.0000
2016-08-18,3.2300,3.4399,3.1600,3.2500,3.2500,16300,0.0000,1.0000
2016-08-17,3.0900,3.2200,3.0400,3.1600,3.1600,21600,0.0000,1.0000
2016-08-16,3.2000,3.2500,3.0900,3.0900,3.0900,21700,0.0000,1.0000
2016-08-15,3.1200,3.2200,3.0900,3.1600,3.1600,9300,0.0000,1.0000
2016-08-12,3.2000,3.3001,3.0813,3.1500,3.1500,38100,0.0000,1.0000
2016-08-11,3.3000,3.4601,2.9810,3.0900,3.0900,53200,0.0000,1.0000
2016-08-10,3.2084,3.2195,3.0800,3.0800,3.0800,21100,0.0000,1.0000
2016-08-09,3.2570,3.2600,3.1400,3.1500,3.1500,12500,0.0000,1.0000
2016-08-08,3.1000,3.2500,3.1000,3.1300,3.1300,21300,0.0000,1.0000
2016-08-05,3.1599,3.2400,2.9100,3.1508,3.1508,20500,0.0000,1.0000
2016-08-04,3.2000,3.2500,2.9700,3.2000,3.2000,12500,0.0000,1.0000
2016-08-03,3.1600,3.2000,3.0200,3.1900,3.1900,25800,0.0000,1.0000
2016-08-02,2.9300,3.0799,2.9100,2.9910,2.9910,21000,0.0000,1.0000
2016-08-01,3.1000,3.2700,2.8100,2.9400,2.9400,34500,0.0000,1.0000
2016-07-29,2.9000,3.1000,2.8800,3.0400,3.0400,39800,0.0000,1.0000
2016-07-28,2.8700,3.0300,2.7900,2.8100,2.8100,45500,0.0000,1.0000
2016-07-27,3.0000,3.0000,2.7600,2.9000,2.9000,41600,0.0000,1.0000
2016-07-26,2.8500,3.0000,2.8122,2.9800,2.9800,37600,0.0000,1.0000
2016-07-25,2.9700,3.0758,2.8100,2.9000,2.9000,31600,0.0000,1.0000
2016-07-22,2.8500,3.0000,2.7801,2.8800,2.8800,37300,0.0000,1.0000
2016-07-21,2.8500,2.8999,2.7515,2.8250,2.8250,17000,0.0000,1.0000
2016-07-20,2.8200,2.9300,2.8200,2.8800,2.8800,19200,0.0000,1.0000
2016-07-19,2.9500,2.9939,2.7980,2.9200,2.9200,18200,0.0000,1.0000
2016-07-18,2.8900,3.0100,2.8200,2.8901,2.8901,34200,0.0000,1.0000
2016-07-15,2.4900,2.9900,2.4700,2.9299,2.9299,82500,0.0000,1.0000
2016-07-14,2.7300,2.7396,2.4700,2.5000,2.5000,78500,0.0000,1.0000
2016-07-13,2.7900,2.9328,2.7000,2.7100,2.7100,18900,0.0000,1.0000
2016-07-12,2.7700,2.9900,2.7500,2.7800,2.7800,23100,0.0000,1.0000
2016-07-11,2.7700,2.8800,2.7100,2.8000,2.8000,8600,0.0000,1.0000
2016-07-08,2.7000,3.0200,2.7000,2.7900,2.7900,43200,0.0000,1.0000
2016-07-07,3.1300,3.2400,2.6100,2.7000,2.7000,110200,0.0000,1.0000
2016-07-06,3.2300,3.2300,3.1000,3.1600,3.1600,32800,0.0000,1.0000
2016-07-05,3.0500,3.3298,2.9501,3.2600,3.2600,74800,0.0000,1.0000
2016-07-01,3.3000,3.3000,2.9300,3.0900,3.0900,200600,0.0000,1.0000
2016-06-30,3.1800,3.5000,2.8900,3.2200,3.2200,1148800,0.0000,1.0000
2016-06-29,2.8900,3.0400,2.5662,2.7800,2.7800,137500,0.0000,1.0000
2016-06-28,2.5500,2.8300,2.4001,2.8300,2.8300,229600,0.0000,1.0000
2016-06-27,2.0500,3.2300,2.0500,2.5400,2.5400,2407300,0.0000,1.0000
2016-06-24,1.9700,1.9800,1.9101,1.9200,1.9200,4300,0.0000,1.0000
2016-06-23,2.0289,2.0900,2.0000,2.0000,2.0000,4000,0.0000,1.0000
2016-06-22,2.0600,2.2300,2.0600,2.1000,2.1000,14300,0.0000,1.0000
2016-06-21,1.9600,2.2400,1.9600,2.1300,2.1300,23800,0.0000,1.0000
2016-06-20,1.9700,2.0300,1.9000,1.9100,1.9100,11000,0.0000,1.0000
2016-06-17,1.8799,2.0199,1.8100,1.8100,1.8100,16500,0.0000,1.0000
2016-06-16,1.8800,1.8800,1.8001,1.8100,1.8100,6400,0.0000,1.0000
2016-06-15,1.8000,2.1100,1.8000,1.9600,1.9600,18700,0.0000,1.0000
2016-06-14,1.8500,1.8700,1.7500,1.8700,1.8700,1500,0.0000,1.0000
2016-06-13,1.8600,1.8700,1.8340,1.8500,1.8500,2900,0.0000,1.0000
2016-06-10,2.0900,2.0900,1.9200,2.0000,2.0000,700,0.0000,1.0000
2016-06-09,2.0000,2.1183,2.0000,2.0800,2.0800,9100,0.0000,1.0000
2016-06-08,1.9800,2.1400,1.9400,1.9900,1.9900,5400,0.0000,1.0000
2016-06-07,1.7800,1.9500,1.7500,1.9500,1.9500,6200,0.0000,1.0000
2016-06-06,2.0430,2.0430,1.7800,1.8300,1.8300,3600,0.0000,1.0000
2016-06-03,1.8800,1.9000,1.8000,1.8900,1.8900,7500,0.0000,1.0000
2016-06-02,1.9400,2.0307,1.9400,1.9400,1.9400,13400,0.0000,1.0000
2016-06-01,2.0101,2.1399,1.9400,1.9500,1.9500,9000,0.0000,1.0000
2016-05-31,2.1900,2.2500,1.9865,2.1400,2.1400,28200,0.0000,1.0000
2016-05-27,2.1800,2.3000,1.8920,2.2501,2.2501,20700,0.0000,1.0000
2016-05-26,2.1400,2.1900,2.0843,2.1601,2.1601,18300,0.0000,1.0000
2016-05-25,2.2400,2.2400,1.8100,2.0900,2.0900,19700,0.0000,1.0000
2016-05-24,2.3200,2.4200,2.0000,2.2400,2.2400,109700,0.0000,1.0000
2016-05-23,1.7500,2.3200,1.6950,2.2565,2.2565,90100,0.0000,1.0000
2016-05-20,1.9100,1.9100,1.6500,1.7300,1.7300,13500,0.0000,1.0000
2016-05-19,1.7300,1.8500,1.7300,1.8500,1.8500,11200,0.0000,1.0000
2016-05-18,1.5510,1.7900,1.5510,1.7800,1.7800,5500,0.0000,1.0000
2016-05-17,1.5900,1.7800,1.5900,1.7800,1.7800,12800,0.0000,1.0000
2016-05-16,1.6700,1.7100,1.4510,1.6165,1.6165,15200,0.0000,1.0000
2016-05-13,1.6501,1.6800,1.5700,1.6500,1.6500,10000,0.0000,1.0000
2016-05-12,1.6299,1.7100,1.6299,1.6500,1.6500,5900,0.0000,1.0000
2016-05-11,1.5800,1.6900,1.5000,1.5600,1.5600,21700,0.0000,1.0000
2016-05-10,1.6800,1.7200,1.5101,1.5300,1.5300,9200,0.0000,1.0000
2016-05-09,1.5840,1.6300,1.5800,1.6200,1.6200,27300,0.0000,1.0000
2016-05-06,1.5600,1.5600,1.5600,1.5600,1.5600,105,0.0000,1.0000
2016-05-05,1.5800,1.6100,1.5500,1.5600,1.5600,10200,0.0000,1.0000
2016-05-04,1.5600,1.6000,1.4823,1.5600,1.5600,8400,0.0000,1.0000
2016-05-03,1.6000,1.6101,1.5400,1.5500,1.5500,29800,0.0000,1.0000
2016-05-02,1.5500,1.6401,1.5000,1.5200,1.5200,12100,0.0000,1.0000
2016-04-29,1.5500,1.6435,1.5100,1.5100,1.5100,49800,0.0000,1.0000
2016-04-28,1.6300,1.7500,1.5200,1.5900,1.5900,58500,0.0000,1.0000
2016-04-27,1.5300,1.7500,1.5000,1.6600,1.6600,53300,0.0000,1.0000
2016-04-26,1.6300,1.7800,1.4800,1.5600,1.5600,71100,0.0000,1.0000
2016-04-25,1.5200,1.7400,1.4500,1.6200,1.6200,34200,0.0000,1.0000
2016-04-22,1.6000,1.6200,1.5700,1.5800,1.5800,3200,0.0000,1.0000
2016-04-21,1.5899,1.6000,1.5649,1.5700,1.5700,2400,0.0000,1.0000
2016-04-20,1.5203,1.6799,1.5203,1.5300,1.5300,8800,0.0000,1.0000
2016-04-19,1.7100,1.7700,1.5900,1.6300,1.6300,7300,0.0000,1.0000
2016-04-18,1.6901,1.7600,1.6740,1.6900,1.6900,5900,0.0000,1.0000
2016-04-15,1.7500,1.7600,1.6800,1.6800,1.6800,17900,0.0000,1.0000
2016-04-14,1.7700,1.7700,1.7400,1.7400,1.7400,4400,0.0000,1.0000
2016-04-13,1.7500,1.7700,1.6600,1.6600,1.6600,19400,0.0000,1.0000
2016-04-12,1.6500,1.7800,1.6500,1.7700,1.7700,18200,0.0000,1.0000
2016-04-11,1.5175,1.7100,1.5001,1.6100,1.6100,23000,0.0000,1.0000
2016-04-08,1.6400,1.6700,1.5100,1.5100,1.5100,39400,0.0000,1.0000
2016-04-07,1.5400,1.7600,1.5200,1.6300,1.6300,19000,0.0000,1.0000
2016-04-06,1.7800,1.7800,1.5700,1.6400,1.6400,3700,0.0000,1.0000
2016-04-05,1.8650,1.8650,1.5600,1.7720,1.7720,32400,0.0000,1.0000
2016-04-04,1.5301,1.6299,1.5301,1.5601,1.5601,7000,0.0000,1.0000
2016-04-01,1.5060,1.7599,1.4300,1.5400,1.5400,4600,0.0000,1.0000
2016-03-31,1.4800,1.6800,1.3700,1.6800,1.6800,16400,0.0000,1.0000
2016-03-30,1.7100,1.7100,1.4545,1.5400,1.5400,34300,0.0000,1.0000
2016-03-29,1.7900,1.9307,1.7000,1.7900,1.7900,30000,0.0000,1.0000
2016-03-28,1.8500,2.0600,1.7000,1.8800,1.8800,17200,0.0000,1.0000
2016-03-24,1.9000,1.9000,1.6500,1.8000,1.8000,46700,0.0000,1.0000
2016-03-23,1.8800,1.9500,1.7000,1.9099,1.9099,86900,0.0000,1.0000
2016-03-22,1.8800,2.0140,1.7700,1.8700,1.8700,10000,0.0000,1.0000
2016-03-21,2.0000,2.0400,1.9010,1.9700,1.9700,5600,0.0000,1.0000
2016-03-18,2.0400,2.0800,1.7450,2.0000,2.0000,58100,0.0000,1.0000
2016-03-17,1.9000,2.1500,1.9000,2.0600,2.0600,13400,0.0000,1.0000
2016-03-16,1.8600,2.0400,1.7700,2.0400,2.0400,42700,0.0000,1.0000
2016-03-15,1.6800,2.0470,1.6800,1.8500,1.8500,19700,0.0000,1.0000
2016-03-14,1.5600,1.7000,1.5500,1.6600,1.6600,5400,0.0000,1.0000
2016-03-11,1.7300,1.8199,1.5500,1.6700,1.6700,18800,0.0000,1.0000
2016-03-10,1.7800,1.8333,1.6800,1.7000,1.7000,8600,0.0000,1.0000
2016-03-09,1.8001,1.8380,1.5300,1.7100,1.7100,16000,0.0000,1.0000
2016-03-08,1.8700,2.0357,1.8000,1.8000,1.8000,7800,0.0000,1.0000
2016-03-07,1.9700,2.2200,1.8700,1.9400,1.9400,51600,0.0000,1.0000
2016-03-04,1.8000,2.1700,1.7736,2.0500,2.0500,92200,0.0000,1.0000
2016-03-03,1.8600,1.9300,1.7000,1.7300,1.7300,13000,0.0000,1.0000
2016-03-02,1.7500,1.9200,1.7500,1.8900,1.8900,39600,0.0000,1.0000
2016-03-01,1.6168,1.7000,1.6168,1.7000,1.7000,7300,0.0000,1.0000
2016-02-29,1.6000,1.7389,1.6000,1.6800,1.6800,7000,0.0000,1.0000
2016-02-26,1.5900,1.6400,1.4000,1.5600,1.5600,22900,0.0000,1.0000
2016-02-25,1.6800,1.6800,1.4640,1.5500,1.5500,5300,0.0000,1.0000
2016-02-24,1.5100,1.5999,1.4200,1.5201,1.5201,9800,0.0000,1.0000
2016-02-23,1.4800,1.5000,1.4200,1.4500,1.4500,17900,0.0000,1.0000
2016-02-22,1.3900,1.7000,1.3266,1.4100,1.4100,98400,0.0000,1.0000
2016-02-19,1.3300,1.5000,1.2600,1.4300,1.4300,146900,0.0000,1.0000
2016-02-18,1.6700,1.7500,1.4700,1.5100,1.5100,101500,0.0000,1.0000
2016-02-17,1.3501,1.8875,1.2700,1.8875,1.8875,86200,0.0000,1.0000
2016-02-16,1.2780,1.4000,1.2700,1.3500,1.3500,18500,0.0000,1.0000
2016-02-12,1.3000,1.3800,1.2200,1.2500,1.2500,4400,0.0000,1.0000
2016-02-11,1.2500,1.3200,1.2300,1.2400,1.2400,3900,0.0000,1.0000
2016-02-10,1.3800,1.4200,1.2200,1.3300,1.3300,15000,0.0000,1.0000
2016-02-09,1.3000,1.3500,1.2501,1.3100,1.3100,3100,0.0000,1.0000
2016-02-08,1.1800,1.3200,1.1700,1.2000,1.2000,8300,0.0000,1.0000
2016-02-05,1.2700,1.3400,1.1900,1.2697,1.2697,2300,0.0000,1.0000
2016-02-04,1.2400,1.3300,1.1300,1.2200,1.2200,1000,0.0000,1.0000
2016-02-03,1.2200,1.3400,1.0800,1.2000,1.2000,78600,0.0000,1.0000
2016-02-02,1.3499,1.3500,1.1500,1.2600,1.2600,24300,0.0000,1.0000
2016-02-01,1.1800,1.2300,1.1700,1.1700,1.1700,8500,0.0000,1.0000
2016-01-29,1.3900,1.3900,1.1701,1.2000,1.2000,14800,0.0000,1.0000
2016-01-28,1.3400,1.3400,1.2607,1.3200,1.3200,5400,0.0000,1.0000
2016-01-27,1.2900,1.2900,1.2900,1.2900,1.2900,200,0.0000,1.0000
2016-01-26,1.3300,1.3300,1.2000,1.2700,1.2700,10000,0.0000,1.0000
2016-01-25,1.3700,1.3800,1.2500,1.3000,1.3000,4000,0.0000,1.0000
2016-01-22,1.4000,1.4000,1.3400,1.3400,1.3400,1100,0.0000,1.0000
2016-01-21,1.2700,1.3900,1.1800,1.3900,1.3900,20900,0.0000,1.0000
2016-01-20,1.3001,1.3001,1.1700,1.1700,1.1700,10000,0.0000,1.0000
2016-01-19,1.1386,1.3300,1.1110,1.2500,1.2500,12800,0.0000,1.0000
2016-01-15,1.1300,1.3200,1.1300,1.2700,1.2700,8800,0.0000,1.0000
2016-01-14,1.1800,1.4100,1.1800,1.2501,1.2501,16700,0.0000,1.0000
2016-01-13,1.3900,1.4301,1.1800,1.2400,1.2400,38500,0.0000,1.0000
2016-01-12,1.5000,1.5100,1.4196,1.4400,1.4400,21700,0.0000,1.0000
2016-01-11,1.7500,1.7600,1.4800,1.5600,1.5600,25400,0.0000,1.0000
2016-01-08,1.7600,1.9200,1.4200,1.6100,1.6100,23100,0.0000,1.0000
2016-01-07,1.9100,1.9100,1.4400,1.6200,1.6200,58400,0.0000,1.0000
2016-01-06,1.7500,2.0200,1.7100,1.8600,1.8600,118600,0.0000,1.0000
2016-01-05,1.3400,2.4700,1.3300,2.0000,2.0000,1111600,0.0000,1.0000
2016-01-04,1.2300,1.3200,1.2300,1.3040,1.3040,8100,0.0000,1.0000
2015-12-31,1.2000,1.2800,1.2000,1.2100,1.2100,3400,0.0000,1.0000
2015-12-30,1.2000,1.2700,1.2000,1.2300,1.2300,37000,0.0000,1.0000
2015-12-29,1.2600,1.2700,1.1900,1.2300,1.2300,43100,0.0000,1.0000
2015-12-28,1.1800,1.2787,1.1800,1.2000,1.2000,19000,0.0000,1.0000
2015-12-24,1.2200,1.2200,1.2000,1.2200,1.2200,1600,0.0000,1.0000
2015-12-23,1.2500,1.2800,1.1200,1.2000,1.2000,18500,0.0000,1.0000
2015-12-22,1.2700,1.2800,1.1500,1.2000,1.2000,29000,0.0000,1.0000
2015-12-21,1.3300,1.3300,1.2700,1.2800,1.2800,6300,0.0000,1.0000
2015-12-18,1.3281,1.3300,1.2900,1.2900,1.2900,8500,0.0000,1.0000
2015-12-17,1.3800,1.3800,1.2700,1.2700,1.2700,16500,0.0000,1.0000
2015-12-16,1.2800,1.3800,1.2200,1.3800,1.3800,14900,0.0000,1.0000
2015-12-15,1.3460,1.3460,1.3000,1.3000,1.3000,3400,0.0000,1.0000
2015-12-14,1.4200,1.4900,1.2800,1.3699,1.3699,34900,0.0000,1.0000
2015-12-11,1.5000,1.5200,1.4456,1.4456,1.4456,9100,0.0000,1.0000
2015-12-10,1.5000,1.5800,1.4700,1.5000,1.5000,14600,0.0000,1.0000
2015-12-09,1.6200,1.6200,1.5000,1.5900,1.5900,4900,0.0000,1.0000
2015-12-08,1.6200,1.6300,1.4200,1.5000,1.5000,33500,0.0000,1.0000
2015-12-07,1.4300,1.5200,1.4300,1.5100,1.5100,24200,0.0000,1.0000
2015-12-04,1.8475,1.8500,1.4500,1.4999,1.4999,34200,0.0000,1.0000
2015-12-03,1.8900,1.8900,1.7100,1.7100,1.7100,20200,0.0000,1.0000
2015-12-02,1.9200,1.9200,1.9200,1.9200,1.9200,200,0.0000,1.0000
2015-12-01,1.9100,1.9900,1.9100,1.9300,1.9300,3600,0.0000,1.0000
2015-11-30,1.9120,1.9800,1.9100,1.9100,1.9100,7900,0.0000,1.0000
2015-11-27,1.9240,1.9700,1.9200,1.9364,1.9364,7100,0.0000,1.0000
2015-11-25,2.0000,2.0000,1.9500,1.9500,1.9500,3500,0.0000,1.0000
2015-11-24,2.0000,2.0000,1.9300,1.9500,1.9500,5700,0.0000,1.0000
2015-11-23,1.9500,2.0000,1.9500,1.9500,1.9500,17700,0.0000,1.0000
2015-11-20,1.9200,2.1000,1.9200,1.9401,1.9401,17000,0.0000,1.0000
2015-11-19,2.1800,2.1800,1.9100,2.0780,2.0780,6200,0.0000,1.0000
2015-11-18,2.0000,2.2100,1.9000,1.9100,1.9100,13700,0.0000,1.0000
2015-11-17,2.0300,2.0300,1.9000,1.9500,1.9500,21100,0.0000,1.0000
2015-11-16,1.8600,1.9860,1.8600,1.9300,1.9300,19400,0.0000,1.0000
2015-11-13,2.7054,2.7600,1.7600,1.9200,1.9200,214300,0.0000,1.0000
2015-11-12,2.9700,3.3100,2.6960,2.9400,2.9400,58400,0.0000,1.0000
2015-11-11,3.0000,3.0001,2.9000,2.9000,2.9000,900,0.0000,1.0000
2015-11-10,2.9300,3.2000,2.8827,3.0500,3.0500,7100,0.0000,1.0000
2015-11-09,3.1100,3.1399,2.8500,2.9401,2.9401,3700,0.0000,1.0000
2015-11-06,3.2100,3.2400,3.0178,3.0500,3.0500,9600,0.0000,1.0000
2015-11-05,3.2500,3.2800,3.1900,3.2800,3.2800,7800,0.0000,1.0000
2015-11-04,3.0000,3.3100,2.6100,3.2000,3.2000,58100,0.0000,1.0000
2015-11-03,2.6500,2.9780,2.5200,2.8300,2.8300,9300,0.0000,1.0000
2015-11-02,2.6535,2.8200,2.6535,2.7200,2.7200,5300,0.0000,1.0000
2015-10-30,2.9700,2.9700,2.8500,2.9100,2.9100,4200,0.0000,1.0000
2015-10-29,2.8700,3.0200,2.7856,3.0200,3.0200,15300,0.0000,1.0000
2015-10-28,2.7101,2.8900,2.7000,2.8600,2.8600,5200,0.0000,1.0000
2015-10-27,2.8300,2.9200,2.7400,2.7400,2.7400,4500,0.0000,1.0000
2015-10-26,2.6200,2.8400,2.6200,2.8400,2.8400,4900,0.0000,1.0000
2015-10-23,2.6000,2.7500,2.3100,2.7050,2.7050,18600,0.0000,1.0000
2015-10-22,2.8099,2.8099,2.6500,2.6500,2.6500,6100,0.0000,1.0000
2015-10-21,2.7800,2.7900,2.6401,2.6900,2.6900,28400,0.0000,1.0000
2015-10-20,3.1800,3.1800,2.4500,2.5800,2.5800,91600,0.0000,1.0000
2015-10-19,3.3500,3.4900,3.2701,3.3000,3.3000,2000,0.0000,1.0000
2015-10-16,3.4900,3.4900,3.4900,3.4900,3.4900,2000,0.0000,1.0000
2015-10-15,3.3600,3.3600,3.3300,3.3500,3.3500,900,0.0000,1.0000
2015-10-14,3.2800,3.2800,3.2400,3.2500,3.2500,2200,0.0000,1.0000
2015-10-13,3.7300,3.7300,3.3000,3.3900,3.3900,10800,0.0000,1.0000
2015-10-12,3.5400,3.5400,3.5400,3.5400,3.5400,13,0.0000,1.0000
2015-10-09,3.4000,3.5400,3.3000,3.5400,3.5400,20400,0.0000,1.0000
2015-10-08,3.3700,3.5100,3.3601,3.5000,3.5000,5600,0.0000,1.0000
2015-10-07,3.5340,3.5340,3.3548,3.4000,3.4000,6600,0.0000,1.0000
2015-10-06,3.3500,3.4400,3.3000,3.4050,3.4050,10000,0.0000,1.0000
2015-10-05,3.7300,3.7300,3.3000,3.4000,3.4000,51500,0.0000,1.0000
2015-10-02,3.1900,3.7300,3.1260,3.7300,3.7300,4700,0.0000,1.0000
2015-10-01,3.0600,3.1860,3.0500,3.1860,3.1860,1800,0.0000,1.0000
2015-09-30,2.9800,3.4900,2.9600,3.1500,3.1500,11200,0.0000,1.0000
2015-09-29,2.9600,3.1800,2.9600,3.1000,3.1000,6000,0.0000,1.0000
2015-09-28,3.1000,3.1000,2.7701,2.8700,2.8700,9300,0.0000,1.0000
2015-09-25,3.1701,3.1900,3.1400,3.1700,3.1700,4200,0.0000,1.0000
2015-09-24,3.4200,3.4800,3.1600,3.3899,3.3899,14000,0.0000,1.0000
2015-09-23,3.4200,3.5000,3.3100,3.4800,3.4800,14700,0.0000,1.0000
2015-09-22,3.5000,3.5200,3.1800,3.4200,3.4200,20500,0.0000,1.0000
2015-09-21,3.0100,3.9100,3.0100,3.5400,3.5400,74000,0.0000,1.0000
2015-09-18,2.9400,3.2100,2.9400,3.2100,3.2100,23100,0.0000,1.0000
2015-09-17,2.8800,3.0000,2.8800,2.9700,2.9700,9900,0.0000,1.0000
2015-09-16,2.9500,3.0800,2.8600,2.9301,2.9301,11200,0.0000,1.0000
2015-09-15,3.0800,3.1900,2.8000,2.9500,2.9500,24700,0.0000,1.0000
2015-09-14,2.9930,3.2900,2.8080,3.1100,3.1100,12700,0.0000,1.0000
2015-09-11,2.7300,3.0300,2.6601,2.9600,2.9600,66700,0.0000,1.0000
2015-09-10,2.9000,2.9100,2.7360,2.8000,2.8000,10800,0.0000,1.0000
2015-09-09,2.7202,2.9700,2.7202,2.9700,2.9700,5000,0.0000,1.0000
2015-09-08,2.7800,2.8500,2.7497,2.8000,2.8000,5200,0.0000,1.0000
2015-09-04,2.7400,2.8000,2.5900,2.7500,2.7500,9900,0.0000,1.0000
2015-09-03,2.8299,2.8299,2.7500,2.7500,2.7500,8700,0.0000,1.0000
2015-09-02,2.5900,2.8400,2.5900,2.7700,2.7700,35700,0.0000,1.0000
2015-09-01,2.5400,2.5486,2.5300,2.5300,2.5300,700,0.0000,1.0000
2015-08-31,2.5100,2.5900,2.5000,2.5200,2.5200,23700,0.0000,1.0000
2015-08-28,2.7600,2.7600,2.4500,2.4800,2.4800,41500,0.0000,1.0000
2015-08-27,2.5500,2.8400,2.5201,2.7900,2.7900,7700,0.0000,1.0000
2015-08-26,2.2800,2.5900,2.2700,2.5600,2.5600,86400,0.0000,1.0000
2015-08-25,2.5600,2.5700,2.4500,2.4700,2.4700,17600,0.0000,1.0000
2015-08-24,2.5000,2.7900,2.2500,2.6900,2.6900,37700,0.0000,1.0000
2015-08-21,2.8200,2.8200,2.5000,2.6200,2.6200,112600,0.0000,1.0000
2015-08-20,2.9000,2.9000,2.8000,2.8000,2.8000,6300,0.0000,1.0000
2015-08-19,3.0500,3.0500,2.5700,2.9200,2.9200,79200,0.0000,1.0000
2015-08-18,3.7700,3.8240,2.5100,3.0800,3.0800,248000,0.0000,1.0000
2015-08-17,3.7700,3.9699,3.7700,3.7800,3.7800,2300,0.0000,1.0000
2015-08-14,3.7900,3.8571,3.7700,3.7800,3.7800,8300,0.0000,1.0000
2015-08-13,3.8000,3.9200,3.7700,3.7800,3.7800,9900,0.0000,1.0000
2015-08-12,3.8000,3.8300,3.7700,3.7700,3.7700,32100,0.0000,1.0000
2015-08-11,3.7300,3.9000,3.7300,3.8400,3.8400,65200,0.0000,1.0000
2015-08-10,3.8400,3.9600,3.7400,3.7400,3.7400,29900,0.0000,1.0000
2015-08-07,3.9200,4.0300,3.7600,3.8500,3.8500,17800,0.0000,1.0000
2015-08-06,4.2000,4.3399,3.6600,3.9200,3.9200,44500,0.0000,1.0000
2015-08-05,4.1000,4.3400,4.1000,4.2000,4.2000,61800,0.0000,1.0000
2015-08-04,4.2500,4.3490,4.0700,4.1100,4.1100,33000,0.0000,1.0000
2015-08-03,4.1000,4.3400,4.0900,4.1200,4.1200,22600,0.0000,1.0000
2015-07-31,4.1300,4.2500,4.0500,4.1000,4.1000,18200,0.0000,1.0000
2015-07-30,4.0700,4.3000,4.0700,4.1800,4.1800,11400,0.0000,1.0000
2015-07-29,4.2500,4.3300,4.1300,4.1600,4.1600,19200,0.0000,1.0000
2015-07-28,4.2499,4.3700,4.1590,4.2400,4.2400,52800,0.0000,1.0000
2015-07-27,4.2900,4.4400,4.1200,4.1800,4.1800,32600,0.0000,1.0000
2015-07-24,4.4800,4.5400,4.3600,4.3600,4.3600,35000,0.0000,1.0000
2015-07-23,4.3700,4.5200,4.1400,4.4100,4.4100,24700,0.0000,1.0000
2015-07-22,4.4800,4.5050,4.1200,4.3000,4.3000,21300,0.0000,1.0000
2015-07-21,4.4900,4.5000,4.4600,4.4800,4.4800,8500,0.0000,1.0000
2015-07-20,4.4001,4.5000,4.4000,4.4100,4.4100,8600,0.0000,1.0000
2015-07-17,4.3000,4.4900,4.2499,4.4000,4.4000,11100,0.0000,1.0000
2015-07-16,4.2600,4.4900,4.2600,4.3500,4.3500,6800,0.0000,1.0000
2015-07-15,4.5000,4.5000,4.2500,4.2600,4.2600,40000,0.0000,1.0000
2015-07-14,4.4300,4.4899,4.2700,4.2700,4.2700,4500,0.0000,1.0000
2015-07-13,4.4305,4.4900,4.3000,4.4400,4.4400,13900,0.0000,1.0000
2015-07-10,4.5000,4.5000,4.2200,4.4900,4.4900,15900,0.0000,1.0000
2015-07-09,4.0500,4.4900,3.9300,4.1000,4.1000,15700,0.0000,1.0000
2015-07-08,4.2300,4.2350,4.0200,4.0500,4.0500,7000,0.0000,1.0000
2015-07-07,3.9618,4.1500,3.9200,4.1100,4.1100,14100,0.0000,1.0000
2015-07-06,3.9400,4.2290,3.7200,4.1300,4.1300,25800,0.0000,1.0000
2015-07-02,4.2500,4.2599,4.0200,4.0250,4.0250,11800,0.0000,1.0000
2015-07-01,4.4700,4.4700,4.1200,4.2500,4.2500,11000,0.0000,1.0000
2015-06-30,4.2500,4.4720,4.1000,4.3500,4.3500,11700,0.0000,1.0000
2015-06-29,4.2700,4.4900,4.2000,4.2900,4.2900,9200,0.0000,1.0000
2015-06-26,4.4800,4.5100,4.3300,4.3300,4.3300,17900,0.0000,1.0000
2015-06-25,4.5200,4.5200,4.3100,4.3400,4.3400,18400,0.0000,1.0000
2015-06-24,4.4100,4.5500,4.3700,4.4400,4.4400,7100,0.0000,1.0000
2015-06-23,4.6100,4.7000,4.5500,4.5500,4.5500,4100,0.0000,1.0000
2015-06-22,4.8700,4.8700,4.5500,4.6400,4.6400,11600,0.0000,1.0000
2015-06-19,4.6400,4.8000,4.3300,4.8000,4.8000,20800,0.0000,1.0000
2015-06-18,4.7380,4.8600,4.5920,4.6600,4.6600,27400,0.0000,1.0000
2015-06-17,4.5500,4.8000,4.5500,4.7200,4.7200,45800,0.0000,1.0000
2015-06-16,4.4100,4.6900,4.4100,4.6000,4.6000,45800,0.0000,1.0000
2015-06-15,4.4300,4.5800,4.4000,4.5700,4.5700,26400,0.0000,1.0000
2015-06-12,4.5400,4.5500,4.4000,4.4150,4.4150,14700,0.0000,1.0000
2015-06-11,4.3700,4.6100,4.3700,4.4800,4.4800,45500,0.0000,1.0000
2015-06-10,4.2600,4.4570,4.0700,4.2900,4.2900,17900,0.0000,1.0000
2015-06-09,4.1400,4.4800,4.0100,4.2700,4.2700,52800,0.0000,1.0000
2015-06-08,4.0900,4.1500,3.8700,4.0000,4.0000,10000,0.0000,1.0000
2015-06-05,4.0900,4.2200,4.0600,4.0800,4.0800,3900,0.0000,1.0000
2015-06-04,4.5400,4.5400,4.0800,4.1400,4.1400,29300,0.0000,1.0000
2015-06-03,4.5300,4.5697,4.3900,4.5000,4.5000,8300,0.0000,1.0000
2015-06-02,4.6000,4.6500,4.4200,4.5300,4.5300,3200,0.0000,1.0000
2015-06-01,4.4600,4.6900,4.4600,4.5000,4.5000,25400,0.0000,1.0000
2015-05-29,4.2400,4.5000,4.2400,4.3950,4.3950,36100,0.0000,1.0000
2015-05-28,4.2900,4.3700,4.1500,4.3000,4.3000,20100,0.0000,1.0000
2015-05-27,4.0299,4.3500,4.0016,4.2200,4.2200,47700,0.0000,1.0000
2015-05-26,4.0201,4.2599,3.9400,4.0300,4.0300,29600,0.0000,1.0000
2015-05-22,4.2500,4.3700,4.1100,4.1400,4.1400,26800,0.0000,1.0000
2015-05-21,4.1500,4.3499,4.0100,4.1300,4.1300,57200,0.0000,1.0000
2015-05-20,4.0000,4.1200,3.8600,3.9900,3.9900,30000,0.0000,1.0000
2015-05-19,4.0100,4.0900,3.8400,3.9200,3.9200,33400,0.0000,1.0000
2015-05-18,4.0600,4.1399,3.7200,4.0500,4.0500,51200,0.0000,1.0000
2015-05-15,4.2000,4.2420,3.6500,3.9300,3.9300,67800,0.0000,1.0000
2015-05-14,4.5100,4.5500,3.8800,4.2000,4.2000,55200,0.0000,1.0000
2015-05-13,4.9500,5.1400,4.6700,4.6700,4.6700,49500,0.0000,1.0000
2015-05-12,4.5900,4.9500,4.5100,4.9000,4.9000,30300,0.0000,1.0000
2015-05-11,4.6100,4.6200,4.3800,4.5400,4.5400,6900,0.0000,1.0000
2015-05-08,4.3501,4.7100,4.3501,4.5650,4.5650,15700,0.0000,1.0000
2015-05-07,4.3300,4.5700,4.2600,4.5200,4.5200,5400,0.0000,1.0000
2015-05-06,4.1511,4.4200,4.1200,4.3200,4.3200,21800,0.0000,1.0000
2015-05-05,4.0499,4.1300,3.8500,4.1200,4.1200,23300,0.0000,1.0000
2015-05-04,4.1500,4.1500,4.0350,4.0600,4.0600,39700,0.0000,1.0000
2015-05-01,4.4900,4.5593,4.0216,4.1900,4.1900,34900,0.0000,1.0000
2015-04-30,4.8900,5.0000,4.5000,4.5300,4.5300,32700,0.0000,1.0000
2015-04-29,4.5201,4.7890,4.5200,4.6600,4.6600,19200,0.0000,1.0000
2015-04-28,4.7000,4.7000,4.5100,4.5900,4.5900,15100,0.0000,1.0000
2015-04-27,4.7001,4.8500,4.6500,4.6500,4.6500,23800,0.0000,1.0000
2015-04-24,4.8499,4.8499,4.5500,4.6500,4.6500,15700,0.0000,1.0000
2015-04-23,4.5300,4.6999,4.5000,4.6500,4.6500,10400,0.0000,1.0000
2015-04-22,4.5100,4.7000,4.4601,4.5500,4.5500,15000,0.0000,1.0000
2015-04-21,4.7900,4.7900,4.5000,4.5000,4.5000,19300,0.0000,1.0000
2015-04-20,4.7500,4.8799,4.6600,4.6900,4.6900,22800,0.0000,1.0000
2015-04-17,4.8100,4.9900,4.6510,4.7700,4.7700,31900,0.0000,1.0000
2015-04-16,4.6510,4.9100,4.6500,4.7900,4.7900,21000,0.0000,1.0000
2015-04-15,4.9800,4.9800,4.6500,4.7200,4.7200,35500,0.0000,1.0000
2015-04-14,5.1000,5.2799,4.8500,4.8700,4.8700,77700,0.0000,1.0000
2015-04-13,4.6800,5.2000,4.5950,5.0000,5.0000,136600,0.0000,1.0000
2015-04-10,4.6400,4.7500,4.5900,4.6000,4.6000,15600,0.0000,1.0000
2015-04-09,4.7500,4.7500,4.5900,4.6000,4.6000,4600,0.0000,1.0000
2015-04-08,4.6385,4.7145,4.5640,4.6500,4.6500,12900,0.0000,1.0000
2015-04-07,4.7500,4.7500,4.3500,4.5600,4.5600,28300,0.0000,1.0000
2015-04-06,4.8500,4.9399,4.6500,4.7400,4.7400,20500,0.0000,1.0000
2015-04-02,4.8000,4.9400,4.4800,4.7800,4.7800,88800,0.0000,1.0000
2015-04-01,4.1500,4.3800,4.1100,4.2400,4.2400,14800,0.0000,1.0000
2015-03-31,4.0400,4.6624,4.0300,4.2400,4.2400,7100,0.0000,1.0000
2015-03-30,3.9000,4.1800,3.9000,3.9550,3.9550,7600,0.0000,1.0000
2015-03-27,3.9100,4.0500,3.9000,3.9000,3.9000,7400,0.0000,1.0000
2015-03-26,3.7101,4.0700,3.7101,3.9100,3.9100,10200,0.0000,1.0000
2015-03-25,4.0900,4.1500,3.9000,3.9000,3.9000,12100,0.0000,1.0000
2015-03-24,4.1400,4.1605,4.0900,4.0900,4.0900,9600,0.0000,1.0000
2015-03-23,4.4800,4.4800,4.1000,4.2650,4.2650,30500,0.0000,1.0000
2015-03-20,4.3200,4.8500,4.2300,4.6100,4.6100,25100,0.0000,1.0000
2015-03-19,4.3300,4.4300,4.3300,4.3500,4.3500,11700,0.0000,1.0000
2015-03-18,4.5600,4.5600,4.0400,4.2900,4.2900,13500,0.0000,1.0000
2015-03-17,3.9500,4.8500,3.7715,4.5100,4.5100,82000,0.0000,1.0000
2015-03-16,4.0400,4.0700,3.9500,3.9500,3.9500,9200,0.0000,1.0000
2015-03-13,4.0200,4.1800,3.9999,4.1600,4.1600,10700,0.0000,1.0000
2015-03-12,4.1600,4.1700,3.8600,3.9100,3.9100,6500,0.0000,1.0000
2015-03-11,4.0600,4.2400,3.9000,3.9100,3.9100,28300,0.0000,1.0000
2015-03-10,3.8500,4.1000,3.8500,3.9400,3.9400,28900,0.0000,1.0000
2015-03-09,3.9500,3.9600,3.6200,3.7900,3.7900,10600,0.0000,1.0000
2015-03-06,3.8900,3.9000,3.8600,3.9000,3.9000,7800,0.0000,1.0000
2015-03-05,3.7200,3.9200,3.7200,3.8500,3.8500,11100,0.0000,1.0000
2015-03-04,3.7100,3.9200,3.7100,3.7900,3.7900,10500,0.0000,1.0000
2015-03-03,3.7900,3.7900,3.7100,3.7200,3.7200,1400,0.0000,1.0000
2015-03-02,3.9160,3.9360,3.8000,3.8000,3.8000,3800,0.0000,1.0000
2015-02-27,3.8500,3.8500,3.7100,3.8200,3.8200,9500,0.0000,1.0000
2015-02-26,3.9100,3.9700,3.8300,3.9300,3.9300,10700,0.0000,1.0000
2015-02-25,3.7800,3.9600,3.7600,3.8200,3.8200,17300,0.0000,1.0000
2015-02-24,3.6200,3.8800,3.6000,3.7800,3.7800,14800,0.0000,1.0000
2015-02-23,3.5800,3.8200,3.5100,3.5900,3.5900,18600,0.0000,1.0000
2015-02-20,3.7400,3.8200,3.6500,3.7365,3.7365,10800,0.0000,1.0000
2015-02-19,4.1100,4.2400,3.8000,3.8100,3.8100,41100,0.0000,1.0000
2015-02-18,3.7400,4.2500,3.7400,3.9200,3.9200,46700,0.0000,1.0000
2015-02-17,3.5000,3.7400,3.5000,3.6300,3.6300,22400,0.0000,1.0000
2015-02-13,3.4000,3.6000,3.4000,3.5000,3.5000,12600,0.0000,1.0000
2015-02-12,3.6299,3.6299,3.3000,3.3000,3.3000,700,0.0000,1.0000
2015-02-11,3.6800,3.7400,3.3000,3.3000,3.3000,2300,0.0000,1.0000
2015-02-10,3.3600,3.7100,3.1600,3.2300,3.2300,3900,0.0000,1.0000
2015-02-09,3.4500,3.5300,3.3500,3.4000,3.4000,3400,0.0000,1.0000
2015-02-06,3.4500,3.6900,3.4500,3.5299,3.5299,3100,0.0000,1.0000
2015-02-05,3.3800,3.7299,3.3700,3.3700,3.3700,2400,0.0000,1.0000
2015-02-04,3.5000,3.5013,3.4510,3.4510,3.4510,4500,0.0000,1.0000
2015-02-03,3.5200,3.5370,3.5000,3.5370,3.5370,5100,0.0000,1.0000
2015-02-02,3.5400,3.5400,3.5400,3.5400,3.5400,300,0.0000,1.0000
2015-01-30,3.6700,3.7562,3.5101,3.5405,3.5405,6100,0.0000,1.0000
2015-01-29,3.5700,3.9100,3.5600,3.6650,3.6650,7500,0.0000,1.0000
2015-01-28,3.7070,3.9310,3.5700,3.5700,3.5700,8900,0.0000,1.0000
2015-01-27,3.6800,3.7099,3.5400,3.6400,3.6400,2600,0.0000,1.0000
2015-01-26,3.6299,3.7100,3.5000,3.6000,3.6000,9500,0.0000,1.0000
2015-01-23,3.4000,3.9400,3.3400,3.3700,3.3700,16300,0.0000,1.0000
2015-01-22,3.2600,3.5000,3.2600,3.3200,3.3200,10000,0.0000,1.0000
2015-01-21,3.3700,3.3800,3.1300,3.2400,3.2400,3900,0.0000,1.0000
2015-01-20,3.2400,3.3499,3.2400,3.2700,3.2700,4000,0.0000,1.0000
2015-01-16,3.0800,3.2900,3.0800,3.1500,3.1500,9700,0.0000,1.0000
2015-01-15,3.1310,3.4000,3.1300,3.2200,3.2200,4400,0.0000,1.0000
2015-01-14,3.4300,3.4600,3.1735,3.3100,3.3100,14400,0.0000,1.0000
2015-01-13,3.5000,3.6500,3.4100,3.4700,3.4700,8500,0.0000,1.0000
2015-01-12,3.7600,3.7600,3.4100,3.4800,3.4800,13300,0.0000,1.0000
2015-01-09,3.8700,3.8700,3.6605,3.6700,3.6700,3900,0.0000,1.0000
2015-01-08,3.8700,3.8930,3.6800,3.7400,3.7400,3500,0.0000,1.0000
2015-01-07,3.8000,3.8000,3.5501,3.6650,3.6650,6800,0.0000,1.0000
2015-01-06,3.8100,3.9700,3.4400,3.7200,3.7200,22200,0.0000,1.0000
2015-01-05,3.8400,4.0000,3.6000,3.7400,3.7400,20600,0.0000,1.0000
2015-01-02,3.9901,4.0000,3.5900,3.7000,3.7000,18500,0.0000,1.0000
2014-12-31,4.1500,4.2500,3.9900,3.9900,3.9900,36100,0.0000,1.0000
2014-12-30,3.8900,4.3000,3.7601,3.9900,3.9900,51900,0.0000,1.0000
2014-12-29,3.7000,3.7300,3.4900,3.6300,3.6300,9100,0.0000,1.0000
2014-12-26,3.4000,3.6065,3.3500,3.4850,3.4850,26600,0.0000,1.0000
2014-12-24,3.3800,3.3800,3.0801,3.2000,3.2000,10400,0.0000,1.0000
2014-12-23,3.1800,3.4100,3.0000,3.2950,3.2950,29300,0.0000,1.0000
2014-12-22,2.9900,3.4800,2.9000,3.2300,3.2300,14200,0.0000,1.0000
2014-12-19,3.1500,3.1500,2.9100,3.0000,3.0000,30700,0.0000,1.0000
2014-12-18,3.0300,3.4900,3.0200,3.1400,3.1400,84300,0.0000,1.0000
2014-12-17,3.0700,3.0900,2.9700,3.0200,3.0200,18400,0.0000,1.0000
2014-12-16,3.0000,3.1200,2.9000,2.9900,2.9900,12700,0.0000,1.0000
2014-12-15,3.2500,3.2500,2.9220,2.9800,2.9800,7100,0.0000,1.0000
2014-12-12,3.0500,3.2310,3.0500,3.2200,3.2200,9600,0.0000,1.0000
2014-12-11,2.9600,3.1850,2.8800,3.1700,3.1700,7200,0.0000,1.0000
2014-12-10,2.7900,3.2000,2.7700,2.9100,2.9100,65400,0.0000,1.0000
2014-12-09,2.6900,3.0700,2.4300,2.6600,2.6600,56500,0.0000,1.0000
2014-12-08,2.8500,2.9500,2.6700,2.6700,2.6700,11200,0.0000,1.0000
2014-12-05,2.8100,2.9700,2.8000,2.8700,2.8700,18600,0.0000,1.0000
2014-12-04,3.0000,3.0000,2.7400,2.7400,2.7400,15500,0.0000,1.0000
2014-12-03,2.9300,3.0573,2.6800,2.9700,2.9700,33900,0.0000,1.0000
2014-12-02,3.0000,3.0000,2.6700,2.6800,2.6800,39400,0.0000,1.0000
2014-12-01,3.0600,3.0600,2.9200,2.9300,2.9300,4500,0.0000,1.0000
2014-11-28,3.0501,3.0501,3.0000,3.0000,3.0000,700,0.0000,1.0000
2014-11-26,2.8500,3.0800,2.8300,3.0000,3.0000,13600,0.0000,1.0000
2014-11-25,2.6600,2.8500,2.6000,2.7900,2.7900,27800,0.0000,1.0000
2014-11-24,2.7500,2.8200,2.5100,2.6200,2.6200,59700,0.0000,1.0000
2014-11-21,2.7300,2.9605,2.7100,2.7100,2.7100,37000,0.0000,1.0000
2014-11-20,2.6500,2.9300,2.6000,2.6200,2.6200,45900,0.0000,1.0000
2014-11-19,2.7500,2.7500,2.6600,2.6800,2.6800,9000,0.0000,1.0000
2014-11-18,2.7900,2.8600,2.7100,2.7100,2.7100,9600,0.0000,1.0000
2014-11-17,2.6700,2.8300,2.6200,2.7300,2.7300,12000,0.0000,1.0000
2014-11-14,3.1800,3.1800,2.6500,2.8100,2.8100,21600,0.0000,1.0000
2014-11-13,2.9800,3.1801,2.9200,3.1300,3.1300,18000,0.0000,1.0000
2014-11-12,3.1500,3.3600,2.8800,2.9100,2.9100,26000,0.0000,1.0000
2014-11-11,3.2300,3.3400,3.1100,3.2000,3.2000,15600,0.0000,1.0000
2014-11-10,3.2000,3.4550,3.2000,3.2400,3.2400,5600,0.0000,1.0000
2014-11-07,3.3900,3.4700,3.0700,3.0700,3.0700,17700,0.0000,1.0000
2014-11-06,3.5899,3.5899,3.3500,3.3600,3.3600,14100,0.0000,1.0000
2014-11-05,3.3900,3.5890,3.3500,3.4200,3.4200,15100,0.0000,1.0000
2014-11-04,3.3500,3.5500,3.3500,3.3700,3.3700,10500,0.0000,1.0000
2014-11-03,3.3500,3.5600,3.3200,3.3200,3.3200,13400,0.0000,1.0000
2014-10-31,3.5000,3.5900,3.3500,3.4100,3.4100,14900,0.0000,1.0000
2014-10-30,3.5501,3.7140,3.5500,3.5500,3.5500,9900,0.0000,1.0000
2014-10-29,3.6030,3.8499,3.5900,3.5900,3.5900,5600,0.0000,1.0000
2014-10-28,3.6000,3.6000,3.5200,3.5500,3.5500,16500,0.0000,1.0000
2014-10-27,3.5900,3.8499,3.3500,3.7800,3.7800,10300,0.0000,1.0000
2014-10-24,3.5500,3.5900,3.4700,3.5900,3.5900,4000,0.0000,1.0000
2014-10-23,3.7500,3.9900,3.4600,3.5700,3.5700,29500,0.0000,1.0000
2014-10-22,3.7400,3.7400,3.5000,3.5700,3.5700,11200,0.0000,1.0000
2014-10-21,3.9825,3.9900,3.5000,3.5500,3.5500,42000,0.0000,1.0000
2014-10-20,3.2000,3.8600,3.2000,3.5800,3.5800,8000,0.0000,1.0000
2014-10-17,3.2100,3.3900,3.1100,3.1100,3.1100,4100,0.0000,1.0000
2014-10-16,3.2001,3.2500,3.1100,3.1100,3.1100,3300,0.0000,1.0000
2014-10-15,3.2800,3.3800,3.2000,3.2000,3.2000,47400,0.0000,1.0000
2014-10-14,3.2400,3.2500,3.0514,3.2000,3.2000,45500,0.0000,1.0000
2014-10-13,3.1001,3.3000,3.1001,3.3000,3.3000,11200,0.0000,1.0000
2014-10-10,3.2699,3.3600,3.0600,3.3056,3.3056,19100,0.0000,1.0000
2014-10-09,3.3000,3.3699,3.1100,3.1100,3.1100,11000,0.0000,1.0000
2014-10-08,3.3100,3.3900,3.2500,3.3900,3.3900,5000,0.0000,1.0000
2014-10-07,3.6000,3.8199,3.4500,3.4500,3.4500,34900,0.0000,1.0000
2014-10-06,3.5000,3.8500,3.4800,3.4800,3.4800,74200,0.0000,1.0000
2014-10-03,3.6300,4.1500,3.5000,3.5000,3.5000,113500,0.0000,1.0000
2014-10-02,3.6000,4.1500,3.5900,3.8300,3.8300,75700,0.0000,1.0000
2014-10-01,3.7000,3.9500,3.7000,3.7600,3.7600,57800,0.0000,1.0000
2014-09-30,3.8000,3.8000,3.5900,3.6000,3.6000,17800,0.0000,1.0000
2014-09-29,3.7000,3.7900,3.7000,3.7500,3.7500,4400,0.0000,1.0000
2014-09-26,3.6300,3.7770,3.6300,3.7770,3.7770,6300,0.0000,1.0000
2014-09-25,3.6301,3.8199,3.5301,3.7800,3.7800,10600,0.0000,1.0000
2014-09-24,3.9300,3.9500,3.6600,3.9200,3.9200,20600,0.0000,1.0000
2014-09-23,4.0400,4.2200,4.0000,4.0500,4.0500,11900,0.0000,1.0000
2014-09-22,4.3700,4.3700,4.0600,4.1500,4.1500,13900,0.0000,1.0000
2014-09-19,4.4400,4.6999,4.2700,4.4000,4.4000,30000,0.0000,1.0000
2014-09-18,4.7400,4.8000,4.1901,4.3400,4.3400,22500,0.0000,1.0000
2014-09-17,4.8000,4.8000,4.3700,4.6900,4.6900,3400,0.0000,1.0000
2014-09-16,4.1740,4.8000,4.1501,4.7600,4.7600,18000,0.0000,1.0000
2014-09-15,4.7100,4.8500,4.1701,4.2200,4.2200,48700,0.0000,1.0000
2014-09-12,5.0000,5.0000,4.6500,4.7300,4.7300,43400,0.0000,1.0000
2014-09-11,4.5500,5.0900,4.5500,4.9700,4.9700,88700,0.0000,1.0000
2014-09-10,4.2000,4.5500,4.2000,4.5500,4.5500,33300,0.0000,1.0000
2014-09-09,3.8100,4.5800,3.7800,4.2000,4.2000,48000,0.0000,1.0000
2014-09-08,3.3200,3.6300,3.1630,3.5800,3.5800,16900,0.0000,1.0000
2014-09-05,3.1500,3.5100,3.1500,3.5100,3.5100,19900,0.0000,1.0000
2014-09-04,3.0600,3.4900,3.0600,3.4800,3.4800,30900,0.0000,1.0000
2014-09-03,2.9900,3.1099,2.9500,3.0600,3.0600,19400,0.0000,1.0000
2014-09-02,3.1100,3.1100,2.8700,2.8800,2.8800,11400,0.0000,1.0000
2014-08-29,3.0100,3.1100,3.0000,3.1000,3.1000,7400,0.0000,1.0000
2014-08-28,2.9819,3.1600,2.9800,3.0600,3.0600,16800,0.0000,1.0000
2014-08-27,2.9900,3.0929,2.9800,3.0200,3.0200,6800,0.0000,1.0000
2014-08-26,2.8601,3.1300,2.8600,3.1000,3.1000,16600,0.0000,1.0000
2014-08-25,3.0500,3.0500,2.8200,2.9600,2.9600,9300,0.0000,1.0000
2014-08-22,3.1500,3.1500,3.0680,3.1500,3.1500,5300,0.0000,1.0000
2014-08-21,3.1370,3.2499,3.0300,3.2499,3.2499,13400,0.0000,1.0000
2014-08-20,3.2100,3.2100,2.5600,3.1000,3.1000,113400,0.0000,1.0000
2014-08-19,3.2500,3.2700,3.2000,3.2000,3.2000,4000,0.0000,1.0000
2014-08-18,3.4870,3.4870,3.3700,3.3700,3.3700,7900,0.0000,1.0000
2014-08-15,3.3500,3.3500,3.1400,3.2800,3.2800,18000,0.0000,1.0000
2014-08-14,3.3900,3.4500,3.3200,3.3200,3.3200,16300,0.0000,1.0000
2014-08-13,3.5400,3.5800,3.4500,3.4500,3.4500,2900,0.0000,1.0000
2014-08-12,3.7000,3.9199,3.5000,3.5827,3.5827,24900,0.0000,1.0000
2014-08-11,3.8150,3.9000,3.5901,3.9000,3.9000,11200,0.0000,1.0000
2014-08-08,3.7199,3.7199,3.4500,3.7000,3.7000,6400,0.0000,1.0000
2014-08-07,3.6999,3.6999,3.4500,3.4500,3.4500,1600,0.0000,1.0000
2014-08-06,3.4000,3.5140,3.3200,3.3800,3.3800,19300,0.0000,1.0000
2014-08-05,3.5000,3.7000,3.3700,3.4400,3.4400,8000,0.0000,1.0000
2014-08-04,3.6200,3.6400,3.2800,3.4201,3.4201,39400,0.0000,1.0000
2014-08-01,3.7000,3.7200,3.5201,3.6900,3.6900,21600,0.0000,1.0000
2014-07-31,3.8400,3.8400,3.7000,3.8300,3.8300,8900,0.0000,1.0000
2014-07-30,3.6900,3.8270,3.6700,3.7100,3.7100,1500,0.0000,1.0000
2014-07-29,3.8300,3.8500,3.7000,3.7600,3.7600,6300,0.0000,1.0000
2014-07-28,3.8490,3.8600,3.6925,3.7000,3.7000,31000,0.0000,1.0000
2014-07-25,3.8500,3.8500,3.8500,3.8500,3.8500,400,0.0000,1.0000
2014-07-24,3.9000,3.9000,3.7500,3.8510,3.8510,5000,0.0000,1.0000
2014-07-23,4.0400,4.0400,3.8000,3.9400,3.9400,4800,0.0000,1.0000
2014-07-22,3.9000,4.0400,3.9000,4.0400,4.0400,8800,0.0000,1.0000
2014-07-21,3.8800,3.9700,3.8800,3.9499,3.9499,5200,0.0000,1.0000
2014-07-18,3.7301,3.9600,3.7301,3.8716,3.8716,28300,0.0000,1.0000
2014-07-17,4.2000,4.2000,3.5400,3.6000,3.6000,73900,0.0000,1.0000
2014-07-16,4.0200,4.0706,3.8800,3.8990,3.8990,9000,0.0000,1.0000
2014-07-15,4.1862,4.1862,3.9800,4.0899,4.0899,6600,0.0000,1.0000
2014-07-14,4.0600,4.1000,3.9960,4.0000,4.0000,7900,0.0000,1.0000
2014-07-11,4.0600,4.1899,4.0200,4.0700,4.0700,6000,0.0000,1.0000
2014-07-10,4.2100,4.2300,3.8100,3.8800,3.8800,17400,0.0000,1.0000
2014-07-09,4.1900,4.3600,4.1900,4.2001,4.2001,3600,0.0000,1.0000
2014-07-08,4.3100,4.4600,4.0700,4.1800,4.1800,16600,0.0000,1.0000
2014-07-07,4.2501,4.3200,4.1000,4.2600,4.2600,9900,0.0000,1.0000
2014-07-03,4.3200,4.3200,4.3200,4.3200,4.3200,300,0.0000,1.0000
2014-07-02,4.0601,4.2900,4.0600,4.2799,4.2799,13400,0.0000,1.0000
2014-07-01,4.3299,4.3400,4.1000,4.1500,4.1500,7400,0.0000,1.0000
2014-06-30,4.0500,4.3099,4.0400,4.2600,4.2600,22100,0.0000,1.0000
2014-06-27,4.1210,4.1400,3.9999,4.0101,4.0101,3600,0.0000,1.0000
2014-06-26,4.1400,4.2500,3.7400,4.2200,4.2200,38200,0.0000,1.0000
2014-06-25,4.1900,4.1900,3.7500,4.1500,4.1500,49500,0.0000,1.0000
2014-06-24,3.9900,3.9900,3.7900,3.9500,3.9500,7300,0.0000,1.0000
2014-06-23,3.7800,3.9400,3.7600,3.9400,3.9400,9300,0.0000,1.0000
2014-06-20,3.8200,3.8699,3.3700,3.8300,3.8300,15300,0.0000,1.0000
2014-06-19,3.7800,3.9100,3.5000,3.6100,3.6100,18600,0.0000,1.0000
2014-06-18,3.9490,3.9490,3.8000,3.9100,3.9100,16100,0.0000,1.0000
2014-06-17,4.0300,4.0300,3.8201,3.9000,3.9000,2800,0.0000,1.0000
2014-06-16,3.9300,3.9300,3.9300,3.9300,3.9300,300,0.0000,1.0000
2014-06-13,3.8900,3.9700,3.8900,3.9500,3.9500,8800,0.0000,1.0000
2014-06-12,3.8600,3.9900,3.8600,3.9500,3.9500,9800,0.0000,1.0000
2014-06-11,3.7400,3.8200,3.6100,3.8090,3.8090,11900,0.0000,1.0000
2014-06-10,4.0000,4.0000,3.6030,3.7800,3.7800,27300,0.0000,1.0000
2014-06-09,4.2400,4.2500,3.9999,3.9999,3.9999,38500,0.0000,1.0000
2014-06-06,4.1800,4.1900,4.0400,4.1000,4.1000,9800,0.0000,1.0000
2014-06-05,4.0490,4.1500,4.0400,4.1300,4.1300,19200,0.0000,1.0000
2014-06-04,3.7910,4.1100,3.7910,3.9900,3.9900,20500,0.0000,1.0000
2014-06-03,3.9890,3.9890,3.8200,3.8370,3.8370,2700,0.0000,1.0000
2014-06-02,3.9900,3.9995,3.7801,3.7801,3.7801,3000,0.0000,1.0000
2014-05-30,3.9999,4.0000,3.9000,3.9070,3.9070,12300,0.0000,1.0000
2014-05-29,3.8900,4.0000,3.8803,3.9800,3.9800,4500,0.0000,1.0000
2014-05-28,4.0450,4.0450,3.7801,3.8500,3.8500,2400,0.0000,1.0000
2014-05-27,3.8549,3.8601,3.8301,3.8500,3.8500,6400,0.0000,1.0000
2014-05-23,3.8300,3.9200,3.8001,3.9200,3.9200,9000,0.0000,1.0000
2014-05-22,3.9900,3.9900,3.9800,3.9800,3.9800,3100,0.0000,1.0000
2014-05-21,3.7701,3.9900,3.7701,3.8500,3.8500,3300,0.0000,1.0000
2014-05-20,3.9900,3.9900,3.8300,3.8400,3.8400,15400,0.0000,1.0000
2014-05-19,3.7500,3.9900,3.7500,3.9400,3.9400,12100,0.0000,1.0000
2014-05-16,3.8001,3.8100,3.6000,3.7100,3.7100,12200,0.0000,1.0000
2014-05-15,3.8501,3.8501,3.7800,3.7800,3.7800,9600,0.0000,1.0000
2014-05-14,3.9900,4.0000,3.7800,3.9200,3.9200,27500,0.0000,1.0000
2014-05-13,3.8170,4.0000,3.5900,3.8500,3.8500,27500,0.0000,1.0000
2014-05-12,3.6699,3.9490,3.6000,3.6800,3.6800,23100,0.0000,1.0000
2014-05-09,3.7700,3.7700,3.5000,3.7300,3.7300,8000,0.0000,1.0000
2014-05-08,3.7196,3.7700,3.5000,3.7600,3.7600,10100,0.0000,1.0000
2014-05-07,3.5700,3.7500,3.5000,3.5300,3.5300,13400,0.0000,1.0000
2014-05-06,3.7900,3.7900,3.2700,3.5700,3.5700,10400,0.0000,1.0000
2014-05-05,3.5000,3.6500,3.4900,3.5100,3.5100,8700,0.0000,1.0000
2014-05-02,3.5700,3.5800,3.4000,3.5600,3.5600,17200,0.0000,1.0000
2014-05-01,3.5010,3.6099,3.5000,3.5000,3.5000,7300,0.0000,1.0000
2014-04-30,4.0000,4.0000,3.0750,3.5500,3.5500,27800,0.0000,1.0000
2014-04-29,3.5700,3.8699,3.1800,3.1900,3.1900,134700,0.0000,1.0000
2014-04-28,3.7800,3.8500,3.5400,3.8000,3.8000,28200,0.0000,1.0000
2014-04-25,3.7500,4.0096,3.7200,3.7701,3.7701,8800,0.0000,1.0000
2014-04-24,4.0000,4.0010,3.7500,3.9000,3.9000,18300,0.0000,1.0000
2014-04-23,4.0950,4.1500,4.0900,4.1100,4.1100,7200,0.0000,1.0000
2014-04-22,4.5900,4.6100,4.0500,4.1500,4.1500,22900,0.0000,1.0000
2014-04-21,4.3400,4.6500,4.2101,4.3300,4.3300,21800,0.0000,1.0000
2014-04-17,3.8500,4.3500,3.8500,4.2500,4.2500,54200,0.0000,1.0000
2014-04-16,3.7900,3.8500,3.7900,3.8400,3.8400,14500,0.0000,1.0000
2014-04-15,3.7000,3.7500,3.6700,3.7000,3.7000,14200,0.0000,1.0000
2014-04-14,3.9400,3.9400,3.6000,3.7700,3.7700,24900,0.0000,1.0000
2014-04-11,3.7900,3.9800,3.6000,3.8100,3.8100,30800,0.0000,1.0000
2014-04-10,3.7610,3.8080,3.6500,3.7500,3.7500,14600,0.0000,1.0000
2014-04-09,3.8300,4.0000,3.8300,3.9500,3.9500,34600,0.0000,1.0000
2014-04-08,3.8600,3.8600,3.6500,3.7500,3.7500,21000,0.0000,1.0000
2014-04-07,4.0200,4.0200,3.8500,3.8500,3.8500,13100,0.0000,1.0000
2014-04-04,3.8500,4.1500,3.8500,3.9700,3.9700,26300,0.0000,1.0000
2014-04-03,4.1000,4.1000,3.7200,3.8200,3.8200,24500,0.0000,1.0000
2014-04-02,3.8800,4.2501,3.8800,4.0701,4.0701,19600,0.0000,1.0000
2014-04-01,4.6000,4.6000,3.8100,3.9200,3.9200,101800,0.0000,1.0000
2014-03-31,4.4300,4.6450,4.3900,4.5600,4.5600,8500,0.0000,1.0000
2014-03-28,4.7500,4.7500,4.3000,4.5300,4.5300,43400,0.0000,1.0000
2014-03-27,4.7500,4.8600,4.7000,4.7108,4.7108,10400,0.0000,1.0000
2014-03-26,4.6400,4.8400,4.6000,4.8000,4.8000,54300,0.0000,1.0000
2014-03-25,4.6600,4.9200,4.6500,4.8500,4.8500,30300,0.0000,1.0000
2014-03-24,4.8101,4.8800,4.6501,4.7000,4.7000,25500,0.0000,1.0000
2014-03-21,4.9100,5.0500,4.8300,4.8300,4.8300,88300,0.0000,1.0000
2014-03-20,4.9000,5.2000,4.8600,5.2000,5.2000,43200,0.0000,1.0000
2014-03-19,4.9001,5.0000,4.8500,4.9500,4.9500,11600,0.0000,1.0000
2014-03-18,4.7500,5.0800,4.7500,5.0700,5.0700,28000,0.0000,1.0000
2014-03-17,4.7600,5.0000,4.5700,4.6800,4.6800,55500,0.0000,1.0000
2014-03-14,4.9500,4.9800,4.6514,4.8100,4.8100,70400,0.0000,1.0000
2014-03-13,5.0700,5.1500,4.8100,4.9500,4.9500,19800,0.0000,1.0000
2014-03-12,5.0400,5.3200,4.8000,5.0400,5.0400,89500,0.0000,1.0000
2014-03-11,5.1000,5.2400,4.8500,4.9900,4.9900,47500,0.0000,1.0000
2014-03-10,5.1500,5.2500,5.0601,5.0900,5.0900,30100,0.0000,1.0000
2014-03-07,5.0100,5.1900,5.0100,5.1500,5.1500,16300,0.0000,1.0000
2014-03-06,5.0900,5.1400,5.0000,5.1200,5.1200,18500,0.0000,1.0000
2014-03-05,5.1900,5.2000,5.0000,5.0900,5.0900,66700,0.0000,1.0000
2014-03-04,4.9200,5.2500,4.8800,5.1400,5.1400,66600,0.0000,1.0000
2014-03-03,4.8800,5.0800,4.8700,5.0500,5.0500,17400,0.0000,1.0000
2014-02-28,4.9000,5.3999,4.7000,4.9700,4.9700,59600,0.0000,1.0000
2014-02-27,4.7500,5.0500,4.7500,5.0000,5.0000,55500,0.0000,1.0000
2014-02-26,4.6100,4.7399,4.5000,4.6300,4.6300,17000,0.0000,1.0000
2014-02-25,4.7999,4.8000,4.6500,4.7500,4.7500,17500,0.0000,1.0000
2014-02-24,4.8000,4.9900,4.7601,4.8500,4.8500,18600,0.0000,1.0000
2014-02-21,4.8000,4.8000,4.7301,4.8000,4.8000,4700,0.0000,1.0000
2014-02-20,4.6600,5.0400,4.4700,4.8600,4.8600,10600,0.0000,1.0000
2014-02-19,4.6900,4.7100,4.5000,4.6200,4.6200,21300,0.0000,1.0000
2014-02-18,4.8001,5.0599,4.7000,4.7500,4.7500,20000,0.0000,1.0000
2014-02-14,4.7600,5.1975,4.7399,4.8100,4.8100,19200,0.0000,1.0000
2014-02-13,4.7600,4.8900,4.6601,4.6601,4.6601,24900,0.0000,1.0000
2014-02-12,4.6201,4.9900,4.6201,4.8800,4.8800,19300,0.0000,1.0000
2014-02-11,4.9900,5.0500,4.6000,4.6700,4.6700,26200,0.0000,1.0000
2014-02-10,4.8500,4.9754,4.8500,4.8500,4.8500,1800,0.0000,1.0000
2014-02-07,4.8100,4.9300,4.8000,4.8517,4.8517,14000,0.0000,1.0000
2014-02-06,5.0900,5.0900,4.5500,4.8500,4.8500,46400,0.0000,1.0000
2014-02-05,5.1500,5.1500,5.0800,5.1400,5.1400,15000,0.0000,1.0000
2014-02-04,5.0100,5.1500,5.0000,5.1500,5.1500,14900,0.0000,1.0000
2014-02-03,4.9100,5.1700,4.8800,5.0900,5.0900,76900,0.0000,1.0000
2014-01-31,5.1900,5.2001,4.8900,4.9900,4.9900,64200,0.0000,1.0000
2014-01-30,5.3000,5.3000,5.0400,5.1900,5.1900,14200,0.0000,1.0000
2014-01-29,5.1100,5.2900,5.0000,5.0900,5.0900,34200,0.0000,1.0000
2014-01-28,5.1700,5.4000,5.0000,5.1900,5.1900,129500,0.0000,1.0000
2014-01-27,5.3000,5.4160,4.8400,5.1900,5.1900,85700,0.0000,1.0000
2014-01-24,5.5000,5.5200,5.2200,5.3000,5.3000,304000,0.0000,1.0000
2014-01-23,5.6600,5.7000,5.3500,5.5100,5.5100,498800,0.0000,1.0000
