timestamp,open,high,low,close,adjusted_close,volume,dividend_amount,split_coefficient
2018-08-06,31.8200,33.0400,31.4500,32.9800,32.9800,27512414,0.0000,1.0000
2018-08-03,32.5800,32.9900,31.8000,31.9600,31.9600,26316962,0.0000,1.0000
2018-08-02,31.5800,32.8700,31.3400,32.8200,32.8200,27088039,0.0000,1.0000
2018-08-01,32.2500,32.5900,31.4600,31.9100,31.9100,33231691,0.0000,1.0000
2018-07-31,31.9500,32.4800,31.0700,31.8700,31.8700,64392221,0.0000,1.0000
2018-07-30,34.1700,34.2600,31.0700,31.3800,31.3800,77852432,0.0000,1.0000
2018-07-27,37.2500,37.4700,33.9000,34.1200,34.1200,122856761,0.0000,1.0000
2018-07-26,42.8700,43.4100,42.1400,42.9400,42.9400,30018698,0.0000,1.0000
2018-07-25,42.3500,44.3900,42.3500,44.2200,44.2200,25206277,0.0000,1.0000
2018-07-24,43.7700,43.8000,41.5900,42.1700,42.1700,22433945,0.0000,1.0000
2018-07-23,43.4500,43.8500,42.4000,43.3100,43.3100,15251177,0.0000,1.0000
2018-07-20,43.5000,44.1300,43.2300,43.4200,43.4200,10445469,0.0000,1.0000
2018-07-19,43.2700,43.8700,43.1100,43.4400,43.4400,13366788,0.0000,1.0000
2018-07-18,44.1900,44.7500,42.7400,43.3400,43.3400,26536776,0.0000,1.0000
2018-07-17,43.5900,45.2600,43.1500,44.7100,44.7100,20122310,0.0000,1.0000
2018-07-16,44.3000,44.7300,43.9100,44.2600,44.2600,13012826,0.0000,1.0000
2018-07-13,45.2800,45.3200,43.9300,44.4900,44.4900,16453000,0.0000,1.0000
2018-07-12,44.8000,45.3400,44.3600,45.2600,45.2600,27078524,0.0000,1.0000
2018-07-11,42.6300,44.1000,42.2200,43.8700,43.8700,35100108,0.0000,1.0000
2018-07-10,44.2000,45.2600,43.6300,43.7500,43.7500,38467449,0.0000,1.0000
2018-07-09,46.7400,46.9000,42.0800,44.1400,44.1400,107582356,0.0000,1.0000
2018-07-06,44.9100,46.7500,44.6100,46.6500,46.6500,23740653,0.0000,1.0000
2018-07-05,44.0700,45.1100,43.5500,45.0600,45.0600,16172028,0.0000,1.0000
2018-07-03,45.3600,45.4800,43.8000,43.8900,43.8900,14237483,0.0000,1.0000
2018-07-02,43.0600,45.0000,42.7500,44.9800,44.9800,16703638,0.0000,1.0000
2018-06-29,45.0500,45.2000,43.5600,43.6700,43.6700,24392892,0.0000,1.0000
2018-06-28,43.6500,44.8400,42.4900,44.7900,44.7900,18911179,0.0000,1.0000
2018-06-27,45.5000,46.2200,43.6800,43.7000,43.7000,25844604,0.0000,1.0000
2018-06-26,44.3600,45.3200,43.5100,44.8400,44.8400,20194074,0.0000,1.0000
2018-06-25,45.4700,45.5200,43.3250,44.1700,44.1700,31379323,0.0000,1.0000
2018-06-22,45.5800,46.0100,44.5000,45.8800,45.8800,31106299,0.0000,1.0000
2018-06-21,46.3600,46.8700,44.2000,45.2400,45.2400,32200255,0.0000,1.0000
2018-06-20,45.5600,46.9200,45.4401,46.1300,46.1300,31230186,0.0000,1.0000
2018-06-19,45.1900,45.7100,43.5700,44.9500,44.9500,39252002,0.0000,1.0000
2018-06-18,45.3350,46.2564,44.5000,46.0000,46.0000,26025577,0.0000,1.0000
2018-06-15,46.6200,47.7900,45.6400,45.8000,45.8000,51489582,0.0000,1.0000
2018-06-14,44.5500,46.8000,44.5000,46.7600,46.7600,50949063,0.0000,1.0000
2018-06-13,44.2400,44.5500,43.4199,44.0700,44.0700,35169170,0.0000,1.0000
2018-06-12,42.4700,44.3300,42.4100,43.4900,43.4900,51154995,0.0000,1.0000
2018-06-11,41.4200,41.6900,40.6600,41.4200,41.4200,24605266,0.0000,1.0000
2018-06-08,39.4900,41.2600,39.4200,41.2100,41.2100,34538901,0.0000,1.0000
2018-06-07,40.1400,40.1600,38.6400,39.7000,39.7000,41573447,0.0000,1.0000
2018-06-06,39.4200,40.2300,39.2100,40.1000,40.1000,147805710,0.0000,1.0000
2018-06-05,39.5300,40.1600,39.1900,39.8000,39.8000,66122177,0.0000,1.0000
2018-06-04,36.4500,37.9800,35.9500,37.8800,37.8800,32632802,0.0000,1.0000
2018-06-01,35.1400,36.6900,35.0900,36.6500,36.6500,29583088,0.0000,1.0000
2018-05-31,34.3900,34.9700,34.2500,34.7000,34.7000,14433219,0.0000,1.0000
2018-05-30,34.2000,34.6550,34.0800,34.3600,34.3600,14588186,0.0000,1.0000
2018-05-29,33.4200,34.8300,33.3500,34.0400,34.0400,22086674,0.0000,1.0000
2018-05-25,33.5400,33.9900,33.3100,33.6300,33.6300,10424410,0.0000,1.0000
2018-05-24,33.4400,33.7550,33.1200,33.5200,33.5200,14491903,0.0000,1.0000
2018-05-23,32.7000,33.4300,32.6000,33.4200,33.4200,13442658,0.0000,1.0000
2018-05-22,33.7800,33.8100,32.8300,32.8600,32.8600,15003157,0.0000,1.0000
2018-05-21,33.0200,34.0250,32.9000,33.6300,33.6300,21328447,0.0000,1.0000
2018-05-18,32.5500,32.9700,32.2108,32.6300,32.6300,10618936,0.0000,1.0000
2018-05-17,32.7800,33.0150,32.2810,32.5800,32.5800,10760174,0.0000,1.0000
2018-05-16,32.7500,33.2166,32.6700,32.7700,32.7700,10868673,0.0000,1.0000
2018-05-15,33.1700,33.1700,32.3600,32.7500,32.7500,15840804,0.0000,1.0000
2018-05-14,33.0700,33.5800,32.9300,33.3900,33.3900,18007006,0.0000,1.0000
2018-05-11,32.9400,33.1000,32.2501,32.7500,32.7500,14482552,0.0000,1.0000
2018-05-10,32.7100,33.7800,32.5800,32.8700,32.8700,20723533,0.0000,1.0000
2018-05-09,32.0700,32.7900,31.9400,32.4600,32.4600,20726455,0.0000,1.0000
2018-05-08,31.2000,32.0899,31.0300,31.8500,31.8500,19581183,0.0000,1.0000
2018-05-07,31.0600,31.8400,30.8800,31.3300,31.3300,18517536,0.0000,1.0000
2018-05-04,30.2200,31.3600,29.8500,31.0400,31.0400,21035168,0.0000,1.0000
2018-05-03,30.2100,31.0200,29.9700,30.6700,30.6700,19813452,0.0000,1.0000
2018-05-02,30.0000,31.2199,29.9500,30.5500,30.5500,22481683,0.0000,1.0000
2018-05-01,30.2100,31.0600,29.6000,30.3000,30.3000,30679164,0.0000,1.0000
2018-04-30,28.6200,30.7457,28.4300,30.3100,30.3100,41760191,0.0000,1.0000
2018-04-27,30.1700,30.3200,28.5900,29.0000,29.0000,37420135,0.0000,1.0000
2018-04-26,30.3500,31.4200,30.1200,30.2700,30.2700,43784175,0.0000,1.0000
2018-04-25,31.3500,32.0000,28.1400,29.7500,29.7500,92943187,0.0000,1.0000
2018-04-24,31.1800,31.6400,29.6300,30.4700,30.4700,41265271,0.0000,1.0000
2018-04-23,32.5100,32.6200,30.8500,31.2200,31.2200,29411008,0.0000,1.0000
2018-04-20,32.6500,33.1200,31.6500,31.9100,31.9100,34819658,0.0000,1.0000
2018-04-19,31.3700,32.2800,30.9600,31.5400,31.5400,22640053,0.0000,1.0000
2018-04-18,31.6700,32.0599,31.0700,31.5400,31.5400,25139953,0.0000,1.0000
2018-04-17,29.4500,32.0568,29.4300,31.8400,31.8400,46696039,0.0000,1.0000
2018-04-16,28.8500,28.9500,28.3600,28.5800,28.5800,11505305,0.0000,1.0000
2018-04-13,29.2400,29.4600,28.4300,28.7600,28.7600,12712577,0.0000,1.0000
2018-04-12,29.8900,29.9000,28.7800,29.0000,29.0000,17327036,0.0000,1.0000
2018-04-11,29.4600,29.8300,28.7300,29.3900,29.3900,25287882,0.0000,1.0000
2018-04-10,28.3600,30.3000,28.2800,29.5300,29.5300,28840098,0.0000,1.0000
2018-04-09,28.1000,28.7900,28.0000,28.0100,28.0100,13973173,0.0000,1.0000
2018-04-06,28.2800,29.0595,27.9700,28.1000,28.1000,15317967,0.0000,1.0000
2018-04-05,28.5100,29.3300,28.1000,28.6400,28.6400,24407286,0.0000,1.0000
2018-04-04,26.8500,28.3400,26.6000,28.2500,28.2500,22001986,0.0000,1.0000
2018-04-03,28.3600,28.8700,27.2200,27.5400,27.5400,26071705,0.0000,1.0000
2018-04-02,28.3700,28.7700,27.7500,28.0400,28.0400,24353132,0.0000,1.0000
2018-03-29,28.7600,29.3300,27.9000,29.0100,29.0100,36828382,0.0000,1.0000
2018-03-28,27.7800,29.1100,27.3900,28.4500,28.4500,47853634,0.0000,1.0000
2018-03-27,31.8500,31.9000,27.8800,28.0700,28.0700,79821992,0.0000,1.0000
2018-03-26,31.6900,32.4700,30.7000,31.9100,31.9100,25477813,0.0000,1.0000
2018-03-23,31.2600,32.0000,30.7907,31.0300,31.0300,24478532,0.0000,1.0000
2018-03-22,31.7700,32.1300,31.1750,31.2000,31.2000,29284239,0.0000,1.0000
2018-03-21,32.1900,33.1500,32.0500,32.7300,32.7300,43359002,0.0000,1.0000
2018-03-20,34.9200,34.9500,30.6100,31.3500,31.3500,82222740,0.0000,1.0000
2018-03-19,35.1300,35.7400,34.4100,34.9800,34.9800,22116551,0.0000,1.0000
2018-03-16,36.0000,36.2000,35.5200,35.5800,35.5800,13747877,0.0000,1.0000
2018-03-15,36.4100,36.4800,35.4000,35.8000,35.8000,20921849,0.0000,1.0000
2018-03-14,34.3000,36.8000,34.0900,36.6000,36.6000,39409327,0.0000,1.0000
2018-03-13,35.4000,35.5300,33.9000,34.1100,34.1100,21967251,0.0000,1.0000
2018-03-12,35.5300,35.7300,34.8300,35.5000,35.5000,20963776,0.0000,1.0000
2018-03-09,35.2000,35.5000,34.9367,35.3500,35.3500,18513795,0.0000,1.0000
2018-03-08,35.4200,35.8400,34.6800,34.8500,34.8500,24764968,0.0000,1.0000
2018-03-07,33.9900,35.8200,33.9900,35.7600,35.7600,33656143,0.0000,1.0000
2018-03-06,34.5800,34.9500,33.8600,34.4300,34.4300,22641005,0.0000,1.0000
2018-03-05,32.9000,34.9500,32.5800,34.5800,34.5800,34839998,0.0000,1.0000
2018-03-02,31.9300,33.0300,31.4900,33.0000,33.0000,24918891,0.0000,1.0000
2018-03-01,31.9500,32.5600,31.2600,32.2400,32.2400,25032477,0.0000,1.0000
2018-02-28,31.5000,32.8500,31.4700,31.8600,31.8600,24101591,0.0000,1.0000
2018-02-27,31.9100,32.2100,31.2600,31.3200,31.3200,16464903,0.0000,1.0000
2018-02-26,32.7000,32.7000,31.9600,32.1600,32.1600,15742166,0.0000,1.0000
2018-02-23,32.2000,32.6900,31.9700,32.6600,32.6600,17252683,0.0000,1.0000
2018-02-22,33.4300,33.4500,31.6300,32.1100,32.1100,29128051,0.0000,1.0000
2018-02-21,33.0300,34.0550,32.6472,33.3800,33.3800,29431220,0.0000,1.0000
2018-02-20,32.8800,33.5700,32.6800,32.8400,32.8400,22677763,0.0000,1.0000
2018-02-16,33.3700,33.5000,32.6800,33.0600,33.0600,27626996,0.0000,1.0000
2018-02-15,34.0300,34.3800,33.0599,33.6100,33.6100,31921343,0.0000,1.0000
2018-02-14,32.8500,33.9800,32.5500,33.7500,33.7500,38842195,0.0000,1.0000
2018-02-13,30.6700,33.6500,30.6400,33.4400,33.4400,56959420,0.0000,1.0000
2018-02-12,31.4400,31.9000,30.8631,30.9500,30.9500,36913354,0.0000,1.0000
2018-02-09,30.3700,31.8050,29.6800,31.5100,31.5100,67006066,0.0000,1.0000
2018-02-08,34.1500,35.0000,29.7100,30.1800,30.1800,161821748,0.0000,1.0000
2018-02-07,25.8300,27.0800,25.7600,26.9100,26.9100,48572861,0.0000,1.0000
2018-02-06,24.5900,25.5800,24.2000,25.2400,25.2400,26117878,0.0000,1.0000
2018-02-05,25.3700,26.6400,24.1000,25.1300,25.1300,33745296,0.0000,1.0000
2018-02-02,26.5600,27.0301,25.7000,25.9200,25.9200,32315154,0.0000,1.0000
2018-02-01,25.5200,27.3300,25.4400,27.1400,27.1400,47326941,0.0000,1.0000
2018-01-31,25.6100,26.6500,25.1400,25.8100,25.8100,40154779,0.0000,1.0000
2018-01-30,24.8300,26.4000,24.5500,25.6200,25.6200,52270833,0.0000,1.0000
2018-01-29,24.4000,25.5500,24.1000,25.1800,25.1800,52035231,0.0000,1.0000
2018-01-26,22.3900,24.3500,22.3000,24.2700,24.2700,49416442,0.0000,1.0000
2018-01-25,22.5000,22.6800,22.0400,22.1600,22.1600,15478961,0.0000,1.0000
2018-01-24,22.8400,23.0500,22.1000,22.3700,22.3700,23163255,0.0000,1.0000
2018-01-23,22.5100,23.1691,22.4100,22.7500,22.7500,35200644,0.0000,1.0000
2018-01-22,23.1700,23.5000,22.8600,23.3200,23.3200,22903732,0.0000,1.0000
2018-01-19,24.1200,24.2200,23.5000,23.6600,23.6600,16989849,0.0000,1.0000
2018-01-18,24.5000,24.5200,23.7200,24.0400,24.0400,21011188,0.0000,1.0000
2018-01-17,24.8400,24.9500,24.2200,24.5600,24.5600,17006557,0.0000,1.0000
2018-01-16,25.5800,25.7089,24.5100,24.6600,24.6600,32285575,0.0000,1.0000
2018-01-12,24.9400,25.8500,24.9300,25.4100,25.4100,36973010,0.0000,1.0000
2018-01-11,24.3000,24.3700,23.9000,24.3500,24.3500,11597393,0.0000,1.0000
2018-01-10,24.0000,24.4200,23.7600,24.2500,24.2500,10395506,0.0000,1.0000
2018-01-09,24.6300,24.7100,24.0700,24.1700,24.1700,12550142,0.0000,1.0000
2018-01-08,24.3700,24.7800,23.8800,24.5900,24.5900,17803434,0.0000,1.0000
2018-01-05,24.0700,24.5700,23.8800,24.3200,24.3200,14934356,0.0000,1.0000
2018-01-04,24.5000,24.5900,23.6850,23.9900,23.9900,17620709,0.0000,1.0000
2018-01-03,24.5600,24.6800,24.0700,24.4500,24.4500,12792471,0.0000,1.0000
2018-01-02,24.0700,24.5700,23.8500,24.5100,24.5100,15283036,0.0000,1.0000
2017-12-29,24.2700,24.3300,23.9100,24.0100,24.0100,10312418,0.0000,1.0000
2017-12-28,24.2500,24.6000,24.1700,24.3100,24.3100,9759331,0.0000,1.0000
2017-12-27,24.2600,24.5400,24.0700,24.2300,24.2300,9015570,0.0000,1.0000
2017-12-26,24.2600,24.5700,24.1300,24.2600,24.2600,10107838,0.0000,1.0000
2017-12-22,24.9800,25.2700,24.3800,24.4600,24.4600,16054912,0.0000,1.0000
2017-12-21,25.0550,25.5600,24.7000,25.0500,25.0500,19337488,0.0000,1.0000
2017-12-20,25.2600,25.4400,24.6900,25.2000,25.2000,20644534,0.0000,1.0000
2017-12-19,24.5900,25.4900,23.9200,25.0800,25.0800,45981251,0.0000,1.0000
2017-12-18,23.2400,24.7400,23.1300,24.6800,24.6800,48506629,0.0000,1.0000
2017-12-15,22.6100,22.8600,22.1850,22.2300,22.2300,17844982,0.0000,1.0000
2017-12-14,21.7400,23.2400,21.6200,22.5800,22.5800,33978766,0.0000,1.0000
2017-12-13,21.7700,21.9800,21.5200,21.6600,21.6600,14689951,0.0000,1.0000
2017-12-12,22.0100,22.2500,21.6250,21.6500,21.6500,14269697,0.0000,1.0000
2017-12-11,21.1000,22.2000,21.1000,22.0500,22.0500,17244434,0.0000,1.0000
2017-12-08,21.1500,21.4000,20.9500,21.1000,21.1000,14865480,0.0000,1.0000
2017-12-07,21.1200,21.4500,20.9700,21.0100,21.0100,11830847,0.0000,1.0000
2017-12-06,20.5200,21.4000,20.4000,21.0900,21.0900,14010802,0.0000,1.0000
2017-12-05,20.3000,20.9300,20.3000,20.7700,20.7700,10631297,0.0000,1.0000
2017-12-04,20.8500,20.9400,20.2250,20.4000,20.4000,11627352,0.0000,1.0000
2017-12-01,20.5200,20.9800,20.1200,20.7100,20.7100,15270829,0.0000,1.0000
2017-11-30,21.0100,21.1200,20.5100,20.5800,20.5800,15823241,0.0000,1.0000
2017-11-29,21.8200,22.1100,20.5200,20.7900,20.7900,23684010,0.0000,1.0000
2017-11-28,21.8500,22.1500,21.5600,21.8300,21.8300,13813538,0.0000,1.0000
2017-11-27,22.3600,22.4000,21.7000,21.8200,21.8200,19655728,0.0000,1.0000
2017-11-24,22.4000,22.4800,22.1700,22.4200,22.4200,7584013,0.0000,1.0000
2017-11-22,21.9000,22.4000,21.8000,22.2700,22.2700,21132706,0.0000,1.0000
2017-11-21,21.2000,21.9100,21.1500,21.8800,21.8800,18197705,0.0000,1.0000
2017-11-20,20.7800,21.2600,20.7000,21.1300,21.1300,16819873,0.0000,1.0000
2017-11-17,20.2600,20.7900,20.2500,20.7600,20.7600,12780387,0.0000,1.0000
2017-11-16,20.0600,20.4900,19.9900,20.3600,20.3600,12960446,0.0000,1.0000
2017-11-15,19.8200,20.3300,19.7300,19.9100,19.9100,11177366,0.0000,1.0000
2017-11-14,20.1700,20.4500,19.8800,20.0500,20.0500,11917743,0.0000,1.0000
2017-11-13,20.1600,20.3100,19.9300,20.1700,20.1700,11706254,0.0000,1.0000
2017-11-10,19.7900,20.5800,19.7400,20.3200,20.3200,16019995,0.0000,1.0000
2017-11-09,19.4000,20.2400,19.3600,19.9000,19.9000,20244957,0.0000,1.0000
2017-11-08,19.7000,19.9800,19.3700,19.5900,19.5900,16291257,0.0000,1.0000
2017-11-07,19.5500,20.1800,19.5100,19.6600,19.6600,22147504,0.0000,1.0000
2017-11-06,19.7800,19.8500,19.2600,19.3900,19.3900,24893040,0.0000,1.0000
2017-11-03,19.8700,20.2400,19.5200,19.9000,19.9000,22228887,0.0000,1.0000
2017-11-02,20.5000,20.6300,19.6400,19.7100,19.7100,24376214,0.0000,1.0000
2017-11-01,20.7400,20.9900,20.4000,20.6100,20.6100,18801449,0.0000,1.0000
2017-10-31,21.2600,21.5600,20.4600,20.6200,20.6200,28013022,0.0000,1.0000
2017-10-30,21.4000,21.7800,21.0600,21.2500,21.2500,33933167,0.0000,1.0000
2017-10-27,20.1800,21.9600,20.1500,21.6800,21.6800,63418227,0.0000,1.0000
2017-10-26,19.2200,20.6300,18.9000,20.3100,20.3100,112021977,0.0000,1.0000
2017-10-25,17.2000,17.4100,17.0300,17.1400,17.1400,17738013,0.0000,1.0000
2017-10-24,17.5000,17.6000,17.2300,17.2500,17.2500,12448294,0.0000,1.0000
2017-10-23,17.9400,17.9500,17.3400,17.3700,17.3700,13971035,0.0000,1.0000
2017-10-20,17.9800,18.0600,17.8300,17.8700,17.8700,7214672,0.0000,1.0000
2017-10-19,17.8400,17.9500,17.6500,17.8900,17.8900,9275143,0.0000,1.0000
2017-10-18,18.2300,18.3500,17.9700,18.0200,18.0200,7737230,0.0000,1.0000
2017-10-17,18.3100,18.4700,18.1100,18.2800,18.2800,8906378,0.0000,1.0000
2017-10-16,18.5900,18.6100,18.2300,18.3300,18.3300,12898039,0.0000,1.0000
2017-10-13,18.4500,18.7900,18.3500,18.6300,18.6300,15767898,0.0000,1.0000
2017-10-12,17.7700,18.6600,17.7300,18.4500,18.4500,30569996,0.0000,1.0000
2017-10-11,17.4700,17.7800,17.4300,17.7300,17.7300,9846695,0.0000,1.0000
2017-10-10,17.7700,17.9300,17.3900,17.4100,17.4100,10158369,0.0000,1.0000
2017-10-09,17.8200,18.0500,17.6500,17.6700,17.6700,8791038,0.0000,1.0000
2017-10-06,18.0300,18.1300,17.6600,17.8500,17.8500,16311895,0.0000,1.0000
2017-10-05,17.8000,18.2900,17.7400,18.2500,18.2500,21224398,0.0000,1.0000
2017-10-04,17.8200,17.8200,17.5000,17.7500,17.7500,17329822,0.0000,1.0000
2017-10-03,17.1300,17.6300,17.1200,17.5900,17.5900,12849092,0.0000,1.0000
2017-10-02,16.8000,17.1500,16.7800,17.0900,17.0900,8450015,0.0000,1.0000
2017-09-29,16.8900,17.0400,16.7500,16.8700,16.8700,9348597,0.0000,1.0000
2017-09-28,16.8700,16.9300,16.7500,16.8500,16.8500,7008110,0.0000,1.0000
2017-09-27,16.9000,17.0500,16.7600,16.9500,16.9500,9060926,0.0000,1.0000
2017-09-26,17.0300,17.1600,16.5700,16.5900,16.5900,12717292,0.0000,1.0000
2017-09-25,17.6000,17.7200,16.8200,16.9800,16.9800,13207368,0.0000,1.0000
2017-09-22,17.4900,17.6300,17.4200,17.6100,17.6100,5532085,0.0000,1.0000
2017-09-21,17.6000,17.6500,17.3500,17.5800,17.5800,6943655,0.0000,1.0000
2017-09-20,17.8000,17.8400,17.5100,17.6200,17.6200,7712779,0.0000,1.0000
2017-09-19,17.6600,17.8000,17.4800,17.7600,17.7600,6977923,0.0000,1.0000
2017-09-18,18.0100,18.0900,17.4700,17.6000,17.6000,14691468,0.0000,1.0000
2017-09-15,18.2500,18.4000,17.9500,18.0100,18.0100,12588822,0.0000,1.0000
2017-09-14,18.1500,18.2700,17.9400,18.2100,18.2100,9284139,0.0000,1.0000
2017-09-13,18.1500,18.4900,18.0900,18.2000,18.2000,13660408,0.0000,1.0000
2017-09-12,17.7000,18.2900,17.7000,18.1700,18.1700,19767363,0.0000,1.0000
2017-09-11,17.4700,17.7800,17.2700,17.6600,17.6600,13929685,0.0000,1.0000
2017-09-08,17.1900,17.4600,17.0800,17.4500,17.4500,11577866,0.0000,1.0000
2017-09-07,16.8500,17.4100,16.8300,17.2200,17.2200,14591885,0.0000,1.0000
2017-09-06,16.6500,17.0500,16.5200,16.8300,16.8300,12327058,0.0000,1.0000
2017-09-05,16.8200,16.9000,16.4400,16.6500,16.6500,10454175,0.0000,1.0000
2017-09-01,16.9700,17.0000,16.5800,16.8600,16.8600,8515176,0.0000,1.0000
2017-08-31,16.9900,17.1000,16.8800,16.9100,16.9100,7860165,0.0000,1.0000
2017-08-30,16.9200,17.0400,16.8000,16.9300,16.9300,6617987,0.0000,1.0000
2017-08-29,16.6100,17.0600,16.6000,16.9300,16.9300,11406466,0.0000,1.0000
2017-08-28,16.6100,16.8800,16.6100,16.7700,16.7700,7717685,0.0000,1.0000
2017-08-25,16.6500,16.8200,16.5100,16.6500,16.6500,11486003,0.0000,1.0000
2017-08-24,17.0700,17.0700,16.7800,16.8900,16.8900,10236741,0.0000,1.0000
2017-08-23,16.4600,17.0500,16.4400,16.9600,16.9600,15120378,0.0000,1.0000
2017-08-22,16.1400,16.6500,16.1400,16.6300,16.6300,11020244,0.0000,1.0000
2017-08-21,16.0000,16.2500,15.9300,16.1100,16.1100,11998746,0.0000,1.0000
2017-08-18,15.8500,16.0700,15.7700,15.9900,15.9900,7755624,0.0000,1.0000
2017-08-17,16.1500,16.2900,15.8600,15.8700,15.8700,9139205,0.0000,1.0000
2017-08-16,15.9700,16.3600,15.9600,16.1600,16.1600,15906097,0.0000,1.0000
2017-08-15,16.1200,16.2200,15.9300,15.9500,15.9500,5933005,0.0000,1.0000
2017-08-14,16.1500,16.2800,16.0100,16.0900,16.0900,9868308,0.0000,1.0000
2017-08-11,15.6700,16.0600,15.6700,15.9200,15.9200,8396693,0.0000,1.0000
2017-08-10,16.0300,16.1800,15.7300,15.7500,15.7500,11746067,0.0000,1.0000
2017-08-09,16.0400,16.1600,15.9600,16.1400,16.1400,7725813,0.0000,1.0000
2017-08-08,16.3300,16.4800,16.0500,16.1500,16.1500,12085962,0.0000,1.0000
2017-08-07,16.3800,16.4200,16.2400,16.4000,16.4000,9094433,0.0000,1.0000
2017-08-04,16.2000,16.4300,16.1300,16.2900,16.2900,15009953,0.0000,1.0000
2017-08-03,16.0700,16.4200,16.0500,16.1800,16.1800,15050506,0.0000,1.0000
2017-08-02,16.2100,16.2900,15.9500,16.0700,16.0700,13236620,0.0000,1.0000
2017-08-01,16.2000,16.3200,15.9100,16.2100,16.2100,21566624,0.0000,1.0000
2017-07-31,16.6000,16.6200,16.0000,16.0900,16.0900,35879678,0.0000,1.0000
2017-07-28,16.6600,17.2000,16.5200,16.7500,16.7500,26149366,0.0000,1.0000
2017-07-27,17.3600,17.6000,16.5000,16.8400,16.8400,86681666,0.0000,1.0000
2017-07-26,20.0000,20.0200,19.2700,19.6100,19.6100,24047015,0.0000,1.0000
2017-07-25,19.9800,20.1800,19.6900,19.9700,19.9700,13516928,0.0000,1.0000
2017-07-24,20.2800,20.6200,19.8200,20.0000,20.0000,17108579,0.0000,1.0000
2017-07-21,20.3500,20.3600,20.0000,20.1100,20.1100,15262604,0.0000,1.0000
2017-07-20,20.1800,20.8800,20.1800,20.5300,20.5300,24405372,0.0000,1.0000
2017-07-19,20.0300,20.2100,19.8300,20.1200,20.1200,13450048,0.0000,1.0000
2017-07-18,19.7600,19.9900,19.4100,19.9800,19.9800,15497364,0.0000,1.0000
2017-07-17,19.8000,20.2400,19.7300,19.9400,19.9400,24029793,0.0000,1.0000
2017-07-14,19.3500,19.9700,19.3300,19.6400,19.6400,20786187,0.0000,1.0000
2017-07-13,19.5400,19.6700,19.0800,19.3200,19.3200,17491332,0.0000,1.0000
2017-07-12,18.9200,19.5400,18.9100,19.2500,19.2500,30008052,0.0000,1.0000
2017-07-11,18.1400,18.6600,18.1000,18.6400,18.6400,17721249,0.0000,1.0000
2017-07-10,18.0500,18.1500,17.7700,18.0800,18.0800,8560072,0.0000,1.0000
2017-07-07,18.0000,18.3400,17.9700,18.0200,18.0200,13417876,0.0000,1.0000
2017-07-06,17.6500,18.5800,17.6300,17.9200,17.9200,18579760,0.0000,1.0000
2017-07-05,17.6800,17.9600,17.4200,17.8200,17.8200,8809615,0.0000,1.0000
2017-07-03,17.9400,18.0100,17.4100,17.6500,17.6500,9040399,0.0000,1.0000
2017-06-30,17.6600,18.0800,17.4700,17.8700,17.8700,13357270,0.0000,1.0000
2017-06-29,17.9300,17.9400,17.2300,17.6500,17.6500,17665322,0.0000,1.0000
2017-06-28,18.2200,18.2400,17.7500,17.9500,17.9500,17335023,0.0000,1.0000
2017-06-27,18.4300,18.6000,18.1200,18.1200,18.1200,14707738,0.0000,1.0000
2017-06-26,18.5500,19.0100,18.1100,18.2900,18.2900,17387714,0.0000,1.0000
2017-06-23,18.1500,18.6300,18.1500,18.5000,18.5000,19530855,0.0000,1.0000
2017-06-22,17.8500,18.3800,17.6600,18.1500,18.1500,20679559,0.0000,1.0000
2017-06-21,17.1100,18.0400,17.1100,17.7800,17.7800,23609888,0.0000,1.0000
2017-06-20,17.1500,17.1500,16.8400,16.9100,16.9100,8502171,0.0000,1.0000
2017-06-19,16.7700,17.0800,16.7500,17.0600,17.0600,11299944,0.0000,1.0000
2017-06-16,16.7500,16.8100,16.5500,16.6700,16.6700,9916410,0.0000,1.0000
2017-06-15,16.5300,16.8900,16.4600,16.8300,16.8300,11869318,0.0000,1.0000
2017-06-14,17.0500,17.1300,16.5700,16.7600,16.7600,12606139,0.0000,1.0000
2017-06-13,17.1200,17.2200,16.7600,16.9700,16.9700,13214278,0.0000,1.0000
2017-06-12,16.7300,17.0400,16.2700,17.0400,17.0400,20486085,0.0000,1.0000
2017-06-09,17.6500,17.6600,16.4500,16.9000,16.9000,21248699,0.0000,1.0000
2017-06-08,17.4400,17.6100,17.2700,17.5900,17.5900,10528981,0.0000,1.0000
2017-06-07,17.6200,17.7500,17.3000,17.4400,17.4400,15839137,0.0000,1.0000
2017-06-06,18.1000,18.1500,17.4700,17.5700,17.5700,22742960,0.0000,1.0000
2017-06-05,18.2900,18.3400,18.0200,18.2300,18.2300,10536991,0.0000,1.0000
2017-06-02,18.5300,18.5800,18.2200,18.3100,18.3100,9367631,0.0000,1.0000
2017-06-01,18.2200,18.6600,18.2000,18.5300,18.5300,13157802,0.0000,1.0000
2017-05-31,18.4800,18.6000,18.0800,18.3200,18.3200,17259374,0.0000,1.0000
2017-05-30,18.2100,18.7200,18.1800,18.4300,18.4300,18182979,0.0000,1.0000
2017-05-26,17.9900,18.3000,17.9500,18.2300,18.2300,10421985,0.0000,1.0000
2017-05-25,18.0400,18.2700,17.9400,17.9500,17.9500,9539766,0.0000,1.0000
2017-05-24,18.1000,18.3400,17.8300,17.9800,17.9800,15459917,0.0000,1.0000
2017-05-23,18.4100,18.5100,17.9800,18.1500,18.1500,16797183,0.0000,1.0000
2017-05-22,18.3500,18.5200,18.2700,18.4300,18.4300,11279284,0.0000,1.0000
2017-05-19,18.6800,18.9000,18.2700,18.3500,18.3500,16103068,0.0000,1.0000
2017-05-18,18.1700,18.6100,17.9700,18.5100,18.5100,19782310,0.0000,1.0000
2017-05-17,18.9900,19.2500,18.2200,18.2800,18.2800,30011013,0.0000,1.0000
2017-05-16,19.3800,19.7900,19.0900,19.4900,19.4900,35530948,0.0000,1.0000
2017-05-15,18.6900,19.3200,18.6300,19.2300,19.2300,22579879,0.0000,1.0000
2017-05-12,18.4500,19.0500,18.3400,18.6100,18.6100,21953035,0.0000,1.0000
2017-05-11,18.6300,18.7500,18.3100,18.3900,18.3900,12428561,0.0000,1.0000
2017-05-10,18.3700,18.5600,18.2500,18.5400,18.5400,9925652,0.0000,1.0000
2017-05-09,18.3100,18.4900,18.2000,18.3700,18.3700,12461317,0.0000,1.0000
2017-05-08,18.6800,18.6800,18.1600,18.3100,18.3100,18903525,0.0000,1.0000
2017-05-05,18.4500,18.7300,18.3700,18.6900,18.6900,15021615,0.0000,1.0000
2017-05-04,18.6000,18.8900,18.3600,18.4800,18.4800,24565295,0.0000,1.0000
2017-05-03,18.3700,18.6000,18.1500,18.5700,18.5700,29514835,0.0000,1.0000
2017-05-02,17.5700,18.5300,17.3500,18.2400,18.2400,63781263,0.0000,1.0000
2017-05-01,17.1400,17.6500,16.9700,17.5400,17.5400,47011243,0.0000,1.0000
2017-04-28,16.5000,16.7900,16.4300,16.4800,16.4800,25662188,0.0000,1.0000
2017-04-27,15.8000,16.6300,15.8000,16.6100,16.6100,40805736,0.0000,1.0000
2017-04-26,15.9000,16.4800,15.7600,15.8200,15.8200,79001055,0.0000,1.0000
2017-04-25,14.7100,14.9600,14.6300,14.6600,14.6600,20239408,0.0000,1.0000
2017-04-24,14.7000,14.8200,14.5600,14.7100,14.7100,12779234,0.0000,1.0000
2017-04-21,14.6500,14.7500,14.4100,14.6300,14.6300,13788561,0.0000,1.0000
2017-04-20,14.5800,14.7500,14.5100,14.6500,14.6500,9552461,0.0000,1.0000
2017-04-19,14.4400,14.7900,14.4400,14.5400,14.5400,14268086,0.0000,1.0000
2017-04-18,14.3700,14.5600,14.2700,14.4400,14.4400,9701933,0.0000,1.0000
2017-04-17,14.3000,14.5500,14.1200,14.4000,14.4000,10402739,0.0000,1.0000
2017-04-13,14.4900,14.5000,14.2200,14.3000,14.3000,10554106,0.0000,1.0000
2017-04-12,14.3400,14.7800,14.2600,14.4200,14.4200,12916443,0.0000,1.0000
2017-04-11,14.3000,14.4000,14.2000,14.3100,14.3100,7590752,0.0000,1.0000
2017-04-10,14.3000,14.4600,14.2000,14.3600,14.3600,10005913,0.0000,1.0000
2017-04-07,14.3600,14.4300,14.2500,14.2900,14.2900,8247515,0.0000,1.0000
2017-04-06,14.5300,14.6200,14.3000,14.3900,14.3900,18106706,0.0000,1.0000
2017-04-05,14.6100,14.8200,14.4100,14.5300,14.5300,13823697,0.0000,1.0000
2017-04-04,14.7500,14.7600,14.5800,14.6900,14.6900,8925338,0.0000,1.0000
2017-04-03,14.9700,14.9800,14.6500,14.8400,14.8400,11593107,0.0000,1.0000
2017-03-31,14.9300,15.0600,14.9100,14.9500,14.9500,8402610,0.0000,1.0000
2017-03-30,15.0500,15.0800,14.9000,14.9200,14.9200,8446411,0.0000,1.0000
2017-03-29,14.8600,15.0600,14.7000,15.0400,15.0400,11080006,0.0000,1.0000
2017-03-28,15.0000,15.1700,14.8000,14.9400,14.9400,14824613,0.0000,1.0000
2017-03-27,15.0200,15.0600,14.7500,14.9900,14.9900,10461305,0.0000,1.0000
2017-03-24,15.0600,15.3700,15.0300,15.1400,15.1400,15544746,0.0000,1.0000
2017-03-23,14.9900,15.0500,14.7300,14.9300,14.9300,11631874,0.0000,1.0000
2017-03-22,14.5000,14.9900,14.3200,14.9800,14.9800,21050310,0.0000,1.0000
2017-03-21,15.0800,15.1000,14.5000,14.5400,14.5400,19099006,0.0000,1.0000
2017-03-20,15.1100,15.1100,14.8200,15.0900,15.0900,12501894,0.0000,1.0000
2017-03-17,15.2000,15.2300,15.0300,15.0800,15.0800,10989782,0.0000,1.0000
2017-03-16,15.0800,15.2800,15.0400,15.1900,15.1900,11665929,0.0000,1.0000
2017-03-15,15.2500,15.3000,14.8500,15.0300,15.0300,19381783,0.0000,1.0000
2017-03-14,15.2000,15.5800,15.1500,15.3200,15.3200,15046532,0.0000,1.0000
2017-03-13,15.1000,15.2700,15.1000,15.2100,15.2100,8727459,0.0000,1.0000
2017-03-10,15.2300,15.2700,14.9400,15.1200,15.1200,13691731,0.0000,1.0000
2017-03-09,15.2400,15.3900,15.0300,15.2200,15.2200,10963474,0.0000,1.0000
2017-03-08,15.1900,15.3600,15.0800,15.2400,15.2400,12657128,0.0000,1.0000
2017-03-07,15.5200,15.7300,15.1600,15.1800,15.1800,16675226,0.0000,1.0000
2017-03-06,15.7500,15.7800,15.5000,15.5600,15.5600,11463950,0.0000,1.0000
2017-03-03,15.8400,16.1000,15.6800,15.7500,15.7500,15194477,0.0000,1.0000
2017-03-02,15.7700,16.0000,15.7200,15.7900,15.7900,12397694,0.0000,1.0000
2017-03-01,15.8700,15.9000,15.5900,15.7900,15.7900,18165341,0.0000,1.0000
2017-02-28,16.0000,16.0400,15.7400,15.7700,15.7700,10857893,0.0000,1.0000
2017-02-27,15.9300,16.1300,15.7200,16.0600,16.0600,13640298,0.0000,1.0000
2017-02-24,15.9500,15.9900,15.8500,15.9800,15.9800,9133860,0.0000,1.0000
2017-02-23,16.1200,16.2700,15.9000,16.0300,16.0300,15304539,0.0000,1.0000
2017-02-22,16.4000,16.5100,16.0100,16.0800,16.0800,13606184,0.0000,1.0000
2017-02-21,16.6400,16.6900,16.3000,16.4200,16.4200,16004916,0.0000,1.0000
2017-02-17,16.3600,16.6300,16.3600,16.6200,16.6200,14372892,0.0000,1.0000
2017-02-16,16.6900,16.7900,16.3200,16.3500,16.3500,21636195,0.0000,1.0000
2017-02-15,16.8500,16.8900,16.3000,16.7400,16.7400,35204804,0.0000,1.0000
2017-02-14,15.9200,16.6000,15.8500,16.5200,16.5200,34894264,0.0000,1.0000
2017-02-13,15.6300,15.9900,15.5100,15.8100,15.8100,29143701,0.0000,1.0000
2017-02-10,15.9600,16.0000,15.5000,15.5800,15.5800,73061193,0.0000,1.0000
2017-02-09,18.7200,18.7200,16.2600,16.4100,16.4100,109299298,0.0000,1.0000
2017-02-08,18.7700,18.7700,18.0500,18.7200,18.7200,37353513,0.0000,1.0000
2017-02-07,18.0000,18.6700,17.9900,18.2600,18.2600,26806263,0.0000,1.0000
2017-02-06,17.7000,17.9700,17.4100,17.9300,17.9300,13196896,0.0000,1.0000
2017-02-03,17.7200,17.8500,17.4400,17.6100,17.6100,14398211,0.0000,1.0000
2017-02-02,17.3300,17.8600,17.1200,17.7800,17.7800,19415648,0.0000,1.0000
2017-02-01,17.8400,17.9200,17.1000,17.2400,17.2400,21199890,0.0000,1.0000
2017-01-31,16.9500,17.7400,16.9100,17.6200,17.6200,25856118,0.0000,1.0000
2017-01-30,16.5700,17.1000,16.4100,16.9400,16.9400,18273190,0.0000,1.0000
2017-01-27,16.9100,16.9700,16.5300,16.5700,16.5700,11848956,0.0000,1.0000
2017-01-26,16.8600,17.0700,16.7900,16.8100,16.8100,10078133,0.0000,1.0000
2017-01-25,16.7000,16.7900,16.5900,16.7300,16.7300,10969267,0.0000,1.0000
2017-01-24,16.6100,16.6579,16.3300,16.5200,16.5200,12737164,0.0000,1.0000
2017-01-23,16.5700,16.8100,16.4600,16.6100,16.6100,11781279,0.0000,1.0000
2017-01-20,16.8200,16.9000,16.4600,16.5800,16.5800,14818460,0.0000,1.0000
2017-01-19,17.0900,17.1500,16.7500,16.7900,16.7900,12735487,0.0000,1.0000
2017-01-18,17.0100,17.1400,16.8300,17.1100,17.1100,12708384,0.0000,1.0000
2017-01-17,17.0700,17.0900,16.8600,16.9600,16.9600,13151088,0.0000,1.0000
2017-01-13,17.3800,17.6600,17.2300,17.2500,17.2500,11385947,0.0000,1.0000
2017-01-12,17.1300,17.3900,16.9600,17.3800,17.3800,12372743,0.0000,1.0000
2017-01-11,17.4600,17.6000,17.1700,17.3000,17.3000,10981465,0.0000,1.0000
2017-01-10,17.5100,17.7800,17.3200,17.3700,17.3700,10472834,0.0000,1.0000
2017-01-09,17.2200,17.5550,17.1900,17.5000,17.5000,11912436,0.0000,1.0000
2017-01-06,17.2400,17.4300,17.1100,17.1700,17.1700,14665118,0.0000,1.0000
2017-01-05,16.9100,17.2700,16.8000,17.0900,17.0900,17058198,0.0000,1.0000
2017-01-04,16.5000,16.9400,16.5000,16.8600,16.8600,15856466,0.0000,1.0000
2017-01-03,16.3100,16.4500,16.2100,16.4400,16.4400,11147866,0.0000,1.0000
2016-12-30,16.3100,16.5701,16.2200,16.3000,16.3000,14008737,0.0000,1.0000
2016-12-29,16.3900,16.6500,16.3000,16.3900,16.3900,14697888,0.0000,1.0000
2016-12-28,16.6300,16.7332,16.2914,16.3900,16.3900,13492462,0.0000,1.0000
2016-12-27,16.5200,16.8700,16.4200,16.6100,16.6100,13027553,0.0000,1.0000
2016-12-23,16.3400,16.6734,16.1600,16.5000,16.5000,18043237,0.0000,1.0000
2016-12-22,16.8200,16.8900,16.2700,16.4100,16.4100,27934064,0.0000,1.0000
2016-12-21,17.5200,17.5500,17.0100,17.0800,17.0800,34510461,0.0000,1.0000
2016-12-20,18.2300,18.3218,17.8700,17.9200,17.9200,16801686,0.0000,1.0000
2016-12-19,18.6000,18.7000,18.2200,18.2400,18.2400,12238517,0.0000,1.0000
2016-12-16,18.7600,18.8900,18.5300,18.6300,18.6300,14229702,0.0000,1.0000
2016-12-15,18.9400,19.1500,18.7100,18.7900,18.7900,11957850,0.0000,1.0000
2016-12-14,19.4000,19.6200,18.8900,18.9300,18.9300,13429615,0.0000,1.0000
2016-12-13,18.9700,19.5900,18.9400,19.3700,19.3700,15132159,0.0000,1.0000
2016-12-12,19.4800,19.7000,18.9000,18.9300,18.9300,15597520,0.0000,1.0000
2016-12-09,19.5600,19.8400,19.3832,19.6500,19.6500,15956083,0.0000,1.0000
2016-12-08,19.5000,19.7100,19.0800,19.6400,19.6400,19682889,0.0000,1.0000
2016-12-07,18.2600,19.5500,18.2000,19.4800,19.4800,32188576,0.0000,1.0000
2016-12-06,18.3100,18.5000,18.1307,18.2300,18.2300,14032971,0.0000,1.0000
2016-12-05,17.9600,18.3600,17.8700,18.2300,18.2300,12121693,0.0000,1.0000
2016-12-02,18.0000,18.1600,17.8600,17.9300,17.9300,12188795,0.0000,1.0000
2016-12-01,18.8200,18.8300,17.7350,18.0300,18.0300,19600497,0.0000,1.0000
2016-11-30,18.2000,18.8000,18.1800,18.4900,18.4900,20573440,0.0000,1.0000
2016-11-29,18.2200,18.6801,18.1300,18.1900,18.1900,13532792,0.0000,1.0000
2016-11-28,18.0000,18.3000,17.8500,18.3000,18.3000,19281803,0.0000,1.0000
2016-11-25,18.2700,18.3100,18.0300,18.0600,18.0600,7862681,0.0000,1.0000
2016-11-23,18.4500,18.5900,18.0800,18.2200,18.2200,16975254,0.0000,1.0000
2016-11-22,18.6600,18.8700,18.5100,18.6300,18.6300,10687286,0.0000,1.0000
2016-11-21,18.7200,18.9100,18.5900,18.6000,18.6000,13095559,0.0000,1.0000
2016-11-18,18.7300,18.9100,18.6400,18.7300,18.7300,12503189,0.0000,1.0000
2016-11-17,18.7000,18.9601,18.5300,18.5500,18.5500,16241557,0.0000,1.0000
2016-11-16,18.9800,19.1510,18.5900,18.6300,18.6300,14986694,0.0000,1.0000
2016-11-15,19.1500,19.5100,18.9100,18.9800,18.9800,19557951,0.0000,1.0000
2016-11-14,18.7500,19.2000,18.5000,19.1400,19.1400,23121279,0.0000,1.0000
2016-11-11,18.3500,18.7290,18.0700,18.5500,18.5500,15363776,0.0000,1.0000
2016-11-10,19.0400,19.3000,18.0300,18.3700,18.3700,31057583,0.0000,1.0000
2016-11-09,17.9600,19.2350,17.9100,19.1300,19.1300,34170184,0.0000,1.0000
2016-11-08,18.2200,18.5600,17.7700,18.3800,18.3800,19946455,0.0000,1.0000
2016-11-07,18.1100,18.6900,18.1100,18.4100,18.4100,26006168,0.0000,1.0000
2016-11-04,17.5200,18.3400,17.5000,18.0200,18.0200,30976650,0.0000,1.0000
2016-11-03,17.5500,17.8599,17.2600,17.5800,17.5800,17039294,0.0000,1.0000
2016-11-02,17.4300,17.9500,17.3800,17.6100,17.6100,20914188,0.0000,1.0000
2016-11-01,17.8400,18.0000,17.2610,17.4900,17.4900,22607854,0.0000,1.0000
2016-10-31,17.6500,18.0400,17.6400,17.9500,17.9500,19513519,0.0000,1.0000
2016-10-28,17.7000,18.0000,17.5000,17.6600,17.6600,29341755,0.0000,1.0000
2016-10-27,18.0000,18.1200,17.0700,17.4000,17.4000,63791893,0.0000,1.0000
2016-10-26,17.5800,17.6600,17.1700,17.2900,17.2900,35164049,0.0000,1.0000
2016-10-25,17.8200,17.8400,17.1500,17.2600,17.2600,31369125,0.0000,1.0000
2016-10-24,17.6000,18.3700,17.4900,18.0300,18.0300,41735472,0.0000,1.0000
2016-10-21,16.9500,18.3500,16.7400,18.0900,18.0900,58438790,0.0000,1.0000
2016-10-20,17.0400,17.0700,16.8200,16.9000,16.9000,15096019,0.0000,1.0000
2016-10-19,16.9400,17.2600,16.8800,17.0700,17.0700,17392381,0.0000,1.0000
2016-10-18,16.8600,17.1300,16.7900,16.8300,16.8300,18479753,0.0000,1.0000
2016-10-17,16.7600,16.9793,16.4300,16.7300,16.7300,25800559,0.0000,1.0000
2016-10-14,17.8800,18.0500,16.2800,16.8800,16.8800,73596764,0.0000,1.0000
2016-10-13,17.8600,17.9900,17.6700,17.7900,17.7900,18688297,0.0000,1.0000
2016-10-12,18.1900,18.1900,17.8100,18.0500,18.0500,23507927,0.0000,1.0000
2016-10-11,18.1800,18.2000,17.6500,18.0000,18.0000,49095033,0.0000,1.0000
2016-10-10,17.4900,18.2400,16.9300,17.5600,17.5600,105887343,0.0000,1.0000
2016-10-07,19.9500,20.5300,19.6450,19.8500,19.8500,38647310,0.0000,1.0000
2016-10-06,20.4600,21.0000,19.6000,19.8700,19.8700,109256533,0.0000,1.0000
2016-10-05,24.3200,25.2500,24.1300,24.8700,24.8700,63716832,0.0000,1.0000
2016-10-04,23.7500,23.7900,23.3400,23.5200,23.5200,22230724,0.0000,1.0000
2016-10-03,23.7800,24.2500,23.4550,24.0000,24.0000,37509897,0.0000,1.0000
2016-09-30,23.0200,23.2500,22.8200,23.0500,23.0500,16858640,0.0000,1.0000
2016-09-29,22.9200,23.3600,22.8600,23.0100,23.0100,26423986,0.0000,1.0000
2016-09-28,23.4200,23.6300,22.4400,22.9600,22.9600,44443106,0.0000,1.0000
2016-09-27,23.2100,23.9800,22.9000,23.7200,23.7200,65489542,0.0000,1.0000
2016-09-26,21.7900,23.5700,21.6500,23.3700,23.3700,95311065,0.0000,1.0000
2016-09-23,21.5000,22.8900,21.1100,22.6200,22.6200,192213628,0.0000,1.0000
2016-09-22,18.5200,18.9200,18.4400,18.6300,18.6300,16008020,0.0000,1.0000
2016-09-21,18.4400,18.5000,18.1300,18.4900,18.4900,16211539,0.0000,1.0000
2016-09-20,18.3000,18.6400,18.2300,18.3900,18.3900,15895962,0.0000,1.0000
2016-09-19,19.2200,19.2400,18.2800,18.3600,18.3600,23323653,0.0000,1.0000
2016-09-16,18.9000,19.2500,18.7400,19.1100,19.1100,40293095,0.0000,1.0000
2016-09-15,18.3000,18.4200,18.0600,18.3000,18.3000,14496695,0.0000,1.0000
2016-09-14,17.9300,18.3900,17.9000,18.0800,18.0800,16104751,0.0000,1.0000
2016-09-13,17.9900,18.1000,17.5200,17.7600,17.7600,15890043,0.0000,1.0000
2016-09-12,17.9600,18.2400,17.6800,18.1500,18.1500,18286500,0.0000,1.0000
2016-09-09,18.4000,18.8200,17.9200,18.1100,18.1100,30859215,0.0000,1.0000
2016-09-08,18.8100,19.3100,18.5900,18.7000,18.7000,45229547,0.0000,1.0000
2016-09-07,20.0500,20.6500,19.7950,19.8700,19.8700,26568494,0.0000,1.0000
2016-09-06,19.7400,20.1400,19.4775,19.9300,19.9300,24158508,0.0000,1.0000
2016-09-02,19.6200,19.8700,19.3500,19.5500,19.5500,19866170,0.0000,1.0000
2016-09-01,19.3700,20.1400,19.2700,19.5000,19.5000,39755902,0.0000,1.0000
2016-08-31,18.3900,19.6000,18.3800,19.2100,19.2100,34222625,0.0000,1.0000
2016-08-30,18.5900,18.6900,18.3200,18.3800,18.3800,8895546,0.0000,1.0000
2016-08-29,18.3900,18.5500,18.3000,18.4700,18.4700,11409168,0.0000,1.0000
2016-08-26,18.4000,18.5300,18.1000,18.3000,18.3000,11225899,0.0000,1.0000
2016-08-25,18.3300,18.6500,18.2300,18.3200,18.3200,13256882,0.0000,1.0000
2016-08-24,18.8000,18.9700,18.2000,18.2500,18.2500,16756484,0.0000,1.0000
2016-08-23,18.6500,18.9300,18.6500,18.6900,18.6900,14075873,0.0000,1.0000
2016-08-22,18.9500,18.9600,18.5200,18.5500,18.5500,17497567,0.0000,1.0000
2016-08-19,18.9600,19.3100,18.7600,18.9800,18.9800,17009616,0.0000,1.0000
2016-08-18,19.5600,19.6000,18.9200,19.0000,19.0000,47582533,0.0000,1.0000
2016-08-17,20.4300,20.4400,19.9000,20.1700,20.1700,22755659,0.0000,1.0000
2016-08-16,20.7800,20.7900,20.2900,20.4000,20.4000,23527718,0.0000,1.0000
2016-08-15,19.8500,21.1000,19.8300,20.8600,20.8600,58856771,0.0000,1.0000
2016-08-12,19.7100,19.7100,19.0100,19.5400,19.5400,28380207,0.0000,1.0000
2016-08-11,19.1700,19.8300,19.1138,19.7800,19.7800,30959549,0.0000,1.0000
2016-08-10,18.6700,19.5700,18.5600,19.0400,19.0400,28645020,0.0000,1.0000
2016-08-09,18.1700,18.7900,17.9710,18.6800,18.6800,19311410,0.0000,1.0000
2016-08-08,18.2500,18.4800,17.9350,18.2000,18.2000,15485126,0.0000,1.0000
2016-08-05,18.1900,18.5800,18.1400,18.2600,18.2600,22811743,0.0000,1.0000
2016-08-04,17.5700,18.3100,17.3600,18.1300,18.1300,33100532,0.0000,1.0000
2016-08-03,16.3400,17.8800,16.3300,17.6100,17.6100,55584629,0.0000,1.0000
2016-08-02,16.6100,16.7000,16.2000,16.4200,16.4200,16611322,0.0000,1.0000
2016-08-01,16.6500,16.8500,16.4000,16.6400,16.6400,26025346,0.0000,1.0000
2016-07-29,16.3900,16.7400,16.2400,16.6400,16.6400,26015428,0.0000,1.0000
2016-07-28,15.8900,16.3400,15.8800,16.3100,16.3100,31442403,0.0000,1.0000
2016-07-27,16.3400,16.5900,15.6900,15.7700,15.7700,83100546,0.0000,1.0000
2016-07-26,18.5200,18.6500,18.1640,18.4500,18.4500,43865915,0.0000,1.0000
2016-07-25,18.4300,18.7000,18.1700,18.6500,18.6500,21453271,0.0000,1.0000
2016-07-22,18.1200,18.3893,17.7600,18.3700,18.3700,19639487,0.0000,1.0000
2016-07-21,18.5700,18.8000,18.3500,18.3900,18.3900,13928228,0.0000,1.0000
2016-07-20,18.5200,18.7600,18.4500,18.5600,18.5600,15026338,0.0000,1.0000
2016-07-19,18.5100,18.8950,18.2700,18.3300,18.3300,27276664,0.0000,1.0000
2016-07-18,18.2900,18.7500,18.0500,18.6500,18.6500,29701125,0.0000,1.0000
2016-07-15,17.9800,18.1800,17.8100,18.0800,18.0800,17363591,0.0000,1.0000
2016-07-14,18.0200,18.2800,17.9110,17.9600,17.9600,19553421,0.0000,1.0000
2016-07-13,18.2100,18.3200,17.5000,17.7400,17.7400,17916199,0.0000,1.0000
2016-07-12,17.9800,18.3800,17.9200,18.1000,18.1000,23783804,0.0000,1.0000
2016-07-11,17.5900,17.8800,17.5200,17.7100,17.7100,24029857,0.0000,1.0000
2016-07-08,17.5300,18.1649,17.4700,18.0800,18.0800,24883974,0.0000,1.0000
2016-07-07,17.2400,17.6750,17.2400,17.3700,17.3700,13492885,0.0000,1.0000
2016-07-06,17.0200,17.3400,16.8100,17.2000,17.2000,15659886,0.0000,1.0000
2016-07-05,17.2500,17.2800,16.7600,17.1400,17.1400,15709666,0.0000,1.0000
2016-07-01,16.9300,17.5000,16.9000,17.2800,17.2800,20724755,0.0000,1.0000
2016-06-30,16.8000,17.0000,16.7300,16.9100,16.9100,14111037,0.0000,1.0000
2016-06-29,16.6000,17.0100,16.4300,16.8300,16.8300,18235982,0.0000,1.0000
2016-06-28,16.2400,16.6400,16.1600,16.4200,16.4200,18689040,0.0000,1.0000
2016-06-27,16.2900,16.4000,15.4600,15.8400,15.8400,23546607,0.0000,1.0000
2016-06-24,16.2400,16.9000,16.2000,16.4400,16.4400,31528500,0.0000,1.0000
2016-06-23,16.3000,17.0700,16.2800,17.0400,17.0400,25262190,0.0000,1.0000
2016-06-22,16.2700,16.3200,16.0450,16.1300,16.1300,13743145,0.0000,1.0000
2016-06-21,16.4800,16.5600,16.1700,16.3200,16.3200,15045392,0.0000,1.0000
2016-06-20,16.3400,16.6400,16.1500,16.3400,16.3400,22876114,0.0000,1.0000
2016-06-17,16.1600,16.3689,15.9600,16.1000,16.1000,32254067,0.0000,1.0000
2016-06-16,15.9000,15.9500,15.4000,15.8700,15.8700,23602807,0.0000,1.0000
2016-06-15,15.7100,16.4400,15.7100,15.9600,15.9600,53519973,0.0000,1.0000
2016-06-14,14.8200,15.4200,14.8000,15.3600,15.3600,37339618,0.0000,1.0000
2016-06-13,14.6300,15.3000,14.5050,14.5500,14.5500,43101133,0.0000,1.0000
2016-06-10,14.4500,14.4500,14.0000,14.0200,14.0200,22092785,0.0000,1.0000
2016-06-09,14.8400,14.8595,14.5900,14.6000,14.6000,12378823,0.0000,1.0000
2016-06-08,15.0700,15.1200,14.8100,14.9500,14.9500,12991012,0.0000,1.0000
2016-06-07,15.3600,15.3700,14.9100,15.0000,15.0000,16517978,0.0000,1.0000
2016-06-06,15.2200,15.4500,15.1800,15.2700,15.2700,13760216,0.0000,1.0000
2016-06-03,15.1100,15.3489,14.9600,15.2000,15.2000,15492922,0.0000,1.0000
2016-06-02,15.0400,15.2600,14.8463,15.2000,15.2000,13186085,0.0000,1.0000
2016-06-01,15.1000,15.1700,14.6200,15.0200,15.0200,18247713,0.0000,1.0000
2016-05-31,15.1200,15.4900,15.0800,15.2200,15.2200,24292612,0.0000,1.0000
2016-05-27,14.2500,15.1000,14.2300,15.1000,15.1000,28355110,0.0000,1.0000
2016-05-26,14.4500,14.4800,14.1900,14.3000,14.3000,21104050,0.0000,1.0000
2016-05-25,14.0700,14.5700,14.0600,14.4100,14.4100,23181782,0.0000,1.0000
2016-05-24,14.2200,14.2200,13.7250,14.0300,14.0300,36214274,0.0000,1.0000
2016-05-23,14.4000,14.6000,14.3301,14.4100,14.4100,12897379,0.0000,1.0000
2016-05-20,14.2000,14.5100,14.1600,14.4300,14.4300,18485309,0.0000,1.0000
2016-05-19,14.1500,14.3050,14.0400,14.1500,14.1500,15882219,0.0000,1.0000
2016-05-18,14.3500,14.5700,14.0500,14.1400,14.1400,14290137,0.0000,1.0000
2016-05-17,14.2100,14.5900,14.1300,14.3400,14.3400,15578201,0.0000,1.0000
2016-05-16,14.0900,14.3700,14.0600,14.2900,14.2900,11578612,0.0000,1.0000
2016-05-13,14.0600,14.2800,14.0000,14.1000,14.1000,12706830,0.0000,1.0000
2016-05-12,14.6300,14.6800,14.0000,14.0800,14.0800,19838725,0.0000,1.0000
2016-05-11,14.6100,14.8600,14.4400,14.5900,14.5900,13788481,0.0000,1.0000
2016-05-10,14.1700,14.6900,14.1600,14.6300,14.6300,14589898,0.0000,1.0000
2016-05-09,14.2800,14.4700,14.1500,14.2000,14.2000,11458944,0.0000,1.0000
2016-05-06,14.1200,14.4000,13.9800,14.4000,14.4000,21204753,0.0000,1.0000
2016-05-05,14.9300,14.9800,14.0800,14.1200,14.1200,29102951,0.0000,1.0000
2016-05-04,13.9500,14.8780,13.9200,14.8400,14.8400,41673511,0.0000,1.0000
2016-05-03,14.2200,14.2500,13.9000,14.0100,14.0100,26027967,0.0000,1.0000
2016-05-02,14.7300,14.7700,14.1700,14.4000,14.4000,26129215,0.0000,1.0000
2016-04-29,14.7000,14.9300,14.3200,14.6200,14.6200,26873541,0.0000,1.0000
2016-04-28,14.8500,15.0900,14.6200,14.6400,14.6400,34776386,0.0000,1.0000
2016-04-27,15.1500,15.2800,14.8100,14.8600,14.8600,84769425,0.0000,1.0000
2016-04-26,17.2100,17.9800,17.0800,17.7500,17.7500,44275458,0.0000,1.0000
2016-04-25,17.2000,17.7500,16.8800,17.0900,17.0900,18992691,0.0000,1.0000
2016-04-22,17.3300,17.5100,17.0200,17.2300,17.2300,14852523,0.0000,1.0000
2016-04-21,17.4800,17.7700,17.4200,17.5100,17.5100,13601574,0.0000,1.0000
2016-04-20,16.9400,17.5200,16.9000,17.4000,17.4000,17764285,0.0000,1.0000
2016-04-19,17.3700,17.3900,16.6800,16.9200,16.9200,24780692,0.0000,1.0000
2016-04-18,17.7100,17.7200,17.0600,17.3100,17.3100,17293730,0.0000,1.0000
2016-04-15,17.5200,17.9100,17.3100,17.5800,17.5800,16346827,0.0000,1.0000
2016-04-14,17.3800,17.7000,17.1400,17.5300,17.5300,16213177,0.0000,1.0000
2016-04-13,16.6800,17.4000,16.6800,17.3700,17.3700,22639265,0.0000,1.0000
2016-04-12,16.5000,16.7700,16.1500,16.5700,16.5700,14935630,0.0000,1.0000
2016-04-11,16.7400,16.9800,16.4100,16.5100,16.5100,14197815,0.0000,1.0000
2016-04-08,17.1200,17.2500,16.4100,16.6500,16.6500,18674780,0.0000,1.0000
2016-04-07,16.8800,17.5900,16.8500,16.9800,16.9800,23295678,0.0000,1.0000
2016-04-06,17.1200,17.4800,16.9000,17.2600,17.2600,23112794,0.0000,1.0000
2016-04-05,17.5900,17.8300,16.8900,17.0500,17.0500,41686472,0.0000,1.0000
2016-04-04,16.0000,17.5403,15.9600,17.0900,17.0900,38236471,0.0000,1.0000
2016-04-01,16.4100,16.4300,15.8300,15.9800,15.9800,20998299,0.0000,1.0000
2016-03-31,16.4000,16.8400,16.2100,16.5500,16.5500,18882700,0.0000,1.0000
2016-03-30,16.1600,16.7200,16.0100,16.3600,16.3600,19364293,0.0000,1.0000
2016-03-29,15.6900,15.9900,15.3300,15.9700,15.9700,17020241,0.0000,1.0000
2016-03-28,15.9800,16.0050,15.4000,15.6000,15.6000,14126365,0.0000,1.0000
2016-03-24,15.9400,15.9880,15.5650,15.9100,15.9100,14887215,0.0000,1.0000
2016-03-23,16.8600,16.9100,16.0100,16.0100,16.0100,17974399,0.0000,1.0000
2016-03-22,16.7500,17.0100,16.7000,16.8600,16.8600,9559593,0.0000,1.0000
2016-03-21,16.8300,17.0500,16.6800,16.8900,16.8900,12551861,0.0000,1.0000
2016-03-18,17.0800,17.3800,16.7600,16.8500,16.8500,21151481,0.0000,1.0000
2016-03-17,16.6500,17.1470,16.6200,16.8500,16.8500,17042161,0.0000,1.0000
2016-03-16,16.3300,16.7700,16.1300,16.7000,16.7000,24783644,0.0000,1.0000
2016-03-15,17.0000,17.0400,16.1400,16.1900,16.1900,19717491,0.0000,1.0000
2016-03-14,16.8100,17.3200,16.7900,17.1200,17.1200,16520464,0.0000,1.0000
2016-03-11,16.7700,16.9400,16.4600,16.8100,16.8100,21486002,0.0000,1.0000
2016-03-10,17.6900,17.7719,16.3800,16.6100,16.6100,33192014,0.0000,1.0000
2016-03-09,18.6100,18.7400,17.5200,17.6600,17.6600,21543932,0.0000,1.0000
2016-03-08,19.1000,19.1500,18.3300,18.3300,18.3300,16345701,0.0000,1.0000
2016-03-07,19.1100,19.7300,18.7700,19.1700,19.1700,19724146,0.0000,1.0000
2016-03-04,19.4500,20.3200,19.0600,19.3600,19.3600,30094802,0.0000,1.0000
2016-03-03,18.5300,19.4400,18.4800,19.3100,19.3100,23234493,0.0000,1.0000
2016-03-02,17.8500,18.7400,17.7150,18.5400,18.5400,17203664,0.0000,1.0000
2016-03-01,18.4700,18.4800,17.5900,17.8500,17.8500,19325629,0.0000,1.0000
2016-02-29,17.9600,18.5700,17.7800,18.1200,18.1200,17393560,0.0000,1.0000
2016-02-26,17.7200,18.0300,17.4975,17.9400,17.9400,16337799,0.0000,1.0000
2016-02-25,17.9300,17.9500,17.3100,17.5900,17.5900,22354319,0.0000,1.0000
2016-02-24,18.0000,18.0900,17.1100,18.0000,18.0000,26678532,0.0000,1.0000
2016-02-23,18.5600,18.9600,18.1000,18.3000,18.3000,25754714,0.0000,1.0000
2016-02-22,18.6200,18.6750,17.7600,18.3000,18.3000,25005651,0.0000,1.0000
2016-02-19,18.1600,18.8800,17.7700,18.3100,18.3100,23996087,0.0000,1.0000
2016-02-18,18.1000,18.5500,17.5200,18.4300,18.4300,34553117,0.0000,1.0000
2016-02-17,16.4700,17.6000,16.4300,17.4600,17.4600,25793189,0.0000,1.0000
2016-02-16,16.0900,16.4000,15.6700,16.3600,16.3600,17273639,0.0000,1.0000
2016-02-12,14.5400,15.9400,14.5300,15.8800,15.8800,35637522,0.0000,1.0000
2016-02-11,14.0700,14.7900,13.9100,14.3100,14.3100,38622304,0.0000,1.0000
2016-02-10,14.5500,15.2800,14.5200,14.9800,14.9800,40826148,0.0000,1.0000
2016-02-09,14.6200,15.5450,14.3100,14.4000,14.4000,26784596,0.0000,1.0000
2016-02-08,15.5100,15.5500,14.7300,14.9000,14.9000,24932812,0.0000,1.0000
2016-02-05,16.6100,16.6400,15.6200,15.7200,15.7200,24057572,0.0000,1.0000
2016-02-04,16.4000,17.1750,16.2900,16.9100,16.9100,18269587,0.0000,1.0000
2016-02-03,16.3300,16.7400,15.5500,16.5600,16.5600,24298904,0.0000,1.0000
2016-02-02,17.2200,17.2700,16.0100,16.0800,16.0800,31796837,0.0000,1.0000
2016-02-01,17.8900,18.7700,17.3000,17.9100,17.9100,49967839,0.0000,1.0000
2016-01-29,16.6400,17.0700,16.5100,16.8000,16.8000,16877972,0.0000,1.0000
2016-01-28,17.2100,17.3400,16.4500,16.4900,16.4900,16819403,0.0000,1.0000
2016-01-27,17.0100,17.6200,16.7700,16.7800,16.7800,16793257,0.0000,1.0000
2016-01-26,17.2200,17.2800,16.4000,17.0100,17.0100,22103284,0.0000,1.0000
2016-01-25,16.8000,17.4500,16.5100,17.0200,17.0200,33632284,0.0000,1.0000
2016-01-22,18.2900,18.5600,17.7300,17.8400,17.8400,15577248,0.0000,1.0000
2016-01-21,17.4400,18.3200,16.8000,17.8300,17.8300,26328916,0.0000,1.0000
2016-01-20,16.1600,19.0400,15.4800,17.3800,17.3800,69155313,0.0000,1.0000
2016-01-19,18.1800,18.1800,16.4300,16.6900,16.6900,24225305,0.0000,1.0000
2016-01-15,18.2300,18.5300,17.6100,17.9400,17.9400,24587659,0.0000,1.0000
2016-01-14,18.5500,19.1600,17.2700,19.0000,19.0000,37104131,0.0000,1.0000
2016-01-13,19.7000,19.7600,18.4700,18.6800,18.6800,35875957,0.0000,1.0000
2016-01-12,19.8700,20.4100,19.3200,19.6200,19.6200,14588416,0.0000,1.0000
2016-01-11,20.1200,20.2000,19.2600,19.6500,19.6500,21325297,0.0000,1.0000
2016-01-08,20.5100,20.7200,19.6000,19.9800,19.9800,21801016,0.0000,1.0000
2016-01-07,21.0000,21.4800,20.1980,20.2600,20.2600,20732692,0.0000,1.0000
2016-01-06,21.6200,22.1800,21.1800,21.3900,21.3900,14015289,0.0000,1.0000
2016-01-05,22.7900,23.0000,21.8500,21.9200,21.9200,16977890,0.0000,1.0000
2016-01-04,22.6400,22.8400,22.1100,22.5600,22.5600,15305586,0.0000,1.0000
2015-12-31,22.1700,23.2800,22.1500,23.1400,23.1400,19468865,0.0000,1.0000
2015-12-30,22.4500,22.9400,22.2100,22.2300,22.2300,15310280,0.0000,1.0000
2015-12-29,22.6300,22.8200,22.3100,22.4700,22.4700,11195442,0.0000,1.0000
2015-12-28,22.9000,23.3200,22.5000,22.5300,22.5300,13724952,0.0000,1.0000
2015-12-24,22.7000,23.0600,22.5500,22.9700,22.9700,7910740,0.0000,1.0000
2015-12-23,22.6800,22.9500,22.3700,22.6700,22.6700,13160380,0.0000,1.0000
2015-12-22,22.2600,22.6700,22.0900,22.5600,22.5600,13689532,0.0000,1.0000
2015-12-21,23.0200,23.0400,21.9900,22.1400,22.1400,22892416,0.0000,1.0000
2015-12-18,23.3500,23.4400,22.6600,22.9900,22.9900,23028484,0.0000,1.0000
2015-12-17,24.4700,24.7500,23.2900,23.3100,23.3100,17879207,0.0000,1.0000
2015-12-16,23.9600,24.4800,23.8000,24.3000,24.3000,24059314,0.0000,1.0000
2015-12-15,24.5200,24.6900,23.7000,23.9500,23.9500,23106575,0.0000,1.0000
2015-12-14,24.6800,24.9400,23.7000,24.9200,24.9200,18097620,0.0000,1.0000
2015-12-11,25.9100,26.2000,24.8000,24.8400,24.8400,23021236,0.0000,1.0000
2015-12-10,24.3600,26.2500,24.3400,25.9100,25.9100,28250851,0.0000,1.0000
2015-12-09,24.9800,24.9800,24.1900,24.3100,24.3100,14683738,0.0000,1.0000
2015-12-08,24.0400,25.1000,23.5400,24.9900,24.9900,23617425,0.0000,1.0000
2015-12-07,24.9900,25.1600,24.1300,24.4600,24.4600,16860824,0.0000,1.0000
2015-12-04,25.8100,25.8500,25.0100,25.0200,25.0200,16799319,0.0000,1.0000
2015-12-03,25.4800,26.0600,24.9100,25.9000,25.9000,23838904,0.0000,1.0000
2015-12-02,25.3100,25.7200,25.1700,25.4000,25.4000,11843036,0.0000,1.0000
2015-12-01,25.3900,25.5800,25.0000,25.5300,25.5300,14784589,0.0000,1.0000
2015-11-30,25.7800,25.8200,25.0600,25.4000,25.4000,17893920,0.0000,1.0000
2015-11-27,25.9800,26.0700,25.6700,25.7500,25.7500,4179967,0.0000,1.0000
2015-11-25,25.6200,26.4099,25.5900,26.0600,26.0600,13063750,0.0000,1.0000
2015-11-24,25.1700,25.5500,25.0200,25.5200,25.5200,10414030,0.0000,1.0000
2015-11-23,26.1100,26.2700,25.0200,25.2000,25.2000,18145596,0.0000,1.0000
2015-11-20,26.3200,26.6950,26.0300,26.2700,26.2700,10827038,0.0000,1.0000
2015-11-19,25.9400,26.5800,25.9300,26.3200,26.3200,14219941,0.0000,1.0000
2015-11-18,25.1700,26.0901,25.1600,25.9000,25.9000,13960224,0.0000,1.0000
2015-11-17,25.5400,25.6900,24.9000,25.2300,25.2300,13253933,0.0000,1.0000
2015-11-16,25.3300,25.7756,25.0000,25.4100,25.4100,12253053,0.0000,1.0000
2015-11-13,25.8900,26.1600,25.1600,25.1800,25.1800,14298190,0.0000,1.0000
2015-11-12,26.0800,26.6100,25.8500,26.1300,26.1300,12565961,0.0000,1.0000
2015-11-11,27.0800,27.1400,26.3700,26.5000,26.5000,12777186,0.0000,1.0000
2015-11-10,26.8100,27.1700,26.2500,27.0500,27.0500,16543698,0.0000,1.0000
2015-11-09,28.0700,28.2100,26.6800,27.0900,27.0900,25609002,0.0000,1.0000
2015-11-06,28.5800,28.7000,28.0500,28.2800,28.2800,13565820,0.0000,1.0000
2015-11-05,29.4700,29.5500,28.4500,28.6600,28.6600,15513804,0.0000,1.0000
2015-11-04,29.3600,30.1500,29.2300,29.3600,29.3600,18763234,0.0000,1.0000
2015-11-03,29.0900,29.6300,29.0400,29.1300,29.1300,16684173,0.0000,1.0000
2015-11-02,28.5400,29.2900,28.0500,29.2000,29.2000,18537636,0.0000,1.0000
2015-10-30,29.1300,29.5700,28.3500,28.4600,28.4600,21933119,0.0000,1.0000
2015-10-29,30.5800,30.7000,28.9300,29.0600,29.0600,33651189,0.0000,1.0000
2015-10-28,28.1300,31.3400,27.7600,30.8700,30.8700,88951677,0.0000,1.0000
2015-10-27,31.0200,31.8700,30.6500,31.3400,31.3400,44004296,0.0000,1.0000
2015-10-26,30.6300,31.2200,30.4800,30.8900,30.8900,16787022,0.0000,1.0000
2015-10-23,29.9700,30.7200,29.6100,30.2800,30.2800,19855746,0.0000,1.0000
2015-10-22,29.2400,29.8000,28.7400,29.1500,29.1500,17411730,0.0000,1.0000
2015-10-21,29.5000,29.6600,28.6500,29.3000,29.3000,30711843,0.0000,1.0000
2015-10-20,30.9400,31.3900,30.4100,30.9100,30.9100,15824434,0.0000,1.0000
2015-10-19,31.1500,31.6000,30.5700,30.9100,30.9100,23958109,0.0000,1.0000
2015-10-16,30.0800,31.4000,29.3600,31.1500,31.1500,44493231,0.0000,1.0000
2015-10-15,29.4600,30.2800,29.0100,29.7100,29.7100,15838856,0.0000,1.0000
2015-10-14,29.4600,29.8200,28.3800,29.3800,29.3800,27533489,0.0000,1.0000
2015-10-13,29.5500,30.6800,28.8400,29.0600,29.0600,45783154,0.0000,1.0000
2015-10-12,30.3000,30.7700,28.6000,28.7500,28.7500,30619463,0.0000,1.0000
2015-10-09,30.9000,31.4100,30.2800,30.8500,30.8500,27453628,0.0000,1.0000
2015-10-08,29.5700,31.5000,29.0300,30.3200,30.3200,36431756,0.0000,1.0000
2015-10-07,28.3500,29.9500,28.0100,29.8300,29.8300,34739534,0.0000,1.0000
2015-10-06,28.1600,28.4000,26.7500,27.6200,27.6200,31282685,0.0000,1.0000
2015-10-05,26.9900,28.2500,26.3300,28.1500,28.1500,30994824,0.0000,1.0000
2015-10-02,24.5000,26.4800,24.3400,26.3100,26.3100,23529033,0.0000,1.0000
2015-10-01,26.4700,26.8400,24.6500,24.6800,24.6800,30907932,0.0000,1.0000
2015-09-30,25.9400,27.3300,25.8800,26.9400,26.9400,25208210,0.0000,1.0000
2015-09-29,25.2300,25.7600,24.9150,25.5900,25.5900,13419841,0.0000,1.0000
2015-09-28,24.9600,25.6100,24.6000,25.2600,25.2600,17368089,0.0000,1.0000
2015-09-25,26.8400,26.9100,25.1400,25.2900,25.2900,14551597,0.0000,1.0000
2015-09-24,26.5100,26.6400,25.3979,26.6000,26.6000,21338355,0.0000,1.0000
2015-09-23,26.9700,27.2800,26.5750,26.7900,26.7900,10840010,0.0000,1.0000
2015-09-22,27.0500,27.4800,26.6200,26.8300,26.8300,13445786,0.0000,1.0000
2015-09-21,27.9800,28.0900,27.1899,27.3800,27.3800,10518122,0.0000,1.0000
2015-09-18,27.0400,28.2500,26.9900,27.9600,27.9600,17505272,0.0000,1.0000
2015-09-17,27.5400,27.9300,27.0300,27.4100,27.4100,13073231,0.0000,1.0000
2015-09-16,27.1400,28.0000,27.0000,27.7500,27.7500,13303030,0.0000,1.0000
2015-09-15,27.0400,27.5500,27.0000,27.1700,27.1700,10166742,0.0000,1.0000
2015-09-14,27.2100,27.5500,26.7950,26.9000,26.9000,11564018,0.0000,1.0000
2015-09-11,27.6300,27.6500,27.1700,27.3900,27.3900,8818538,0.0000,1.0000
2015-09-10,27.0700,27.8300,26.9500,27.7100,27.7100,11228289,0.0000,1.0000
2015-09-09,27.1700,27.8500,26.4200,27.1800,27.1800,19349852,0.0000,1.0000
2015-09-08,28.1500,28.2000,27.0100,27.1800,27.1800,19188944,0.0000,1.0000
2015-09-04,27.9500,28.5500,27.8000,28.1500,28.1500,13537888,0.0000,1.0000
2015-09-03,28.0300,29.0000,27.8100,28.3000,28.3000,21349227,0.0000,1.0000
2015-09-02,27.4500,27.8250,26.8700,27.8200,27.8200,14379147,0.0000,1.0000
2015-09-01,27.2300,28.1166,26.7700,27.0300,27.0300,21114623,0.0000,1.0000
2015-08-31,27.6400,28.4900,27.3500,27.7900,27.7900,30724373,0.0000,1.0000
2015-08-28,26.1900,26.9300,26.0600,26.8300,26.8300,12406601,0.0000,1.0000
2015-08-27,25.4400,26.8000,25.2400,26.4600,26.4600,22482733,0.0000,1.0000
2015-08-26,24.8000,25.2900,23.8300,25.0300,25.0300,20552414,0.0000,1.0000
2015-08-25,26.2900,26.3300,24.3800,24.3800,24.3800,19893122,0.0000,1.0000
2015-08-24,23.6100,26.2300,21.0100,25.1700,25.1700,30075621,0.0000,1.0000
2015-08-21,25.6500,26.7350,25.5100,25.8700,25.8700,23687834,0.0000,1.0000
2015-08-20,27.1500,27.4800,25.9200,26.0000,26.0000,25257844,0.0000,1.0000
2015-08-19,28.0600,28.0900,27.1600,27.6100,27.6100,19950623,0.0000,1.0000
2015-08-18,28.9100,29.0000,28.3000,28.3000,28.3000,9631093,0.0000,1.0000
2015-08-17,29.1900,29.3400,28.9300,29.0600,29.0600,9557303,0.0000,1.0000
2015-08-14,28.5000,29.2690,28.4500,29.0600,29.0600,16716347,0.0000,1.0000
2015-08-13,29.6000,29.6000,28.4400,28.5400,28.5400,14936767,0.0000,1.0000
2015-08-12,29.1100,29.5000,28.5100,29.3900,29.3900,18582876,0.0000,1.0000
2015-08-11,29.0100,29.8900,28.5300,29.6200,29.6200,27827588,0.0000,1.0000
2015-08-10,28.0900,29.6300,27.8200,29.5000,29.5000,42444174,0.0000,1.0000
2015-08-07,27.8000,27.9000,26.8700,27.0400,27.0400,18392551,0.0000,1.0000
2015-08-06,28.4000,28.4300,27.2300,27.5400,27.5400,27573806,0.0000,1.0000
2015-08-05,29.4100,29.5000,28.4300,28.4800,28.4800,21092699,0.0000,1.0000
2015-08-04,29.1100,29.9000,28.9000,29.3400,29.3400,21900293,0.0000,1.0000
2015-08-03,30.8500,31.0900,28.6900,29.2700,29.2700,46601373,0.0000,1.0000
2015-07-31,31.3800,31.6200,30.8500,31.0100,31.0100,18150252,0.0000,1.0000
2015-07-30,31.1000,31.8300,31.0500,31.4700,31.4700,29389230,0.0000,1.0000
2015-07-29,32.5900,33.2400,31.0600,31.2400,31.2400,92939850,0.0000,1.0000
2015-07-28,34.7000,36.6700,34.1400,36.5400,36.5400,55808485,0.0000,1.0000
2015-07-27,35.1100,35.1500,33.8800,34.7000,34.7000,24629131,0.0000,1.0000
2015-07-24,36.4100,36.4100,35.3000,35.4200,35.4200,12980732,0.0000,1.0000
2015-07-23,36.0000,36.7300,35.9450,36.1900,36.1900,10407769,0.0000,1.0000
2015-07-22,36.2300,36.3730,35.5100,36.0900,36.0900,11753126,0.0000,1.0000
2015-07-21,35.8200,36.7500,35.7100,36.6300,36.6300,12511468,0.0000,1.0000
2015-07-20,35.7500,35.9900,35.2050,35.8100,35.8100,9882654,0.0000,1.0000
2015-07-17,36.4600,36.6600,35.6000,35.6700,35.6700,12818201,0.0000,1.0000
2015-07-16,35.8900,36.4500,35.7500,36.1000,36.1000,11367681,0.0000,1.0000
2015-07-15,36.6600,37.0900,35.5500,35.6600,35.6600,18296837,0.0000,1.0000
2015-07-14,35.7800,38.8200,35.7700,36.7200,36.7200,50073600,0.0000,1.0000
2015-07-13,34.9900,36.1400,34.7500,35.7800,35.7800,17118202,0.0000,1.0000
2015-07-10,34.6800,35.1200,34.4600,34.9100,34.9100,10628100,0.0000,1.0000
2015-07-09,35.1700,35.4300,34.3100,34.3600,34.3600,14099347,0.0000,1.0000
2015-07-08,35.4100,36.0500,34.6700,34.7600,34.7600,15522331,0.0000,1.0000
2015-07-07,35.3500,35.7200,34.5500,35.5200,35.5200,14187837,0.0000,1.0000
2015-07-06,35.1700,35.6900,35.0000,35.4300,35.4300,11300944,0.0000,1.0000
2015-07-02,35.4000,35.9700,35.1000,35.7200,35.7200,17663959,0.0000,1.0000
2015-07-01,36.0500,36.1100,35.2350,35.4000,35.4000,23674620,0.0000,1.0000
2015-06-30,34.5000,36.4200,34.4400,36.2200,36.2200,26095592,0.0000,1.0000
2015-06-29,34.4700,35.0899,34.1500,34.2100,34.2100,25200193,0.0000,1.0000
2015-06-26,34.9700,35.3300,34.6700,35.2600,35.2600,17354182,0.0000,1.0000
2015-06-25,35.3600,35.3600,34.9650,35.1700,35.1700,10730930,0.0000,1.0000
2015-06-24,35.4000,35.7500,35.1000,35.1700,35.1700,13011849,0.0000,1.0000
2015-06-23,35.7800,36.2000,34.9600,35.3700,35.3700,25891418,0.0000,1.0000
2015-06-22,35.9500,36.0000,35.3400,35.5500,35.5500,21424055,0.0000,1.0000
2015-06-19,34.9700,36.2800,34.8500,35.8600,35.8600,33434669,0.0000,1.0000
2015-06-18,34.6300,35.0400,34.4500,34.6600,34.6600,19432083,0.0000,1.0000
2015-06-17,34.9900,35.1200,34.1700,34.6900,34.6900,27278532,0.0000,1.0000
2015-06-16,34.2300,35.2000,33.5100,34.8200,34.8200,49856071,0.0000,1.0000
2015-06-15,35.2400,35.2600,34.3100,34.6700,34.6700,32932110,0.0000,1.0000
2015-06-12,36.9000,37.2500,35.5500,35.9000,35.9000,60914449,0.0000,1.0000
2015-06-11,35.9200,36.1700,35.7900,35.8400,35.8400,20546962,0.0000,1.0000
2015-06-10,36.0100,36.1700,35.6000,35.8500,35.8500,12634817,0.0000,1.0000
2015-06-09,36.5000,36.5000,35.5650,35.8800,35.8800,14034468,0.0000,1.0000
2015-06-08,36.9100,36.9800,36.4100,36.4600,36.4600,11767083,0.0000,1.0000
2015-06-05,36.7900,37.2300,36.6500,37.0000,37.0000,11854282,0.0000,1.0000
2015-06-04,37.1700,37.7900,36.5100,36.7100,36.7100,23762920,0.0000,1.0000
2015-06-03,36.5100,37.1700,36.4800,37.0000,37.0000,14023524,0.0000,1.0000
2015-06-02,36.4500,36.6000,36.1600,36.4000,36.4000,13119475,0.0000,1.0000
2015-06-01,36.6900,36.8300,36.4300,36.6300,36.6300,9994895,0.0000,1.0000
2015-05-29,37.0500,37.0700,36.5300,36.6700,36.6700,16835646,0.0000,1.0000
2015-05-28,36.4900,37.3300,36.3700,36.8300,36.8300,17912105,0.0000,1.0000
2015-05-27,36.5000,36.6528,36.1000,36.4100,36.4100,14455268,0.0000,1.0000
2015-05-26,36.6700,36.8300,36.3700,36.5100,36.5100,13047617,0.0000,1.0000
2015-05-22,36.7000,36.9765,36.5700,36.6000,36.6000,9861815,0.0000,1.0000
2015-05-21,36.8100,36.9400,36.3900,36.6800,36.6800,17435073,0.0000,1.0000
2015-05-20,37.4900,37.9400,36.5400,36.7800,36.7800,23383736,0.0000,1.0000
2015-05-19,37.1400,37.8800,36.9000,37.5000,37.5000,26941996,0.0000,1.0000
2015-05-18,37.1000,37.5700,36.9000,37.2800,37.2800,11227320,0.0000,1.0000
2015-05-15,37.3600,37.8000,37.0000,37.1000,37.1000,16787439,0.0000,1.0000
2015-05-14,37.9300,38.0900,37.2700,37.3300,37.3300,14225654,0.0000,1.0000
2015-05-13,37.6600,38.2000,37.5300,37.7200,37.7200,14075331,0.0000,1.0000
2015-05-12,37.2900,37.8000,37.0600,37.4800,37.4800,11776781,0.0000,1.0000
2015-05-11,37.5800,37.8590,37.2000,37.3100,37.3100,12297490,0.0000,1.0000
2015-05-08,38.0200,38.2000,37.5500,37.5900,37.5900,14362759,0.0000,1.0000
2015-05-07,37.2400,37.8800,36.9500,37.7100,37.7100,21240008,0.0000,1.0000
2015-05-06,37.6900,37.7800,36.5200,37.2600,37.2600,29070083,0.0000,1.0000
2015-05-05,38.0000,38.6100,37.3600,37.4200,37.4200,22570374,0.0000,1.0000
2015-05-04,38.7200,38.9600,37.5500,37.8800,37.8800,27603308,0.0000,1.0000
2015-05-01,39.1900,39.2400,37.3700,37.8400,37.8400,37785543,0.0000,1.0000
2015-04-30,39.2800,39.7400,38.4800,38.9600,38.9600,46617198,0.0000,1.0000
2015-04-29,40.2100,41.0900,38.0700,38.4900,38.4900,120376639,0.0000,1.0000
2015-04-28,52.1600,52.2190,38.3800,42.2700,42.2700,76785097,0.0000,1.0000
2015-04-27,50.8400,52.5400,50.8200,51.6600,51.6600,23863907,0.0000,1.0000
2015-04-24,51.8500,51.9600,50.2400,50.8200,50.8200,14896860,0.0000,1.0000
2015-04-23,51.8700,52.2000,51.2200,51.4100,51.4100,11472623,0.0000,1.0000
2015-04-22,51.4800,52.0900,51.3200,51.7300,51.7300,11464604,0.0000,1.0000
2015-04-21,51.6800,51.8500,51.1000,51.3200,51.3200,8461283,0.0000,1.0000
2015-04-20,51.0700,51.4800,50.5100,51.4000,51.4000,11004476,0.0000,1.0000
2015-04-17,51.7100,52.1600,50.1900,50.6600,50.6600,16641397,0.0000,1.0000
2015-04-16,51.3000,52.3400,51.1400,52.0300,52.0300,14313301,0.0000,1.0000
2015-04-15,51.3300,51.8700,50.9100,51.3000,51.3000,13192067,0.0000,1.0000
2015-04-14,51.7500,51.8100,50.6800,51.2000,51.2000,12231640,0.0000,1.0000
2015-04-13,51.9900,52.2900,51.4500,51.6200,51.6200,12306515,0.0000,1.0000
2015-04-10,52.2900,52.4500,51.3800,51.9400,51.9400,13244771,0.0000,1.0000
2015-04-09,52.1500,52.9900,51.5400,52.1700,52.1700,17865277,0.0000,1.0000
2015-04-08,53.3200,53.4900,51.9500,52.3000,52.3000,22368922,0.0000,1.0000
2015-04-07,51.0100,53.2800,50.8600,52.8700,52.8700,36968209,0.0000,1.0000
2015-04-06,50.0300,51.1600,49.8700,50.8400,50.8400,14533070,0.0000,1.0000
2015-04-02,50.6400,50.9500,49.8800,50.4200,50.4200,13423909,0.0000,1.0000
2015-04-01,51.0000,51.6900,50.1700,50.4700,50.4700,24299197,0.0000,1.0000
2015-03-31,49.6200,51.2400,49.5400,50.0800,50.0800,23876901,0.0000,1.0000
2015-03-30,50.4500,50.7100,48.6600,49.8900,49.8900,20345795,0.0000,1.0000
2015-03-27,50.3500,50.8900,49.9400,50.0100,50.0100,14833279,0.0000,1.0000
2015-03-26,49.6500,50.9000,49.4000,49.9200,49.9200,24355605,0.0000,1.0000
2015-03-25,51.5000,51.8700,49.3100,49.5000,49.5000,31659660,0.0000,1.0000
2015-03-24,48.6700,51.7900,48.5400,51.4700,51.4700,38059472,0.0000,1.0000
2015-03-23,48.2400,49.2500,47.8700,48.4600,48.4600,16385974,0.0000,1.0000
2015-03-20,48.3600,49.1500,48.2500,48.4400,48.4400,18676496,0.0000,1.0000
2015-03-19,46.9600,48.1500,46.4500,47.9300,47.9300,15942149,0.0000,1.0000
2015-03-18,46.7500,47.3850,46.1600,47.2000,47.2000,13105173,0.0000,1.0000
2015-03-17,46.6600,47.2900,46.4400,46.9300,46.9300,13348031,0.0000,1.0000
2015-03-16,46.9000,47.0700,46.0500,46.4300,46.4300,10230785,0.0000,1.0000
2015-03-13,46.9400,47.7200,46.4520,46.6600,46.6600,13350495,0.0000,1.0000
2015-03-12,46.5700,47.3200,46.5100,47.0700,47.0700,12204772,0.0000,1.0000
2015-03-11,45.6600,46.7400,45.1300,46.2700,46.2700,12249614,0.0000,1.0000
2015-03-10,47.2300,47.2600,45.7900,45.8400,45.8400,17289874,0.0000,1.0000
2015-03-09,47.2200,48.0800,47.1300,47.5900,47.5900,13635901,0.0000,1.0000
2015-03-06,47.2600,48.0700,46.5700,46.7500,46.7500,11534904,0.0000,1.0000
2015-03-05,47.5900,48.4300,47.2000,47.3500,47.3500,13511889,0.0000,1.0000
2015-03-04,47.5100,47.8500,46.4100,47.5700,47.5700,14282227,0.0000,1.0000
2015-03-03,48.1300,48.8000,47.4350,47.7100,47.7100,16682052,0.0000,1.0000
2015-03-02,48.2600,48.3000,47.3100,48.1500,48.1500,13423421,0.0000,1.0000
2015-02-27,49.1900,49.9000,47.9600,48.0800,48.0800,14990046,0.0000,1.0000
2015-02-26,48.8100,50.0100,48.6400,49.4100,49.4100,22324979,0.0000,1.0000
2015-02-25,48.8000,49.1800,48.2500,48.5500,48.5500,11663183,0.0000,1.0000
2015-02-24,48.3300,49.3000,48.0600,48.6900,48.6900,11073664,0.0000,1.0000
2015-02-23,49.0200,49.2400,48.3500,48.4700,48.4700,12527258,0.0000,1.0000
2015-02-20,48.7600,49.8800,48.6500,49.1100,49.1100,20733823,0.0000,1.0000
2015-02-19,47.8400,48.9400,47.4200,48.7000,48.7000,18145779,0.0000,1.0000
2015-02-18,48.0000,48.7900,47.3600,47.8200,47.8200,15497207,0.0000,1.0000
2015-02-17,48.2000,49.0900,47.8900,48.0300,48.0300,16659094,0.0000,1.0000
2015-02-13,47.9300,48.8200,47.5700,48.5000,48.5000,20809627,0.0000,1.0000
2015-02-12,47.9800,48.4500,46.8800,47.9500,47.9500,23071572,0.0000,1.0000
2015-02-11,46.2700,47.7800,46.1100,47.5000,47.5000,24721839,0.0000,1.0000
2015-02-10,47.3500,47.3900,45.5700,46.2600,46.2600,32287813,0.0000,1.0000
2015-02-09,46.7300,47.6900,46.5000,47.3200,47.3200,36155251,0.0000,1.0000
2015-02-06,46.1200,48.5000,45.8000,48.0100,48.0100,102943071,0.0000,1.0000
2015-02-05,42.0400,43.7900,40.9100,41.2600,41.2600,61020760,0.0000,1.0000
2015-02-04,40.0500,40.8300,39.8200,40.7200,40.7200,23086858,0.0000,1.0000
2015-02-03,38.0000,40.1900,37.6910,39.7900,39.7900,28395371,0.0000,1.0000
2015-02-02,37.7000,38.0700,36.9200,37.4600,37.4600,13887434,0.0000,1.0000
2015-01-30,36.6500,38.1500,36.4100,37.5300,37.5300,15375644,0.0000,1.0000
2015-01-29,37.3900,37.5700,36.0700,36.6800,36.6800,20050192,0.0000,1.0000
2015-01-28,38.4300,38.7800,37.0300,37.1500,37.1500,22329910,0.0000,1.0000
2015-01-27,39.5600,39.6100,38.3770,38.9200,38.9200,15746411,0.0000,1.0000
2015-01-26,39.3300,40.1300,39.0400,40.1000,40.1000,13822492,0.0000,1.0000
2015-01-23,39.4800,39.9700,38.7800,39.4200,39.4200,16428543,0.0000,1.0000
2015-01-22,37.9800,39.2500,37.5500,39.0700,39.0700,20433688,0.0000,1.0000
2015-01-21,37.6500,38.2700,37.3300,37.8300,37.8300,12171275,0.0000,1.0000
2015-01-20,37.5900,38.1400,36.5400,37.5700,37.5700,17581148,0.0000,1.0000
2015-01-16,37.1800,38.1300,36.8500,37.3100,37.3100,14966077,0.0000,1.0000
2015-01-15,39.7000,39.7000,36.8600,36.9300,36.9300,23007787,0.0000,1.0000
2015-01-14,38.8900,40.1800,38.8000,39.8500,39.8500,16044861,0.0000,1.0000
2015-01-13,39.7400,40.3500,39.2300,39.6500,39.6500,18496097,0.0000,1.0000
2015-01-12,40.2800,40.9500,39.3000,39.3700,39.3700,27617234,0.0000,1.0000
2015-01-09,39.2200,40.3400,38.2550,40.1700,40.1700,24582845,0.0000,1.0000
2015-01-08,37.4200,39.1900,37.0900,39.0900,39.0900,19163771,0.0000,1.0000
2015-01-07,39.1000,39.1000,37.0600,37.2800,37.2800,22656588,0.0000,1.0000
2015-01-06,36.2700,39.4500,36.0400,38.7600,38.7600,33006922,0.0000,1.0000
2015-01-05,36.2600,37.1100,35.6400,36.3800,36.3800,15062744,0.0000,1.0000
2015-01-02,36.2300,36.7400,35.5401,36.5600,36.5600,12046594,0.0000,1.0000
2014-12-31,35.8900,36.4900,35.4700,35.8700,35.8700,17650083,0.0000,1.0000
2014-12-30,36.0200,36.2390,35.4600,35.8600,35.8600,19494563,0.0000,1.0000
2014-12-29,37.3900,37.5100,36.3800,36.4200,36.4200,13565360,0.0000,1.0000
2014-12-26,37.7600,38.1000,37.5400,37.6000,37.6000,7316551,0.0000,1.0000
2014-12-24,37.6700,38.3500,37.5600,37.6100,37.6100,6263320,0.0000,1.0000
2014-12-23,38.5800,39.2500,37.4600,37.5700,37.5700,16853410,0.0000,1.0000
2014-12-22,37.5000,38.8200,37.3100,38.4300,38.4300,20064110,0.0000,1.0000
2014-12-19,36.7000,37.4500,36.5000,37.0800,37.0800,16068717,0.0000,1.0000
2014-12-18,36.1300,37.2700,35.9500,36.7300,36.7300,19083321,0.0000,1.0000
2014-12-17,35.5600,35.9000,34.9500,35.5700,35.5700,18544835,0.0000,1.0000
2014-12-16,36.5000,36.7100,35.0900,35.1300,35.1300,19215923,0.0000,1.0000
2014-12-15,38.1300,38.3800,36.7300,36.8500,36.8500,16832975,0.0000,1.0000
2014-12-12,36.3100,37.7100,36.1000,37.1000,37.1000,15217045,0.0000,1.0000
2014-12-11,36.4500,37.2300,36.2500,36.7000,36.7000,15702087,0.0000,1.0000
2014-12-10,36.9100,37.7800,36.2500,36.3500,36.3500,16486359,0.0000,1.0000
2014-12-09,34.9700,37.0900,34.6200,37.0500,37.0500,20516468,0.0000,1.0000
2014-12-08,38.0800,38.1200,35.7500,36.2900,36.2900,30093135,0.0000,1.0000
2014-12-05,38.9700,39.0700,38.3500,38.4900,38.4900,12587725,0.0000,1.0000
2014-12-04,38.8000,39.6600,38.6200,38.7900,38.7900,13024401,0.0000,1.0000
2014-12-03,39.0000,39.4200,38.3800,39.0600,39.0600,13241278,0.0000,1.0000
2014-12-02,39.4000,39.4000,38.3300,38.9100,38.9100,16430289,0.0000,1.0000
2014-12-01,41.2900,41.2900,39.0000,39.0400,39.0400,22213988,0.0000,1.0000
2014-11-28,41.0900,42.0800,40.8300,41.7400,41.7400,11113905,0.0000,1.0000
2014-11-26,39.8300,41.5600,39.7400,41.1300,41.1300,23794731,0.0000,1.0000
2014-11-25,40.1200,40.3000,39.5600,39.7600,39.7600,16165082,0.0000,1.0000
2014-11-24,39.9900,40.4700,39.5800,40.1900,40.1900,15158270,0.0000,1.0000
2014-11-21,40.2500,40.2800,39.8000,40.0300,40.0300,12056170,0.0000,1.0000
2014-11-20,39.4900,40.5500,39.3200,39.8100,39.8100,13710055,0.0000,1.0000
2014-11-19,40.3500,40.4700,39.2100,39.7100,39.7100,19017595,0.0000,1.0000
2014-11-18,40.6900,41.1700,39.9500,40.6100,40.6100,18605048,0.0000,1.0000
2014-11-17,41.4600,41.6800,40.4100,40.4700,40.4700,20649865,0.0000,1.0000
2014-11-14,40.0200,41.8500,39.7700,41.8500,41.8500,33036636,0.0000,1.0000
2014-11-13,43.5500,43.9500,39.9500,40.0400,40.0400,67287397,0.0000,1.0000
2014-11-12,39.9400,42.9400,39.6000,42.5400,42.5400,51695486,0.0000,1.0000
2014-11-11,39.3100,39.8400,38.8100,39.5900,39.5900,19199463,0.0000,1.0000
2014-11-10,40.3400,40.6900,39.4200,39.5900,39.5900,19053313,0.0000,1.0000
2014-11-07,40.7400,40.7400,39.7000,40.3100,40.3100,18558908,0.0000,1.0000
2014-11-06,40.1900,41.3500,40.1000,40.8400,40.8400,16274657,0.0000,1.0000
2014-11-05,41.6900,41.8000,40.1300,40.3700,40.3700,19712971,0.0000,1.0000
2014-11-04,40.0250,41.1000,39.7500,40.9000,40.9000,19526930,0.0000,1.0000
2014-11-03,40.5500,41.2000,40.1600,40.2100,40.2100,31438732,0.0000,1.0000
2014-10-31,42.6900,42.8500,41.3400,41.4700,41.4700,23895091,0.0000,1.0000
2014-10-30,41.5600,42.4800,39.9400,41.8000,41.8000,42002952,0.0000,1.0000
2014-10-29,43.8500,44.1600,41.8100,42.0800,42.0800,40261918,0.0000,1.0000
2014-10-28,42.2500,44.5800,41.7600,43.7800,43.7800,83514039,0.0000,1.0000
2014-10-27,50.0200,50.2400,47.1814,48.5600,48.5600,51123932,0.0000,1.0000
2014-10-24,50.1600,50.1900,49.1500,49.9500,49.9500,12003892,0.0000,1.0000
2014-10-23,50.1300,50.4000,49.2000,49.6700,49.6700,23083220,0.0000,1.0000
2014-10-22,51.1300,51.8400,49.0000,49.0800,49.0800,26126860,0.0000,1.0000
2014-10-21,51.7600,52.1500,50.3000,50.6300,50.6300,21326915,0.0000,1.0000
2014-10-20,49.0700,50.8900,48.8000,50.7000,50.7000,17747973,0.0000,1.0000
2014-10-17,49.7200,50.2500,48.6500,48.7700,48.7700,24630575,0.0000,1.0000
2014-10-16,48.3400,49.8200,47.1700,48.2300,48.2300,30803144,0.0000,1.0000
2014-10-15,47.1100,50.5200,46.3800,49.9900,49.9900,34371495,0.0000,1.0000
2014-10-14,49.0600,49.5300,47.0800,48.5800,48.5800,29723607,0.0000,1.0000
2014-10-13,50.5400,51.9100,48.2600,48.4900,48.4900,35326778,0.0000,1.0000
2014-10-10,54.5700,55.6600,50.3000,50.4000,50.4000,46711423,0.0000,1.0000
2014-10-09,55.2900,55.9900,54.9200,55.2900,55.2900,29725262,0.0000,1.0000
2014-10-08,53.6200,55.6684,52.6000,55.4200,55.4200,31065442,0.0000,1.0000
2014-10-07,53.1200,54.9900,53.1000,53.5300,53.5300,26082251,0.0000,1.0000
2014-10-06,53.9400,54.4500,53.2260,53.4900,53.4900,20033423,0.0000,1.0000
2014-10-03,52.7500,54.7300,52.1100,53.9400,53.9400,31201809,0.0000,1.0000
2014-10-02,51.0300,52.1000,50.0100,51.8500,51.8500,27056496,0.0000,1.0000
2014-10-01,51.0800,51.2900,49.1500,50.0600,50.0600,24724755,0.0000,1.0000
2014-09-30,52.0000,52.1900,51.1700,51.5800,51.5800,12289163,0.0000,1.0000
2014-09-29,51.0900,52.1800,50.8800,51.7400,51.7400,15398439,0.0000,1.0000
2014-09-26,51.9700,52.6100,51.7000,51.8900,51.8900,14125293,0.0000,1.0000
2014-09-25,52.7100,53.2300,51.2700,51.4500,51.4500,20997064,0.0000,1.0000
2014-09-24,52.5500,53.3400,52.1300,52.9600,52.9600,17614893,0.0000,1.0000
2014-09-23,51.4600,52.5600,51.0200,52.1700,52.1700,19937154,0.0000,1.0000
2014-09-22,52.3800,52.9000,51.3600,51.9400,51.9400,21687447,0.0000,1.0000
2014-09-19,50.7800,53.0000,50.1800,53.0000,53.0000,38158100,0.0000,1.0000
2014-09-18,50.9700,51.8800,50.5300,50.8800,50.8800,22456700,0.0000,1.0000
2014-09-17,50.9700,51.6000,50.1612,50.7000,50.7000,22845800,0.0000,1.0000
2014-09-16,48.7000,50.9100,48.4000,50.8300,50.8300,26705400,0.0000,1.0000
2014-09-15,51.6000,51.9270,47.5600,49.3800,49.3800,38300800,0.0000,1.0000
2014-09-12,52.5500,52.8200,52.0200,52.1100,52.1100,22913800,0.0000,1.0000
2014-09-11,52.5500,53.6400,52.1800,52.6400,52.6400,38055400,0.0000,1.0000
2014-09-10,52.1100,53.3300,51.8500,52.9100,52.9100,37907700,0.0000,1.0000
2014-09-09,52.2300,52.4000,50.2200,50.6100,50.6100,24998900,0.0000,1.0000
2014-09-08,51.8000,52.6800,51.6800,52.0000,52.0000,30796500,0.0000,1.0000
2014-09-05,50.0900,50.8800,49.5200,50.7000,50.7000,20226400,0.0000,1.0000
2014-09-04,49.6900,50.8600,49.2200,50.2400,50.2400,24393700,0.0000,1.0000
2014-09-03,51.8300,51.8500,49.0500,49.3300,49.3300,34366600,0.0000,1.0000
2014-09-02,50.0200,51.3400,49.9000,51.0200,51.0200,28192200,0.0000,1.0000
2014-08-29,49.8900,50.3500,49.1300,49.7500,49.7500,31912200,0.0000,1.0000
2014-08-28,47.9800,49.8800,47.8600,49.4300,49.4300,35030200,0.0000,1.0000
2014-08-27,48.2400,48.4600,47.1800,48.0600,48.0600,26110800,0.0000,1.0000
2014-08-26,46.1000,48.2000,46.0400,48.1700,48.1700,27573100,0.0000,1.0000
2014-08-25,46.2200,46.3600,45.7000,46.1000,46.1000,17548000,0.0000,1.0000
2014-08-22,45.0400,46.1400,44.8000,45.9800,45.9800,19411300,0.0000,1.0000
2014-08-21,45.2900,45.3500,44.8400,45.1100,45.1100,10598300,0.0000,1.0000
2014-08-20,44.9300,45.2100,44.7600,45.0600,45.0600,10367200,0.0000,1.0000
2014-08-19,45.2400,45.4500,45.0290,45.0900,45.0900,11873100,0.0000,1.0000
2014-08-18,45.0600,45.3300,44.7700,45.1200,45.1200,14814000,0.0000,1.0000
2014-08-15,45.4700,45.5000,44.4400,44.7600,44.7600,17776700,0.0000,1.0000
2014-08-14,44.4000,45.3400,44.0436,45.3300,45.3300,23598000,0.0000,1.0000
2014-08-13,44.1200,44.3400,43.6200,44.1500,44.1500,16148000,0.0000,1.0000
2014-08-12,44.3800,44.7200,43.6100,43.8100,43.8100,29537500,0.0000,1.0000
2014-08-11,43.4800,43.6000,42.7100,43.2700,43.2700,18374000,0.0000,1.0000
2014-08-08,43.0200,43.3600,42.5100,43.1300,43.1300,14967900,0.0000,1.0000
2014-08-07,43.3700,44.3700,42.8900,43.0000,43.0000,25370300,0.0000,1.0000
2014-08-06,43.3900,44.0400,42.7500,43.4600,43.4600,20333600,0.0000,1.0000
2014-08-05,43.2500,44.4800,43.0200,43.8300,43.8300,26327900,0.0000,1.0000
2014-08-04,43.7000,44.5300,43.4400,43.4700,43.4700,22390000,0.0000,1.0000
2014-08-01,45.0100,45.5400,43.8100,44.1300,44.1300,37171100,0.0000,1.0000
2014-07-31,44.6200,45.8400,44.3000,45.1900,45.1900,47105700,0.0000,1.0000
2014-07-30,47.0100,48.0000,45.6500,46.3000,46.3000,116051400,0.0000,1.0000
2014-07-29,38.1100,38.9200,37.9900,38.5900,38.5900,61396000,0.0000,1.0000
2014-07-28,38.3000,38.4400,37.5600,37.9300,37.9300,16706500,0.0000,1.0000
2014-07-25,38.2000,38.8000,38.0200,38.1600,38.1600,15950400,0.0000,1.0000
2014-07-24,38.7100,39.0000,37.8500,38.7100,38.7100,22082800,0.0000,1.0000
2014-07-23,37.6500,38.1900,37.5600,37.7500,37.7500,13141200,0.0000,1.0000
2014-07-22,38.3100,38.6000,37.4500,37.6500,37.6500,16825700,0.0000,1.0000
2014-07-21,37.2300,38.2900,36.8500,38.0500,38.0500,19657500,0.0000,1.0000
2014-07-18,36.8100,37.0800,35.9500,37.0500,37.0500,26340400,0.0000,1.0000
2014-07-17,36.8000,37.1700,36.3800,36.8700,36.8700,22609600,0.0000,1.0000
2014-07-16,38.3100,38.5200,37.1000,37.4300,37.4300,19687200,0.0000,1.0000
2014-07-15,38.5900,38.9900,37.6200,37.8800,37.8800,24630600,0.0000,1.0000
2014-07-14,38.5700,39.3780,38.2000,38.3100,38.3100,19672200,0.0000,1.0000
2014-07-11,38.1500,38.7900,38.0000,38.3300,38.3300,21053300,0.0000,1.0000
2014-07-10,36.4900,38.1000,36.1100,37.8400,37.8400,26538400,0.0000,1.0000
2014-07-09,37.8200,38.3500,37.3500,38.0600,38.0600,26801700,0.0000,1.0000
2014-07-08,39.9600,40.0400,36.8400,37.4100,37.4100,49908400,0.0000,1.0000
2014-07-07,41.0800,41.4544,40.1400,40.2300,40.2300,21367600,0.0000,1.0000
2014-07-03,41.9400,42.0000,40.8250,41.3300,41.3300,15795100,0.0000,1.0000
2014-07-02,42.8300,42.8300,41.4200,41.7700,41.7700,24352300,0.0000,1.0000
2014-07-01,42.0600,42.9500,41.9100,42.0500,42.0500,35982400,0.0000,1.0000
2014-06-30,40.8100,41.3400,40.3500,40.9700,40.9700,22747500,0.0000,1.0000
2014-06-27,40.7000,41.1500,40.1100,40.9300,40.9300,48253400,0.0000,1.0000
2014-06-26,40.0500,42.0000,39.8100,41.4400,41.4400,45281600,0.0000,1.0000
2014-06-25,38.2400,39.5900,38.0100,39.4600,39.4600,25430200,0.0000,1.0000
2014-06-24,39.4400,39.6400,38.2550,38.4800,38.4800,24436200,0.0000,1.0000
2014-06-23,39.0700,39.5800,38.7300,39.5200,39.5200,22560100,0.0000,1.0000
2014-06-20,38.8200,39.2400,37.7727,39.2400,39.2400,41471100,0.0000,1.0000
2014-06-19,38.7300,39.3000,38.3200,38.9000,38.9000,24618300,0.0000,1.0000
2014-06-18,38.1600,38.8300,37.7500,38.7400,38.7400,23660900,0.0000,1.0000
2014-06-17,38.0300,38.5500,37.2980,38.0200,38.0200,30297600,0.0000,1.0000
2014-06-16,36.7000,38.1700,36.4400,38.0200,38.0200,29818300,0.0000,1.0000
2014-06-13,36.8500,37.2500,35.9000,36.9000,36.9000,29105500,0.0000,1.0000
2014-06-12,35.0600,37.2700,35.0600,36.7900,36.7900,58081500,0.0000,1.0000
2014-06-11,35.0700,35.9700,34.9300,35.5400,35.5400,29981000,0.0000,1.0000
2014-06-10,34.7300,35.5000,34.6600,35.3700,35.3700,36503400,0.0000,1.0000
2014-06-09,33.2400,34.5500,33.0900,34.4700,34.4700,23358200,0.0000,1.0000
2014-06-06,34.1400,34.4100,33.2200,33.3300,33.3300,23339800,0.0000,1.0000
2014-06-05,33.6700,34.8900,33.1120,33.8900,33.8900,40904900,0.0000,1.0000
2014-06-04,32.4900,33.3200,31.8500,32.9000,32.9000,24863000,0.0000,1.0000
2014-06-03,31.7300,32.6900,31.6500,32.5800,32.5800,19948800,0.0000,1.0000
2014-06-02,32.8900,33.2000,31.6200,31.7500,31.7500,31154200,0.0000,1.0000
2014-05-30,33.7300,33.8600,32.1100,32.4400,32.4400,40566000,0.0000,1.0000
2014-05-29,34.6700,35.1400,33.8800,34.0000,34.0000,54016300,0.0000,1.0000
2014-05-28,31.5000,33.8400,31.0900,33.7700,33.7700,60302800,0.0000,1.0000
2014-05-27,30.9400,31.2000,30.3800,30.5100,30.5100,25240100,0.0000,1.0000
2014-05-23,31.5100,31.6800,30.4500,30.5000,30.5000,27448000,0.0000,1.0000
2014-05-22,31.3300,32.2500,30.5200,31.5200,31.5200,35566200,0.0000,1.0000
2014-05-21,31.8500,31.9500,31.1500,31.7500,31.7500,15562600,0.0000,1.0000
2014-05-20,32.0000,32.3900,31.5200,31.7700,31.7700,16580500,0.0000,1.0000
2014-05-19,32.0500,32.4400,31.6400,32.0700,32.0700,15952800,0.0000,1.0000
2014-05-16,32.9500,33.2100,32.0200,32.2600,32.2600,21391400,0.0000,1.0000
2014-05-15,33.0200,33.2900,32.1600,32.7700,32.7700,22030500,0.0000,1.0000
2014-05-14,33.3500,33.8300,32.6200,32.8500,32.8500,20029400,0.0000,1.0000
2014-05-13,33.8400,34.0600,32.8900,33.3900,33.3900,24676800,0.0000,1.0000
2014-05-12,33.0800,34.1000,32.4000,33.9400,33.9400,34712700,0.0000,1.0000
2014-05-09,32.2300,33.1100,31.7500,32.0500,32.0500,31888800,0.0000,1.0000
2014-05-08,31.4800,32.9800,31.1300,31.9600,31.9600,51282800,0.0000,1.0000
2014-05-07,31.9700,32.0000,29.5100,30.6600,30.6600,68876300,0.0000,1.0000
2014-05-06,35.6100,36.1000,31.7200,31.8500,31.8500,134710000,0.0000,1.0000
2014-05-05,38.5200,39.6000,38.0500,38.7500,38.7500,10405200,0.0000,1.0000
2014-05-02,39.2000,39.8600,38.7000,39.0200,39.0200,12729500,0.0000,1.0000
2014-05-01,39.0100,40.7700,38.9660,39.0900,39.0900,15759800,0.0000,1.0000
2014-04-30,37.6600,38.9800,37.2400,38.9700,38.9700,38397900,0.0000,1.0000
2014-04-29,40.5300,43.9700,40.1750,42.6200,42.6200,28127700,0.0000,1.0000
2014-04-28,41.7600,42.3500,39.3000,40.7300,40.7300,14358900,0.0000,1.0000
2014-04-25,44.2900,44.4400,41.3100,41.6100,41.6100,13712400,0.0000,1.0000
2014-04-24,46.7100,46.7900,43.6300,44.8200,44.8200,11011700,0.0000,1.0000
2014-04-23,45.8800,46.1700,44.8700,45.9500,45.9500,7340200,0.0000,1.0000
2014-04-22,46.2300,47.0900,45.8000,46.0200,46.0200,6996900,0.0000,1.0000
2014-04-21,44.9600,46.3000,44.6400,46.1300,46.1300,6921200,0.0000,1.0000
2014-04-17,44.6600,46.5500,43.9100,45.0100,45.0100,12304400,0.0000,1.0000
2014-04-16,45.4200,45.5600,43.5400,44.4200,44.4200,13919600,0.0000,1.0000
2014-04-15,41.2800,45.5500,40.7600,45.5200,45.5200,24285100,0.0000,1.0000
2014-04-14,41.4000,41.9500,40.1200,40.8700,40.8700,10414200,0.0000,1.0000
2014-04-11,40.7900,41.1000,39.6800,40.0500,40.0500,9999700,0.0000,1.0000
2014-04-10,42.8500,43.2500,40.9300,41.3400,41.3400,10720900,0.0000,1.0000
2014-04-09,42.2300,43.0600,41.7700,42.4900,42.4900,14330700,0.0000,1.0000
2014-04-08,43.4200,43.4200,41.5500,41.7800,41.7800,14514500,0.0000,1.0000
2014-04-07,42.8700,44.6000,42.2600,42.4500,42.4500,12053000,0.0000,1.0000
2014-04-04,44.2000,44.8700,42.3700,43.1400,43.1400,13824400,0.0000,1.0000
2014-04-03,45.4800,45.6100,43.3800,44.0500,44.0500,11175800,0.0000,1.0000
2014-04-02,47.4000,47.4400,45.5100,45.7300,45.7300,7911300,0.0000,1.0000
2014-04-01,46.7100,47.5900,46.1800,46.9800,46.9800,6916100,0.0000,1.0000
2014-03-31,47.5500,47.7500,46.4300,46.6700,46.6700,5794500,0.0000,1.0000
2014-03-28,46.6500,47.3400,45.7000,47.3000,47.3000,9610500,0.0000,1.0000
2014-03-27,45.0900,46.4000,43.3100,46.3200,46.3200,15507600,0.0000,1.0000
2014-03-26,48.0600,48.3000,44.2500,44.4300,44.4300,16079700,0.0000,1.0000
2014-03-25,49.3500,49.7000,47.5800,47.8800,47.8800,8225600,0.0000,1.0000
2014-03-24,50.6900,50.9400,47.7700,48.7700,48.7700,12325700,0.0000,1.0000
2014-03-21,50.2400,50.9200,49.5100,50.9200,50.9200,11801400,0.0000,1.0000
2014-03-20,51.0000,51.6600,49.6400,50.1200,50.1200,10086200,0.0000,1.0000
2014-03-19,50.8000,51.9800,50.7100,51.2400,51.2400,7624200,0.0000,1.0000
2014-03-18,52.0300,52.2100,50.2900,51.1300,51.1300,12228900,0.0000,1.0000
2014-03-17,52.0800,52.4900,51.3500,52.0500,52.0500,6600900,0.0000,1.0000
2014-03-14,53.4000,53.9100,51.8000,51.9200,51.9200,9570400,0.0000,1.0000
2014-03-13,54.9000,55.4500,53.2000,53.5700,53.5700,7671500,0.0000,1.0000
2014-03-12,54.2500,55.3000,53.8800,54.5000,54.5000,5818400,0.0000,1.0000
2014-03-11,54.1600,55.8400,53.8000,54.0200,54.0200,11762600,0.0000,1.0000
2014-03-10,54.0900,54.5900,53.3800,53.8800,53.8800,5759600,0.0000,1.0000
2014-03-07,55.1800,55.2000,53.3100,53.5300,53.5300,7311500,0.0000,1.0000
2014-03-06,54.9100,56.0900,54.7000,54.8300,54.8300,9005700,0.0000,1.0000
2014-03-05,54.5300,55.0300,53.7500,54.3800,54.3800,5672000,0.0000,1.0000
2014-03-04,54.2500,55.2800,54.1200,54.2800,54.2800,6706300,0.0000,1.0000
2014-03-03,53.8900,54.4000,52.9000,53.7100,53.7100,9602300,0.0000,1.0000
2014-02-28,55.9300,56.0000,54.1300,54.9100,54.9100,8137200,0.0000,1.0000
2014-02-27,56.3400,56.6900,55.4000,55.7700,55.7700,6537700,0.0000,1.0000
2014-02-26,55.0000,56.9900,54.9000,55.8700,55.8700,12116000,0.0000,1.0000
2014-02-25,55.8900,55.9500,54.5000,54.9600,54.9600,9288500,0.0000,1.0000
2014-02-24,56.0300,56.4900,55.3000,55.7800,55.7800,8451200,0.0000,1.0000
2014-02-21,57.1000,57.2000,55.7000,55.9200,55.9200,7714300,0.0000,1.0000
2014-02-20,55.8200,57.0800,54.6500,56.6300,56.6300,12097500,0.0000,1.0000
2014-02-19,58.4700,58.9500,54.6200,55.5000,55.5000,25772100,0.0000,1.0000
2014-02-18,57.8800,58.6400,56.7700,58.1800,58.1800,10719500,0.0000,1.0000
2014-02-14,57.0200,57.8600,56.7000,57.4400,57.4400,12512400,0.0000,1.0000
2014-02-13,56.0700,58.9800,55.4600,56.4700,56.4700,26009500,0.0000,1.0000
2014-02-12,55.0500,57.0000,54.7600,56.8500,56.8500,20040400,0.0000,1.0000
2014-02-11,53.2000,54.4000,53.1000,54.0000,54.0000,13162900,0.0000,1.0000
2014-02-10,54.5000,54.5900,52.3400,52.9200,52.9200,15857400,0.0000,1.0000
2014-02-07,51.2300,54.9200,50.7500,54.3500,54.3500,32204400,0.0000,1.0000
2014-02-06,50.6100,53.9000,49.9900,50.0300,50.0300,64856500,0.0000,1.0000
2014-02-05,67.1600,67.2400,64.8000,65.9700,65.9700,31504900,0.0000,1.0000
2014-02-04,66.2500,66.3700,64.5000,66.3200,66.3200,13017400,0.0000,1.0000
2014-02-03,65.9200,66.4800,64.2100,65.2500,65.2500,17890300,0.0000,1.0000
2014-01-31,63.3900,65.3700,62.6500,64.5000,64.5000,15498800,0.0000,1.0000
2014-01-30,63.9800,65.2400,62.8000,63.4700,63.4700,17424300,0.0000,1.0000
2014-01-29,59.6200,60.9500,58.6000,59.4500,59.4500,9140000,0.0000,1.0000
2014-01-28,57.4400,60.8500,57.3500,60.4400,60.4400,9346800,0.0000,1.0000
2014-01-27,61.7700,61.7700,56.1000,57.9100,57.9100,18982700,0.0000,1.0000
2014-01-24,62.1700,63.6200,61.3000,61.7400,61.7400,12942200,0.0000,1.0000
2014-01-23,61.4500,62.8100,60.8800,62.8000,62.8000,10183700,0.0000,1.0000
2014-01-22,63.1100,63.8000,61.7600,62.4400,62.4400,12039000,0.0000,1.0000
2014-01-21,63.3300,63.4400,61.5000,62.5300,62.5300,13733200,0.0000,1.0000
2014-01-17,63.6000,64.6900,61.5900,62.2000,62.2000,28391100,0.0000,1.0000
2014-01-16,61.4500,62.4000,60.4600,60.5700,60.5700,16589400,0.0000,1.0000
2014-01-15,59.1100,61.7500,58.3200,61.5700,61.5700,21537300,0.0000,1.0000
2014-01-14,58.8800,59.0200,57.3600,58.2100,58.2100,14778000,0.0000,1.0000
2014-01-13,59.9800,60.3800,57.2940,57.8200,57.8200,20978100,0.0000,1.0000
2014-01-10,57.5000,58.7600,55.8700,57.0000,57.0000,22375900,0.0000,1.0000
2014-01-09,59.5400,60.8100,55.5900,57.0500,57.0500,31092100,0.0000,1.0000
2014-01-08,58.7100,61.2600,57.9200,59.2900,59.2900,27263200,0.0000,1.0000
2014-01-07,67.6700,67.7300,61.3900,61.4600,61.4600,31748400,0.0000,1.0000
2014-01-06,64.8300,66.8700,63.5000,66.2900,66.2900,27243700,0.0000,1.0000
2014-01-03,69.0000,70.4300,68.4320,69.0000,69.0000,33207200,0.0000,1.0000
2014-01-02,65.0000,67.5000,64.4000,67.5000,67.5000,29246400,0.0000,1.0000
2013-12-31,62.3600,65.2200,61.6500,63.6500,63.6500,27814600,0.0000,1.0000
2013-12-30,60.2700,63.7100,58.5700,60.5100,60.5100,55538300,0.0000,1.0000
2013-12-27,70.1000,71.2500,63.6900,63.7500,63.7500,60418700,0.0000,1.0000
2013-12-26,72.8800,74.7300,69.1301,73.3100,73.3100,82761100,0.0000,1.0000
2013-12-24,66.3400,70.8700,65.5600,69.9600,69.9600,35802700,0.0000,1.0000
2013-12-23,59.8500,64.9900,59.7000,64.5400,64.5400,22163800,0.0000,1.0000
2013-12-20,58.5100,60.2500,58.0100,60.0100,60.0100,26207400,0.0000,1.0000
2013-12-19,55.0800,57.7500,55.0000,57.4900,57.4900,13152500,0.0000,1.0000
2013-12-18,57.0000,57.0000,54.2300,55.5100,55.5100,16659800,0.0000,1.0000
2013-12-17,56.9700,57.3800,54.6200,56.4500,56.4500,22115200,0.0000,1.0000
2013-12-16,57.8600,60.2400,55.7600,56.6100,56.6100,39310800,0.0000,1.0000
2013-12-13,56.2000,59.4100,55.4500,59.0000,59.0000,38979600,0.0000,1.0000
2013-12-12,52.2000,55.8700,50.6900,55.3300,55.3300,23446900,0.0000,1.0000
2013-12-11,52.4000,53.8700,51.0000,52.3400,52.3400,26631500,0.0000,1.0000
2013-12-10,48.9000,52.5800,48.7000,51.9900,51.9900,25792000,0.0000,1.0000
2013-12-09,45.5900,49.8400,45.0200,49.1400,49.1400,17366600,0.0000,1.0000
2013-12-06,45.7500,45.8000,44.5400,44.9500,44.9500,6230000,0.0000,1.0000
2013-12-05,43.4500,46.3500,42.8300,45.6200,45.6200,11729400,0.0000,1.0000
2013-12-04,41.2700,43.9200,41.2700,43.6900,43.6900,11014900,0.0000,1.0000
2013-12-03,40.6900,41.6000,40.5400,41.3700,41.3700,5771000,0.0000,1.0000
2013-12-02,41.7900,42.0000,40.4000,40.7800,40.7800,6424300,0.0000,1.0000
2013-11-29,41.4000,41.5800,40.9000,41.5700,41.5700,4107000,0.0000,1.0000
2013-11-27,40.4700,41.4000,40.3500,40.9000,40.9000,5536300,0.0000,1.0000
2013-11-26,39.1600,40.5500,38.9200,40.1800,40.1800,9828400,0.0000,1.0000
2013-11-25,41.0800,41.1400,38.8000,39.0600,39.0600,14333300,0.0000,1.0000
2013-11-22,41.8100,42.2800,40.9700,41.0000,41.0000,6185200,0.0000,1.0000
2013-11-21,41.2500,42.4900,40.3700,42.0600,42.0600,8324700,0.0000,1.0000
2013-11-20,41.4000,41.7500,40.5100,41.0500,41.0500,5767300,0.0000,1.0000
2013-11-19,41.3900,41.9000,40.0000,41.7500,41.7500,7436600,0.0000,1.0000
2013-11-18,43.5000,43.9500,40.8500,41.1400,41.1400,12810600,0.0000,1.0000
2013-11-15,45.2500,45.2700,43.4300,43.9800,43.9800,8010600,0.0000,1.0000
2013-11-14,42.3400,45.6700,42.2400,44.6900,44.6900,11099400,0.0000,1.0000
2013-11-13,41.0300,42.8700,40.7600,42.6000,42.6000,8688300,0.0000,1.0000
2013-11-12,43.6600,43.7800,41.8300,41.9000,41.9000,6316700,0.0000,1.0000
2013-11-11,40.5000,43.0000,39.4000,42.9000,42.9000,16113900,0.0000,1.0000
2013-11-08,45.9300,46.9400,40.6850,41.6500,41.6500,27925300,0.0000,1.0000
2013-11-07,45.1000,50.0900,44.0000,44.9000,44.9000,117701600,0.0000,1.0000
